"FILTER","CHOICE(S)"


"Site","Emory University Hospital",(Site:1)
"IT Discharge date","From 01/01/2008 To 12/31/2008"

"MEAN REPORT"


"IT Room","IT Discharge date","Question","mean"
"'G743'","'10/12/08 10/18/08'","Std Transplant Communication",-
"'G743'","'10/12/08 10/18/08'","Transplant Communication",100.0
"'G743'","'10/12/08 10/18/08'","How well transplant team listened*",100.0
"'G743'","'10/12/08 10/18/08'","Communication between doctors*",100.0
"'G743'","'10/12/08 10/18/08'","Responsiveness of transplant team*",100.0
"'G743'","'10/12/08 10/18/08'","Timeliness of response to concerns*",100.0
"'Total'","'10/12/08 10/18/08'","Std Transplant Communication",-
"'Total'","'10/12/08 10/18/08'","Transplant Communication",100.0
"'Total'","'10/12/08 10/18/08'","How well transplant team listened*",100.0
"'Total'","'10/12/08 10/18/08'","Communication between doctors*",100.0
"'Total'","'10/12/08 10/18/08'","Responsiveness of transplant team*",100.0
"'Total'","'10/12/08 10/18/08'","Timeliness of response to concerns*",100.0
"'G757'","'10/19/08 10/25/08'","Std Transplant Communication",-
"'G757'","'10/19/08 10/25/08'","Transplant Communication",75.0
"'G757'","'10/19/08 10/25/08'","How well transplant team listened*",75.0
"'G757'","'10/19/08 10/25/08'","Communication between doctors*",75.0
"'G757'","'10/19/08 10/25/08'","Responsiveness of transplant team*",75.0
"'G757'","'10/19/08 10/25/08'","Timeliness of response to concerns*",75.0
"'Total'","'10/19/08 10/25/08'","Std Transplant Communication",-
"'Total'","'10/19/08 10/25/08'","Transplant Communication",75.0
"'Total'","'10/19/08 10/25/08'","How well transplant team listened*",75.0
"'Total'","'10/19/08 10/25/08'","Communication between doctors*",75.0
"'Total'","'10/19/08 10/25/08'","Responsiveness of transplant team*",75.0
"'Total'","'10/19/08 10/25/08'","Timeliness of response to concerns*",75.0
"'G748'","'10/26/08 11/1/08'","Std Transplant Communication",-
"'G748'","'10/26/08 11/1/08'","Transplant Communication",100.0
"'G748'","'10/26/08 11/1/08'","How well transplant team listened*",100.0
"'G748'","'10/26/08 11/1/08'","Communication between doctors*",100.0
"'G748'","'10/26/08 11/1/08'","Responsiveness of transplant team*",100.0
"'G748'","'10/26/08 11/1/08'","Timeliness of response to concerns*",100.0
"'G745'","'10/26/08 11/1/08'","Std Transplant Communication",-
"'G745'","'10/26/08 11/1/08'","Transplant Communication",100.0
"'G745'","'10/26/08 11/1/08'","How well transplant team listened*",100.0
"'G745'","'10/26/08 11/1/08'","Communication between doctors*",100.0
"'G745'","'10/26/08 11/1/08'","Responsiveness of transplant team*",100.0
"'G745'","'10/26/08 11/1/08'","Timeliness of response to concerns*",100.0
"'Total'","'10/26/08 11/1/08'","Std Transplant Communication",-
"'Total'","'10/26/08 11/1/08'","Transplant Communication",100.0
"'Total'","'10/26/08 11/1/08'","How well transplant team listened*",100.0
"'Total'","'10/26/08 11/1/08'","Communication between doctors*",100.0
"'Total'","'10/26/08 11/1/08'","Responsiveness of transplant team*",100.0
"'Total'","'10/26/08 11/1/08'","Timeliness of response to concerns*",100.0
"'G758'","'11/2/08 11/8/08'","Std Transplant Communication",-
"'G758'","'11/2/08 11/8/08'","Transplant Communication",75.0
"'G758'","'11/2/08 11/8/08'","How well transplant team listened*",75.0
"'G758'","'11/2/08 11/8/08'","Communication between doctors*",75.0
"'G758'","'11/2/08 11/8/08'","Responsiveness of transplant team*",75.0
"'G758'","'11/2/08 11/8/08'","Timeliness of response to concerns*",75.0
"'G736'","'11/2/08 11/8/08'","Std Transplant Communication",-
"'G736'","'11/2/08 11/8/08'","Transplant Communication",100.0
"'G736'","'11/2/08 11/8/08'","How well transplant team listened*",100.0
"'G736'","'11/2/08 11/8/08'","Communication between doctors*",100.0
"'G736'","'11/2/08 11/8/08'","Responsiveness of transplant team*",100.0
"'G736'","'11/2/08 11/8/08'","Timeliness of response to concerns*",100.0
"'Total'","'11/2/08 11/8/08'","Std Transplant Communication",-
"'Total'","'11/2/08 11/8/08'","Transplant Communication",87.5
"'Total'","'11/2/08 11/8/08'","How well transplant team listened*",87.5
"'Total'","'11/2/08 11/8/08'","Communication between doctors*",87.5
"'Total'","'11/2/08 11/8/08'","Responsiveness of transplant team*",87.5
"'Total'","'11/2/08 11/8/08'","Timeliness of response to concerns*",87.5
"'G734'","'11/16/08 11/22/08'","Std Transplant Communication",-
"'G734'","'11/16/08 11/22/08'","Transplant Communication",100.0
"'G734'","'11/16/08 11/22/08'","How well transplant team listened*",100.0
"'G734'","'11/16/08 11/22/08'","Communication between doctors*",100.0
"'G734'","'11/16/08 11/22/08'","Responsiveness of transplant team*",100.0
"'G734'","'11/16/08 11/22/08'","Timeliness of response to concerns*",100.0
"'Total'","'11/16/08 11/22/08'","Std Transplant Communication",-
"'Total'","'11/16/08 11/22/08'","Transplant Communication",100.0
"'Total'","'11/16/08 11/22/08'","How well transplant team listened*",100.0
"'Total'","'11/16/08 11/22/08'","Communication between doctors*",100.0
"'Total'","'11/16/08 11/22/08'","Responsiveness of transplant team*",100.0
"'Total'","'11/16/08 11/22/08'","Timeliness of response to concerns*",100.0
"'G755'","'11/23/08 11/29/08'","Std Transplant Communication",-
"'G755'","'11/23/08 11/29/08'","Transplant Communication",100.0
"'G755'","'11/23/08 11/29/08'","How well transplant team listened*",100.0
"'G755'","'11/23/08 11/29/08'","Communication between doctors*",100.0
"'G755'","'11/23/08 11/29/08'","Responsiveness of transplant team*",100.0
"'G755'","'11/23/08 11/29/08'","Timeliness of response to concerns*",100.0
"'Total'","'11/23/08 11/29/08'","Std Transplant Communication",-
"'Total'","'11/23/08 11/29/08'","Transplant Communication",100.0
"'Total'","'11/23/08 11/29/08'","How well transplant team listened*",100.0
"'Total'","'11/23/08 11/29/08'","Communication between doctors*",100.0
"'Total'","'11/23/08 11/29/08'","Responsiveness of transplant team*",100.0
"'Total'","'11/23/08 11/29/08'","Timeliness of response to concerns*",100.0
"'G759'","'11/30/08 12/6/08'","Std Transplant Communication",-
"'G759'","'11/30/08 12/6/08'","Transplant Communication",100.0
"'G759'","'11/30/08 12/6/08'","How well transplant team listened*",100.0
"'G759'","'11/30/08 12/6/08'","Communication between doctors*",100.0
"'G759'","'11/30/08 12/6/08'","Responsiveness of transplant team*",100.0
"'G759'","'11/30/08 12/6/08'","Timeliness of response to concerns*",100.0
"'Total'","'11/30/08 12/6/08'","Std Transplant Communication",-
"'Total'","'11/30/08 12/6/08'","Transplant Communication",100.0
"'Total'","'11/30/08 12/6/08'","How well transplant team listened*",100.0
"'Total'","'11/30/08 12/6/08'","Communication between doctors*",100.0
"'Total'","'11/30/08 12/6/08'","Responsiveness of transplant team*",100.0
"'Total'","'11/30/08 12/6/08'","Timeliness of response to concerns*",100.0
"'B582'","'12/28/08 1/3/09'","Std Transplant Communication",-
"'B582'","'12/28/08 1/3/09'","Transplant Communication",100.0
"'B582'","'12/28/08 1/3/09'","How well transplant team listened*",100.0
"'B582'","'12/28/08 1/3/09'","Communication between doctors*",100.0
"'B582'","'12/28/08 1/3/09'","Responsiveness of transplant team*",100.0
"'B582'","'12/28/08 1/3/09'","Timeliness of response to concerns*",100.0
"'Total'","'12/28/08 1/3/09'","Std Transplant Communication",-
"'Total'","'12/28/08 1/3/09'","Transplant Communication",100.0
"'Total'","'12/28/08 1/3/09'","How well transplant team listened*",100.0
"'Total'","'12/28/08 1/3/09'","Communication between doctors*",100.0
"'Total'","'12/28/08 1/3/09'","Responsiveness of transplant team*",100.0
"'Total'","'12/28/08 1/3/09'","Timeliness of response to concerns*",100.0
"'G755'","'Total'","Std Transplant Communication",-
"'G755'","'Total'","Transplant Communication",100.0
"'G755'","'Total'","How well transplant team listened*",100.0
"'G755'","'Total'","Communication between doctors*",100.0
"'G755'","'Total'","Responsiveness of transplant team*",100.0
"'G755'","'Total'","Timeliness of response to concerns*",100.0
"'G757'","'Total'","Std Transplant Communication",-
"'G757'","'Total'","Transplant Communication",75.0
"'G757'","'Total'","How well transplant team listened*",75.0
"'G757'","'Total'","Communication between doctors*",75.0
"'G757'","'Total'","Responsiveness of transplant team*",75.0
"'G757'","'Total'","Timeliness of response to concerns*",75.0
"'G748'","'Total'","Std Transplant Communication",-
"'G748'","'Total'","Transplant Communication",100.0
"'G748'","'Total'","How well transplant team listened*",100.0
"'G748'","'Total'","Communication between doctors*",100.0
"'G748'","'Total'","Responsiveness of transplant team*",100.0
"'G748'","'Total'","Timeliness of response to concerns*",100.0
"'G743'","'Total'","Std Transplant Communication",-
"'G743'","'Total'","Transplant Communication",100.0
"'G743'","'Total'","How well transplant team listened*",100.0
"'G743'","'Total'","Communication between doctors*",100.0
"'G743'","'Total'","Responsiveness of transplant team*",100.0
"'G743'","'Total'","Timeliness of response to concerns*",100.0
"'G758'","'Total'","Std Transplant Communication",-
"'G758'","'Total'","Transplant Communication",75.0
"'G758'","'Total'","How well transplant team listened*",75.0
"'G758'","'Total'","Communication between doctors*",75.0
"'G758'","'Total'","Responsiveness of transplant team*",75.0
"'G758'","'Total'","Timeliness of response to concerns*",75.0
"'G734'","'Total'","Std Transplant Communication",-
"'G734'","'Total'","Transplant Communication",100.0
"'G734'","'Total'","How well transplant team listened*",100.0
"'G734'","'Total'","Communication between doctors*",100.0
"'G734'","'Total'","Responsiveness of transplant team*",100.0
"'G734'","'Total'","Timeliness of response to concerns*",100.0
"'G736'","'Total'","Std Transplant Communication",-
"'G736'","'Total'","Transplant Communication",100.0
"'G736'","'Total'","How well transplant team listened*",100.0
"'G736'","'Total'","Communication between doctors*",100.0
"'G736'","'Total'","Responsiveness of transplant team*",100.0
"'G736'","'Total'","Timeliness of response to concerns*",100.0
"'G745'","'Total'","Std Transplant Communication",-
"'G745'","'Total'","Transplant Communication",100.0
"'G745'","'Total'","How well transplant team listened*",100.0
"'G745'","'Total'","Communication between doctors*",100.0
"'G745'","'Total'","Responsiveness of transplant team*",100.0
"'G745'","'Total'","Timeliness of response to concerns*",100.0
"'G759'","'Total'","Std Transplant Communication",-
"'G759'","'Total'","Transplant Communication",100.0
"'G759'","'Total'","How well transplant team listened*",100.0
"'G759'","'Total'","Communication between doctors*",100.0
"'G759'","'Total'","Responsiveness of transplant team*",100.0
"'G759'","'Total'","Timeliness of response to concerns*",100.0
"'B582'","'Total'","Std Transplant Communication",-
"'B582'","'Total'","Transplant Communication",100.0
"'B582'","'Total'","How well transplant team listened*",100.0
"'B582'","'Total'","Communication between doctors*",100.0
"'B582'","'Total'","Responsiveness of transplant team*",100.0
"'B582'","'Total'","Timeliness of response to concerns*",100.0
"'Total'","'Total'","Std Transplant Communication",-
"'Total'","'Total'","Transplant Communication",95.0
"'Total'","'Total'","How well transplant team listened*",95.0
"'Total'","'Total'","Communication between doctors*",95.0
"'Total'","'Total'","Responsiveness of transplant team*",95.0
"'Total'","'Total'","Timeliness of response to concerns*",95.0


