"FILTER","CHOICE(S)"


"Site","Emory University Hospital Midtown",(Site:1)
"IT Discharge date","From 01/01/2007 To 12/31/2007"

"MEAN REPORT"


"IT Room","IT Discharge date","Question","mean","n"
"'4018'","'12/31/06 1/6/07'","Std Physician Asst/Midwife",-,0
"'4018'","'12/31/06 1/6/07'","Physician Asst/Midwife",75.0,1
"'4018'","'12/31/06 1/6/07'","PM:Time spent with you*",75.0,1
"'4018'","'12/31/06 1/6/07'","PM:concern questions/worries*",50.0,1
"'4018'","'12/31/06 1/6/07'","PM:kept you informed*",75.0,1
"'4018'","'12/31/06 1/6/07'","Friendly/courtesy phys asst/midwife*",100.0,1
"'4018'","'12/31/06 1/6/07'","Skill of physician asst/midwife*",75.0,1
"'4025'","'12/31/06 1/6/07'","Std Physician Asst/Midwife",-,0
"'4025'","'12/31/06 1/6/07'","Physician Asst/Midwife",10.0,1
"'4025'","'12/31/06 1/6/07'","PM:Time spent with you*",0.0,1
"'4025'","'12/31/06 1/6/07'","PM:concern questions/worries*",25.0,1
"'4025'","'12/31/06 1/6/07'","PM:kept you informed*",0.0,1
"'4025'","'12/31/06 1/6/07'","Friendly/courtesy phys asst/midwife*",0.0,1
"'4025'","'12/31/06 1/6/07'","Skill of physician asst/midwife*",25.0,1
"'4021'","'12/31/06 1/6/07'","Std Physician Asst/Midwife",-,0
"'4021'","'12/31/06 1/6/07'","Physician Asst/Midwife",100.0,1
"'4021'","'12/31/06 1/6/07'","PM:Time spent with you*",100.0,1
"'4021'","'12/31/06 1/6/07'","PM:concern questions/worries*",100.0,1
"'4021'","'12/31/06 1/6/07'","PM:kept you informed*",100.0,1
"'4021'","'12/31/06 1/6/07'","Friendly/courtesy phys asst/midwife*",100.0,1
"'4021'","'12/31/06 1/6/07'","Skill of physician asst/midwife*",100.0,1
"'4002'","'12/31/06 1/6/07'","Std Physician Asst/Midwife",-,0
"'4002'","'12/31/06 1/6/07'","Physician Asst/Midwife",100.0,1
"'4002'","'12/31/06 1/6/07'","PM:Time spent with you*",100.0,1
"'4002'","'12/31/06 1/6/07'","PM:concern questions/worries*",100.0,1
"'4002'","'12/31/06 1/6/07'","PM:kept you informed*",100.0,1
"'4002'","'12/31/06 1/6/07'","Friendly/courtesy phys asst/midwife*",100.0,1
"'4002'","'12/31/06 1/6/07'","Skill of physician asst/midwife*",100.0,1
"'4010'","'12/31/06 1/6/07'","Std Physician Asst/Midwife",-,0
"'4010'","'12/31/06 1/6/07'","Physician Asst/Midwife",100.0,1
"'4010'","'12/31/06 1/6/07'","PM:Time spent with you*",100.0,1
"'4010'","'12/31/06 1/6/07'","PM:concern questions/worries*",100.0,1
"'4010'","'12/31/06 1/6/07'","PM:kept you informed*",100.0,1
"'4010'","'12/31/06 1/6/07'","Friendly/courtesy phys asst/midwife*",100.0,1
"'4010'","'12/31/06 1/6/07'","Skill of physician asst/midwife*",100.0,1
"'Total'","'12/31/06 1/6/07'","Std Physician Asst/Midwife",-,0
"'Total'","'12/31/06 1/6/07'","Physician Asst/Midwife",77.0,5
"'Total'","'12/31/06 1/6/07'","PM:Time spent with you*",75.0,5
"'Total'","'12/31/06 1/6/07'","PM:concern questions/worries*",75.0,5
"'Total'","'12/31/06 1/6/07'","PM:kept you informed*",75.0,5
"'Total'","'12/31/06 1/6/07'","Friendly/courtesy phys asst/midwife*",80.0,5
"'Total'","'12/31/06 1/6/07'","Skill of physician asst/midwife*",80.0,5
"'4021'","'1/21/07 1/27/07'","Std Physician Asst/Midwife",-,0
"'4021'","'1/21/07 1/27/07'","Physician Asst/Midwife",75.0,1
"'4021'","'1/21/07 1/27/07'","PM:Time spent with you*",75.0,1
"'4021'","'1/21/07 1/27/07'","PM:concern questions/worries*",75.0,1
"'4021'","'1/21/07 1/27/07'","PM:kept you informed*",75.0,1
"'4021'","'1/21/07 1/27/07'","Friendly/courtesy phys asst/midwife*",75.0,1
"'4021'","'1/21/07 1/27/07'","Skill of physician asst/midwife*",75.0,1
"'4011'","'1/21/07 1/27/07'","Std Physician Asst/Midwife",-,0
"'4011'","'1/21/07 1/27/07'","Physician Asst/Midwife",75.0,1
"'4011'","'1/21/07 1/27/07'","PM:Time spent with you*",75.0,1
"'4011'","'1/21/07 1/27/07'","PM:concern questions/worries*",75.0,1
"'4011'","'1/21/07 1/27/07'","PM:kept you informed*",75.0,1
"'4011'","'1/21/07 1/27/07'","Friendly/courtesy phys asst/midwife*",75.0,1
"'4011'","'1/21/07 1/27/07'","Skill of physician asst/midwife*",75.0,1
"'4024'","'1/21/07 1/27/07'","Std Physician Asst/Midwife",-,0
"'4024'","'1/21/07 1/27/07'","Physician Asst/Midwife",60.0,1
"'4024'","'1/21/07 1/27/07'","PM:Time spent with you*",50.0,1
"'4024'","'1/21/07 1/27/07'","PM:concern questions/worries*",50.0,1
"'4024'","'1/21/07 1/27/07'","PM:kept you informed*",50.0,1
"'4024'","'1/21/07 1/27/07'","Friendly/courtesy phys asst/midwife*",50.0,1
"'4024'","'1/21/07 1/27/07'","Skill of physician asst/midwife*",100.0,1
"'Total'","'1/21/07 1/27/07'","Std Physician Asst/Midwife",-,0
"'Total'","'1/21/07 1/27/07'","Physician Asst/Midwife",70.0,3
"'Total'","'1/21/07 1/27/07'","PM:Time spent with you*",66.7,3
"'Total'","'1/21/07 1/27/07'","PM:concern questions/worries*",66.7,3
"'Total'","'1/21/07 1/27/07'","PM:kept you informed*",66.7,3
"'Total'","'1/21/07 1/27/07'","Friendly/courtesy phys asst/midwife*",66.7,3
"'Total'","'1/21/07 1/27/07'","Skill of physician asst/midwife*",83.3,3
"'4007'","'1/28/07 2/3/07'","Std Physician Asst/Midwife",-,0
"'4007'","'1/28/07 2/3/07'","Physician Asst/Midwife",100.0,1
"'4007'","'1/28/07 2/3/07'","PM:Time spent with you*",100.0,1
"'4007'","'1/28/07 2/3/07'","PM:concern questions/worries*",100.0,1
"'4007'","'1/28/07 2/3/07'","PM:kept you informed*",100.0,1
"'4007'","'1/28/07 2/3/07'","Friendly/courtesy phys asst/midwife*",100.0,1
"'4007'","'1/28/07 2/3/07'","Skill of physician asst/midwife*",100.0,1
"'4001'","'1/28/07 2/3/07'","Std Physician Asst/Midwife",-,0
"'4001'","'1/28/07 2/3/07'","Physician Asst/Midwife",100.0,1
"'4001'","'1/28/07 2/3/07'","PM:Time spent with you*",100.0,1
"'4001'","'1/28/07 2/3/07'","PM:concern questions/worries*",100.0,1
"'4001'","'1/28/07 2/3/07'","PM:kept you informed*",100.0,1
"'4001'","'1/28/07 2/3/07'","Friendly/courtesy phys asst/midwife*",100.0,1
"'4001'","'1/28/07 2/3/07'","Skill of physician asst/midwife*",100.0,1
"'4012'","'1/28/07 2/3/07'","Std Physician Asst/Midwife",-,0
"'4012'","'1/28/07 2/3/07'","Physician Asst/Midwife",100.0,1
"'4012'","'1/28/07 2/3/07'","PM:Time spent with you*",100.0,1
"'4012'","'1/28/07 2/3/07'","PM:concern questions/worries*",100.0,1
"'4012'","'1/28/07 2/3/07'","PM:kept you informed*",100.0,1
"'4012'","'1/28/07 2/3/07'","Friendly/courtesy phys asst/midwife*",100.0,1
"'4012'","'1/28/07 2/3/07'","Skill of physician asst/midwife*",100.0,1
"'4019'","'1/28/07 2/3/07'","Std Physician Asst/Midwife",-,0
"'4019'","'1/28/07 2/3/07'","Physician Asst/Midwife",0.0,1
"'4019'","'1/28/07 2/3/07'","PM:Time spent with you*",0.0,1
"'4019'","'1/28/07 2/3/07'","PM:concern questions/worries*",0.0,1
"'4019'","'1/28/07 2/3/07'","PM:kept you informed*",0.0,1
"'4019'","'1/28/07 2/3/07'","Friendly/courtesy phys asst/midwife*",0.0,1
"'Total'","'1/28/07 2/3/07'","Std Physician Asst/Midwife",-,0
"'Total'","'1/28/07 2/3/07'","Physician Asst/Midwife",75.0,4
"'Total'","'1/28/07 2/3/07'","PM:Time spent with you*",75.0,4
"'Total'","'1/28/07 2/3/07'","PM:concern questions/worries*",75.0,4
"'Total'","'1/28/07 2/3/07'","PM:kept you informed*",75.0,4
"'Total'","'1/28/07 2/3/07'","Friendly/courtesy phys asst/midwife*",75.0,4
"'Total'","'1/28/07 2/3/07'","Skill of physician asst/midwife*",100.0,3
"'4014'","'2/18/07 2/24/07'","Std Physician Asst/Midwife",-,0
"'4014'","'2/18/07 2/24/07'","Physician Asst/Midwife",95.0,1
"'4014'","'2/18/07 2/24/07'","PM:Time spent with you*",75.0,1
"'4014'","'2/18/07 2/24/07'","PM:concern questions/worries*",100.0,1
"'4014'","'2/18/07 2/24/07'","PM:kept you informed*",100.0,1
"'4014'","'2/18/07 2/24/07'","Friendly/courtesy phys asst/midwife*",100.0,1
"'4014'","'2/18/07 2/24/07'","Skill of physician asst/midwife*",100.0,1
"'4026'","'2/18/07 2/24/07'","Std Physician Asst/Midwife",-,0
"'4026'","'2/18/07 2/24/07'","Physician Asst/Midwife",80.0,1
"'4026'","'2/18/07 2/24/07'","PM:Time spent with you*",75.0,1
"'4026'","'2/18/07 2/24/07'","PM:concern questions/worries*",75.0,1
"'4026'","'2/18/07 2/24/07'","PM:kept you informed*",75.0,1
"'4026'","'2/18/07 2/24/07'","Friendly/courtesy phys asst/midwife*",75.0,1
"'4026'","'2/18/07 2/24/07'","Skill of physician asst/midwife*",100.0,1
"'4002'","'2/18/07 2/24/07'","Std Physician Asst/Midwife",-,0
"'4002'","'2/18/07 2/24/07'","Physician Asst/Midwife",75.0,1
"'4002'","'2/18/07 2/24/07'","PM:Time spent with you*",75.0,1
"'4002'","'2/18/07 2/24/07'","PM:concern questions/worries*",75.0,1
"'4002'","'2/18/07 2/24/07'","PM:kept you informed*",75.0,1
"'4002'","'2/18/07 2/24/07'","Friendly/courtesy phys asst/midwife*",75.0,1
"'4002'","'2/18/07 2/24/07'","Skill of physician asst/midwife*",75.0,1
"'Total'","'2/18/07 2/24/07'","Std Physician Asst/Midwife",-,0
"'Total'","'2/18/07 2/24/07'","Physician Asst/Midwife",83.3,3
"'Total'","'2/18/07 2/24/07'","PM:Time spent with you*",75.0,3
"'Total'","'2/18/07 2/24/07'","PM:concern questions/worries*",83.3,3
"'Total'","'2/18/07 2/24/07'","PM:kept you informed*",83.3,3
"'Total'","'2/18/07 2/24/07'","Friendly/courtesy phys asst/midwife*",83.3,3
"'Total'","'2/18/07 2/24/07'","Skill of physician asst/midwife*",91.7,3
"'4029'","'2/25/07 3/3/07'","Std Physician Asst/Midwife",-,0
"'4029'","'2/25/07 3/3/07'","Physician Asst/Midwife",85.0,1
"'4029'","'2/25/07 3/3/07'","PM:Time spent with you*",100.0,1
"'4029'","'2/25/07 3/3/07'","PM:concern questions/worries*",75.0,1
"'4029'","'2/25/07 3/3/07'","PM:kept you informed*",75.0,1
"'4029'","'2/25/07 3/3/07'","Friendly/courtesy phys asst/midwife*",100.0,1
"'4029'","'2/25/07 3/3/07'","Skill of physician asst/midwife*",75.0,1
"'4015'","'2/25/07 3/3/07'","Std Physician Asst/Midwife",-,0
"'4015'","'2/25/07 3/3/07'","Physician Asst/Midwife",100.0,1
"'4015'","'2/25/07 3/3/07'","PM:Time spent with you*",100.0,1
"'4015'","'2/25/07 3/3/07'","PM:concern questions/worries*",100.0,1
"'4015'","'2/25/07 3/3/07'","PM:kept you informed*",100.0,1
"'4015'","'2/25/07 3/3/07'","Friendly/courtesy phys asst/midwife*",100.0,1
"'4015'","'2/25/07 3/3/07'","Skill of physician asst/midwife*",100.0,1
"'4028'","'2/25/07 3/3/07'","Std Physician Asst/Midwife",-,0
"'4028'","'2/25/07 3/3/07'","Physician Asst/Midwife",75.0,1
"'4028'","'2/25/07 3/3/07'","PM:Time spent with you*",75.0,1
"'4028'","'2/25/07 3/3/07'","PM:concern questions/worries*",75.0,1
"'4028'","'2/25/07 3/3/07'","PM:kept you informed*",75.0,1
"'4028'","'2/25/07 3/3/07'","Friendly/courtesy phys asst/midwife*",75.0,1
"'4028'","'2/25/07 3/3/07'","Skill of physician asst/midwife*",75.0,1
"'4012'","'2/25/07 3/3/07'","Std Physician Asst/Midwife",-,0
"'4012'","'2/25/07 3/3/07'","Physician Asst/Midwife",80.0,1
"'4012'","'2/25/07 3/3/07'","PM:Time spent with you*",75.0,1
"'4012'","'2/25/07 3/3/07'","PM:concern questions/worries*",100.0,1
"'4012'","'2/25/07 3/3/07'","PM:kept you informed*",75.0,1
"'4012'","'2/25/07 3/3/07'","Friendly/courtesy phys asst/midwife*",75.0,1
"'4012'","'2/25/07 3/3/07'","Skill of physician asst/midwife*",75.0,1
"'Total'","'2/25/07 3/3/07'","Std Physician Asst/Midwife",-,0
"'Total'","'2/25/07 3/3/07'","Physician Asst/Midwife",85.0,4
"'Total'","'2/25/07 3/3/07'","PM:Time spent with you*",87.5,4
"'Total'","'2/25/07 3/3/07'","PM:concern questions/worries*",87.5,4
"'Total'","'2/25/07 3/3/07'","PM:kept you informed*",81.3,4
"'Total'","'2/25/07 3/3/07'","Friendly/courtesy phys asst/midwife*",87.5,4
"'Total'","'2/25/07 3/3/07'","Skill of physician asst/midwife*",81.3,4
"'4018'","'3/4/07 3/10/07'","Std Physician Asst/Midwife",-,0
"'4018'","'3/4/07 3/10/07'","Physician Asst/Midwife",50.0,1
"'4018'","'3/4/07 3/10/07'","PM:Time spent with you*",50.0,1
"'4018'","'3/4/07 3/10/07'","PM:concern questions/worries*",50.0,1
"'4018'","'3/4/07 3/10/07'","PM:kept you informed*",50.0,1
"'4018'","'3/4/07 3/10/07'","Friendly/courtesy phys asst/midwife*",50.0,1
"'4018'","'3/4/07 3/10/07'","Skill of physician asst/midwife*",50.0,1
"'4015'","'3/4/07 3/10/07'","Std Physician Asst/Midwife",-,0
"'4015'","'3/4/07 3/10/07'","Physician Asst/Midwife",100.0,1
"'4015'","'3/4/07 3/10/07'","PM:Time spent with you*",100.0,1
"'4015'","'3/4/07 3/10/07'","PM:concern questions/worries*",100.0,1
"'4015'","'3/4/07 3/10/07'","PM:kept you informed*",100.0,1
"'4015'","'3/4/07 3/10/07'","Friendly/courtesy phys asst/midwife*",100.0,1
"'4015'","'3/4/07 3/10/07'","Skill of physician asst/midwife*",100.0,1
"'4003'","'3/4/07 3/10/07'","Std Physician Asst/Midwife",-,0
"'4003'","'3/4/07 3/10/07'","Physician Asst/Midwife",100.0,1
"'4003'","'3/4/07 3/10/07'","PM:Time spent with you*",100.0,1
"'Total'","'3/4/07 3/10/07'","Std Physician Asst/Midwife",-,0
"'Total'","'3/4/07 3/10/07'","Physician Asst/Midwife",83.3,3
"'Total'","'3/4/07 3/10/07'","PM:Time spent with you*",83.3,3
"'Total'","'3/4/07 3/10/07'","PM:concern questions/worries*",75.0,2
"'Total'","'3/4/07 3/10/07'","PM:kept you informed*",75.0,2
"'Total'","'3/4/07 3/10/07'","Friendly/courtesy phys asst/midwife*",75.0,2
"'Total'","'3/4/07 3/10/07'","Skill of physician asst/midwife*",75.0,2
"'4027'","'3/18/07 3/24/07'","Std Physician Asst/Midwife",-,0
"'4027'","'3/18/07 3/24/07'","Physician Asst/Midwife",75.0,1
"'4027'","'3/18/07 3/24/07'","PM:Time spent with you*",75.0,1
"'4011'","'3/18/07 3/24/07'","Std Physician Asst/Midwife",-,0
"'4011'","'3/18/07 3/24/07'","Physician Asst/Midwife",82.5,2
"'4011'","'3/18/07 3/24/07'","PM:Time spent with you*",75.0,2
"'4011'","'3/18/07 3/24/07'","PM:concern questions/worries*",87.5,2
"'4011'","'3/18/07 3/24/07'","PM:kept you informed*",87.5,2
"'4011'","'3/18/07 3/24/07'","Friendly/courtesy phys asst/midwife*",87.5,2
"'4011'","'3/18/07 3/24/07'","Skill of physician asst/midwife*",75.0,2
"'4030'","'3/18/07 3/24/07'","Std Physician Asst/Midwife",-,0
"'4030'","'3/18/07 3/24/07'","Physician Asst/Midwife",100.0,1
"'4030'","'3/18/07 3/24/07'","PM:Time spent with you*",100.0,1
"'4030'","'3/18/07 3/24/07'","PM:concern questions/worries*",100.0,1
"'4030'","'3/18/07 3/24/07'","PM:kept you informed*",100.0,1
"'4030'","'3/18/07 3/24/07'","Friendly/courtesy phys asst/midwife*",100.0,1
"'4030'","'3/18/07 3/24/07'","Skill of physician asst/midwife*",100.0,1
"'Total'","'3/18/07 3/24/07'","Std Physician Asst/Midwife",-,0
"'Total'","'3/18/07 3/24/07'","Physician Asst/Midwife",85.0,4
"'Total'","'3/18/07 3/24/07'","PM:Time spent with you*",81.3,4
"'Total'","'3/18/07 3/24/07'","PM:concern questions/worries*",91.7,3
"'Total'","'3/18/07 3/24/07'","PM:kept you informed*",91.7,3
"'Total'","'3/18/07 3/24/07'","Friendly/courtesy phys asst/midwife*",91.7,3
"'Total'","'3/18/07 3/24/07'","Skill of physician asst/midwife*",83.3,3
"'4018'","'3/25/07 3/31/07'","Std Physician Asst/Midwife",-,0
"'4018'","'3/25/07 3/31/07'","Physician Asst/Midwife",85.0,1
"'4018'","'3/25/07 3/31/07'","PM:Time spent with you*",75.0,1
"'4018'","'3/25/07 3/31/07'","PM:concern questions/worries*",75.0,1
"'4018'","'3/25/07 3/31/07'","PM:kept you informed*",75.0,1
"'4018'","'3/25/07 3/31/07'","Friendly/courtesy phys asst/midwife*",100.0,1
"'4018'","'3/25/07 3/31/07'","Skill of physician asst/midwife*",100.0,1
"'4003'","'3/25/07 3/31/07'","Std Physician Asst/Midwife",-,0
"'4003'","'3/25/07 3/31/07'","Physician Asst/Midwife",100.0,1
"'4003'","'3/25/07 3/31/07'","PM:Time spent with you*",100.0,1
"'4003'","'3/25/07 3/31/07'","PM:concern questions/worries*",100.0,1
"'4003'","'3/25/07 3/31/07'","PM:kept you informed*",100.0,1
"'4003'","'3/25/07 3/31/07'","Friendly/courtesy phys asst/midwife*",100.0,1
"'4003'","'3/25/07 3/31/07'","Skill of physician asst/midwife*",100.0,1
"'4017'","'3/25/07 3/31/07'","Std Physician Asst/Midwife",-,0
"'4017'","'3/25/07 3/31/07'","Physician Asst/Midwife",100.0,1
"'4017'","'3/25/07 3/31/07'","PM:Time spent with you*",100.0,1
"'4017'","'3/25/07 3/31/07'","PM:concern questions/worries*",100.0,1
"'4017'","'3/25/07 3/31/07'","PM:kept you informed*",100.0,1
"'4017'","'3/25/07 3/31/07'","Friendly/courtesy phys asst/midwife*",100.0,1
"'4017'","'3/25/07 3/31/07'","Skill of physician asst/midwife*",100.0,1
"'4012'","'3/25/07 3/31/07'","Std Physician Asst/Midwife",-,0
"'4012'","'3/25/07 3/31/07'","Physician Asst/Midwife",100.0,1
"'4012'","'3/25/07 3/31/07'","PM:Time spent with you*",100.0,1
"'4012'","'3/25/07 3/31/07'","PM:concern questions/worries*",100.0,1
"'4012'","'3/25/07 3/31/07'","PM:kept you informed*",100.0,1
"'4012'","'3/25/07 3/31/07'","Friendly/courtesy phys asst/midwife*",100.0,1
"'4012'","'3/25/07 3/31/07'","Skill of physician asst/midwife*",100.0,1
"'Total'","'3/25/07 3/31/07'","Std Physician Asst/Midwife",-,0
"'Total'","'3/25/07 3/31/07'","Physician Asst/Midwife",96.3,4
"'Total'","'3/25/07 3/31/07'","PM:Time spent with you*",93.8,4
"'Total'","'3/25/07 3/31/07'","PM:concern questions/worries*",93.8,4
"'Total'","'3/25/07 3/31/07'","PM:kept you informed*",93.8,4
"'Total'","'3/25/07 3/31/07'","Friendly/courtesy phys asst/midwife*",100.0,4
"'Total'","'3/25/07 3/31/07'","Skill of physician asst/midwife*",100.0,4
"'4004'","'4/1/07 4/7/07'","Std Physician Asst/Midwife",-,0
"'4004'","'4/1/07 4/7/07'","Physician Asst/Midwife",75.0,1
"'4004'","'4/1/07 4/7/07'","PM:Time spent with you*",75.0,1
"'4004'","'4/1/07 4/7/07'","PM:concern questions/worries*",75.0,1
"'4004'","'4/1/07 4/7/07'","PM:kept you informed*",75.0,1
"'4004'","'4/1/07 4/7/07'","Friendly/courtesy phys asst/midwife*",75.0,1
"'4004'","'4/1/07 4/7/07'","Skill of physician asst/midwife*",75.0,1
"'4003'","'4/1/07 4/7/07'","Std Physician Asst/Midwife",-,0
"'4003'","'4/1/07 4/7/07'","Physician Asst/Midwife",100.0,1
"'4003'","'4/1/07 4/7/07'","PM:Time spent with you*",100.0,1
"'4003'","'4/1/07 4/7/07'","PM:concern questions/worries*",100.0,1
"'4003'","'4/1/07 4/7/07'","PM:kept you informed*",100.0,1
"'4003'","'4/1/07 4/7/07'","Friendly/courtesy phys asst/midwife*",100.0,1
"'4003'","'4/1/07 4/7/07'","Skill of physician asst/midwife*",100.0,1
"'4026'","'4/1/07 4/7/07'","Std Physician Asst/Midwife",-,0
"'4026'","'4/1/07 4/7/07'","Physician Asst/Midwife",60.0,1
"'4026'","'4/1/07 4/7/07'","PM:Time spent with you*",0.0,1
"'4026'","'4/1/07 4/7/07'","PM:concern questions/worries*",50.0,1
"'4026'","'4/1/07 4/7/07'","PM:kept you informed*",75.0,1
"'4026'","'4/1/07 4/7/07'","Friendly/courtesy phys asst/midwife*",75.0,1
"'4026'","'4/1/07 4/7/07'","Skill of physician asst/midwife*",100.0,1
"'Total'","'4/1/07 4/7/07'","Std Physician Asst/Midwife",-,0
"'Total'","'4/1/07 4/7/07'","Physician Asst/Midwife",78.3,3
"'Total'","'4/1/07 4/7/07'","PM:Time spent with you*",58.3,3
"'Total'","'4/1/07 4/7/07'","PM:concern questions/worries*",75.0,3
"'Total'","'4/1/07 4/7/07'","PM:kept you informed*",83.3,3
"'Total'","'4/1/07 4/7/07'","Friendly/courtesy phys asst/midwife*",83.3,3
"'Total'","'4/1/07 4/7/07'","Skill of physician asst/midwife*",91.7,3
"'4026'","'4/22/07 4/28/07'","Std Physician Asst/Midwife",-,0
"'4026'","'4/22/07 4/28/07'","Physician Asst/Midwife",100.0,1
"'4026'","'4/22/07 4/28/07'","PM:Time spent with you*",100.0,1
"'4026'","'4/22/07 4/28/07'","PM:concern questions/worries*",100.0,1
"'4026'","'4/22/07 4/28/07'","PM:kept you informed*",100.0,1
"'4026'","'4/22/07 4/28/07'","Friendly/courtesy phys asst/midwife*",100.0,1
"'4026'","'4/22/07 4/28/07'","Skill of physician asst/midwife*",100.0,1
"'4012'","'4/22/07 4/28/07'","Std Physician Asst/Midwife",-,0
"'4012'","'4/22/07 4/28/07'","Physician Asst/Midwife",100.0,1
"'4012'","'4/22/07 4/28/07'","PM:Time spent with you*",100.0,1
"'4012'","'4/22/07 4/28/07'","PM:concern questions/worries*",100.0,1
"'4012'","'4/22/07 4/28/07'","PM:kept you informed*",100.0,1
"'4012'","'4/22/07 4/28/07'","Friendly/courtesy phys asst/midwife*",100.0,1
"'4012'","'4/22/07 4/28/07'","Skill of physician asst/midwife*",100.0,1
"'Total'","'4/22/07 4/28/07'","Std Physician Asst/Midwife",-,0
"'Total'","'4/22/07 4/28/07'","Physician Asst/Midwife",100.0,2
"'Total'","'4/22/07 4/28/07'","PM:Time spent with you*",100.0,2
"'Total'","'4/22/07 4/28/07'","PM:concern questions/worries*",100.0,2
"'Total'","'4/22/07 4/28/07'","PM:kept you informed*",100.0,2
"'Total'","'4/22/07 4/28/07'","Friendly/courtesy phys asst/midwife*",100.0,2
"'Total'","'4/22/07 4/28/07'","Skill of physician asst/midwife*",100.0,2
"'4029'","'4/29/07 5/5/07'","Std Physician Asst/Midwife",-,0
"'4029'","'4/29/07 5/5/07'","Physician Asst/Midwife",100.0,1
"'4029'","'4/29/07 5/5/07'","PM:Time spent with you*",100.0,1
"'4029'","'4/29/07 5/5/07'","PM:concern questions/worries*",100.0,1
"'4029'","'4/29/07 5/5/07'","PM:kept you informed*",100.0,1
"'4029'","'4/29/07 5/5/07'","Friendly/courtesy phys asst/midwife*",100.0,1
"'4029'","'4/29/07 5/5/07'","Skill of physician asst/midwife*",100.0,1
"'4025'","'4/29/07 5/5/07'","Std Physician Asst/Midwife",-,0
"'4025'","'4/29/07 5/5/07'","Physician Asst/Midwife",75.0,1
"'4025'","'4/29/07 5/5/07'","PM:Time spent with you*",75.0,1
"'4025'","'4/29/07 5/5/07'","PM:concern questions/worries*",75.0,1
"'4025'","'4/29/07 5/5/07'","PM:kept you informed*",75.0,1
"'4025'","'4/29/07 5/5/07'","Friendly/courtesy phys asst/midwife*",75.0,1
"'4025'","'4/29/07 5/5/07'","Skill of physician asst/midwife*",75.0,1
"'4013'","'4/29/07 5/5/07'","Std Physician Asst/Midwife",-,0
"'4013'","'4/29/07 5/5/07'","Physician Asst/Midwife",93.8,4
"'4013'","'4/29/07 5/5/07'","PM:Time spent with you*",93.8,4
"'4013'","'4/29/07 5/5/07'","PM:concern questions/worries*",93.8,4
"'4013'","'4/29/07 5/5/07'","PM:kept you informed*",93.8,4
"'4013'","'4/29/07 5/5/07'","Friendly/courtesy phys asst/midwife*",93.8,4
"'4013'","'4/29/07 5/5/07'","Skill of physician asst/midwife*",93.8,4
"'Total'","'4/29/07 5/5/07'","Std Physician Asst/Midwife",-,0
"'Total'","'4/29/07 5/5/07'","Physician Asst/Midwife",91.7,6
"'Total'","'4/29/07 5/5/07'","PM:Time spent with you*",91.7,6
"'Total'","'4/29/07 5/5/07'","PM:concern questions/worries*",91.7,6
"'Total'","'4/29/07 5/5/07'","PM:kept you informed*",91.7,6
"'Total'","'4/29/07 5/5/07'","Friendly/courtesy phys asst/midwife*",91.7,6
"'Total'","'4/29/07 5/5/07'","Skill of physician asst/midwife*",91.7,6
"'4032'","'5/6/07 5/12/07'","Std Physician Asst/Midwife",-,0
"'4032'","'5/6/07 5/12/07'","Physician Asst/Midwife",100.0,1
"'4032'","'5/6/07 5/12/07'","PM:Time spent with you*",100.0,1
"'4032'","'5/6/07 5/12/07'","PM:concern questions/worries*",100.0,1
"'4032'","'5/6/07 5/12/07'","PM:kept you informed*",100.0,1
"'4032'","'5/6/07 5/12/07'","Friendly/courtesy phys asst/midwife*",100.0,1
"'4032'","'5/6/07 5/12/07'","Skill of physician asst/midwife*",100.0,1
"'4024'","'5/6/07 5/12/07'","Std Physician Asst/Midwife",-,0
"'4024'","'5/6/07 5/12/07'","Physician Asst/Midwife",90.0,1
"'4024'","'5/6/07 5/12/07'","PM:Time spent with you*",100.0,1
"'4024'","'5/6/07 5/12/07'","PM:concern questions/worries*",75.0,1
"'4024'","'5/6/07 5/12/07'","PM:kept you informed*",75.0,1
"'4024'","'5/6/07 5/12/07'","Friendly/courtesy phys asst/midwife*",100.0,1
"'4024'","'5/6/07 5/12/07'","Skill of physician asst/midwife*",100.0,1
"'Total'","'5/6/07 5/12/07'","Std Physician Asst/Midwife",-,0
"'Total'","'5/6/07 5/12/07'","Physician Asst/Midwife",95.0,2
"'Total'","'5/6/07 5/12/07'","PM:Time spent with you*",100.0,2
"'Total'","'5/6/07 5/12/07'","PM:concern questions/worries*",87.5,2
"'Total'","'5/6/07 5/12/07'","PM:kept you informed*",87.5,2
"'Total'","'5/6/07 5/12/07'","Friendly/courtesy phys asst/midwife*",100.0,2
"'Total'","'5/6/07 5/12/07'","Skill of physician asst/midwife*",100.0,2
"'4004'","'5/20/07 5/26/07'","Std Physician Asst/Midwife",-,0
"'4004'","'5/20/07 5/26/07'","Physician Asst/Midwife",100.0,1
"'4004'","'5/20/07 5/26/07'","PM:Time spent with you*",100.0,1
"'4026'","'5/20/07 5/26/07'","Std Physician Asst/Midwife",-,0
"'4026'","'5/20/07 5/26/07'","Physician Asst/Midwife",100.0,1
"'4026'","'5/20/07 5/26/07'","PM:Time spent with you*",100.0,1
"'4026'","'5/20/07 5/26/07'","PM:concern questions/worries*",100.0,1
"'4026'","'5/20/07 5/26/07'","PM:kept you informed*",100.0,1
"'4026'","'5/20/07 5/26/07'","Friendly/courtesy phys asst/midwife*",100.0,1
"'4026'","'5/20/07 5/26/07'","Skill of physician asst/midwife*",100.0,1
"'4016'","'5/20/07 5/26/07'","Std Physician Asst/Midwife",-,0
"'4016'","'5/20/07 5/26/07'","Physician Asst/Midwife",100.0,1
"'4016'","'5/20/07 5/26/07'","PM:Time spent with you*",100.0,1
"'4016'","'5/20/07 5/26/07'","PM:concern questions/worries*",100.0,1
"'4016'","'5/20/07 5/26/07'","PM:kept you informed*",100.0,1
"'4016'","'5/20/07 5/26/07'","Friendly/courtesy phys asst/midwife*",100.0,1
"'4016'","'5/20/07 5/26/07'","Skill of physician asst/midwife*",100.0,1
"'4017'","'5/20/07 5/26/07'","Std Physician Asst/Midwife",-,0
"'4017'","'5/20/07 5/26/07'","Physician Asst/Midwife",100.0,1
"'4017'","'5/20/07 5/26/07'","PM:Time spent with you*",100.0,1
"'4017'","'5/20/07 5/26/07'","PM:concern questions/worries*",100.0,1
"'4017'","'5/20/07 5/26/07'","PM:kept you informed*",100.0,1
"'4017'","'5/20/07 5/26/07'","Friendly/courtesy phys asst/midwife*",100.0,1
"'4017'","'5/20/07 5/26/07'","Skill of physician asst/midwife*",100.0,1
"'4024'","'5/20/07 5/26/07'","Std Physician Asst/Midwife",-,0
"'4024'","'5/20/07 5/26/07'","Physician Asst/Midwife",100.0,1
"'4024'","'5/20/07 5/26/07'","PM:Time spent with you*",100.0,1
"'4024'","'5/20/07 5/26/07'","PM:concern questions/worries*",100.0,1
"'4024'","'5/20/07 5/26/07'","PM:kept you informed*",100.0,1
"'4024'","'5/20/07 5/26/07'","Friendly/courtesy phys asst/midwife*",100.0,1
"'4024'","'5/20/07 5/26/07'","Skill of physician asst/midwife*",100.0,1
"'Total'","'5/20/07 5/26/07'","Std Physician Asst/Midwife",-,0
"'Total'","'5/20/07 5/26/07'","Physician Asst/Midwife",100.0,5
"'Total'","'5/20/07 5/26/07'","PM:Time spent with you*",100.0,5
"'Total'","'5/20/07 5/26/07'","PM:concern questions/worries*",100.0,4
"'Total'","'5/20/07 5/26/07'","PM:kept you informed*",100.0,4
"'Total'","'5/20/07 5/26/07'","Friendly/courtesy phys asst/midwife*",100.0,4
"'Total'","'5/20/07 5/26/07'","Skill of physician asst/midwife*",100.0,4
"'4027'","'6/3/07 6/9/07'","Std Physician Asst/Midwife",-,0
"'4027'","'6/3/07 6/9/07'","Physician Asst/Midwife",100.0,1
"'4027'","'6/3/07 6/9/07'","PM:Time spent with you*",100.0,1
"'4027'","'6/3/07 6/9/07'","PM:concern questions/worries*",100.0,1
"'4027'","'6/3/07 6/9/07'","PM:kept you informed*",100.0,1
"'4027'","'6/3/07 6/9/07'","Friendly/courtesy phys asst/midwife*",100.0,1
"'4027'","'6/3/07 6/9/07'","Skill of physician asst/midwife*",100.0,1
"'Total'","'6/3/07 6/9/07'","Std Physician Asst/Midwife",-,0
"'Total'","'6/3/07 6/9/07'","Physician Asst/Midwife",100.0,1
"'Total'","'6/3/07 6/9/07'","PM:Time spent with you*",100.0,1
"'Total'","'6/3/07 6/9/07'","PM:concern questions/worries*",100.0,1
"'Total'","'6/3/07 6/9/07'","PM:kept you informed*",100.0,1
"'Total'","'6/3/07 6/9/07'","Friendly/courtesy phys asst/midwife*",100.0,1
"'Total'","'6/3/07 6/9/07'","Skill of physician asst/midwife*",100.0,1
"'4025'","'6/17/07 6/23/07'","Std Physician Asst/Midwife",-,0
"'4025'","'6/17/07 6/23/07'","Physician Asst/Midwife",75.0,1
"'4025'","'6/17/07 6/23/07'","PM:Time spent with you*",75.0,1
"'4025'","'6/17/07 6/23/07'","PM:concern questions/worries*",75.0,1
"'4025'","'6/17/07 6/23/07'","PM:kept you informed*",75.0,1
"'4025'","'6/17/07 6/23/07'","Friendly/courtesy phys asst/midwife*",75.0,1
"'4025'","'6/17/07 6/23/07'","Skill of physician asst/midwife*",75.0,1
"'4027'","'6/17/07 6/23/07'","Std Physician Asst/Midwife",-,0
"'4027'","'6/17/07 6/23/07'","Physician Asst/Midwife",77.5,2
"'4027'","'6/17/07 6/23/07'","PM:Time spent with you*",75.0,2
"'4027'","'6/17/07 6/23/07'","PM:concern questions/worries*",75.0,2
"'4027'","'6/17/07 6/23/07'","PM:kept you informed*",75.0,2
"'4027'","'6/17/07 6/23/07'","Friendly/courtesy phys asst/midwife*",75.0,2
"'4027'","'6/17/07 6/23/07'","Skill of physician asst/midwife*",87.5,2
"'4021'","'6/17/07 6/23/07'","Std Physician Asst/Midwife",-,0
"'4021'","'6/17/07 6/23/07'","Physician Asst/Midwife",100.0,1
"'4021'","'6/17/07 6/23/07'","PM:Time spent with you*",100.0,1
"'4021'","'6/17/07 6/23/07'","PM:concern questions/worries*",100.0,1
"'4021'","'6/17/07 6/23/07'","PM:kept you informed*",100.0,1
"'4021'","'6/17/07 6/23/07'","Friendly/courtesy phys asst/midwife*",100.0,1
"'4021'","'6/17/07 6/23/07'","Skill of physician asst/midwife*",100.0,1
"'4011'","'6/17/07 6/23/07'","Std Physician Asst/Midwife",-,0
"'4011'","'6/17/07 6/23/07'","Physician Asst/Midwife",100.0,1
"'4011'","'6/17/07 6/23/07'","PM:Time spent with you*",100.0,1
"'4011'","'6/17/07 6/23/07'","PM:concern questions/worries*",100.0,1
"'4011'","'6/17/07 6/23/07'","PM:kept you informed*",100.0,1
"'4011'","'6/17/07 6/23/07'","Friendly/courtesy phys asst/midwife*",100.0,1
"'4011'","'6/17/07 6/23/07'","Skill of physician asst/midwife*",100.0,1
"'4002'","'6/17/07 6/23/07'","Std Physician Asst/Midwife",-,0
"'4002'","'6/17/07 6/23/07'","Physician Asst/Midwife",100.0,1
"'4002'","'6/17/07 6/23/07'","PM:Time spent with you*",100.0,1
"'4002'","'6/17/07 6/23/07'","PM:concern questions/worries*",100.0,1
"'4002'","'6/17/07 6/23/07'","PM:kept you informed*",100.0,1
"'4002'","'6/17/07 6/23/07'","Friendly/courtesy phys asst/midwife*",100.0,1
"'4002'","'6/17/07 6/23/07'","Skill of physician asst/midwife*",100.0,1
"'4010'","'6/17/07 6/23/07'","Std Physician Asst/Midwife",-,0
"'4010'","'6/17/07 6/23/07'","Physician Asst/Midwife",100.0,2
"'4010'","'6/17/07 6/23/07'","PM:Time spent with you*",100.0,2
"'4010'","'6/17/07 6/23/07'","PM:concern questions/worries*",100.0,2
"'4010'","'6/17/07 6/23/07'","PM:kept you informed*",100.0,2
"'4010'","'6/17/07 6/23/07'","Friendly/courtesy phys asst/midwife*",100.0,2
"'4010'","'6/17/07 6/23/07'","Skill of physician asst/midwife*",100.0,2
"'4007'","'6/17/07 6/23/07'","Std Physician Asst/Midwife",-,0
"'4007'","'6/17/07 6/23/07'","Physician Asst/Midwife",100.0,1
"'4007'","'6/17/07 6/23/07'","PM:Time spent with you*",100.0,1
"'4007'","'6/17/07 6/23/07'","PM:concern questions/worries*",100.0,1
"'4007'","'6/17/07 6/23/07'","PM:kept you informed*",100.0,1
"'4007'","'6/17/07 6/23/07'","Friendly/courtesy phys asst/midwife*",100.0,1
"'4007'","'6/17/07 6/23/07'","Skill of physician asst/midwife*",100.0,1
"'4013'","'6/17/07 6/23/07'","Std Physician Asst/Midwife",-,0
"'4013'","'6/17/07 6/23/07'","Physician Asst/Midwife",100.0,1
"'4013'","'6/17/07 6/23/07'","PM:Time spent with you*",100.0,1
"'4013'","'6/17/07 6/23/07'","PM:concern questions/worries*",100.0,1
"'4013'","'6/17/07 6/23/07'","PM:kept you informed*",100.0,1
"'4013'","'6/17/07 6/23/07'","Friendly/courtesy phys asst/midwife*",100.0,1
"'4013'","'6/17/07 6/23/07'","Skill of physician asst/midwife*",100.0,1
"'Total'","'6/17/07 6/23/07'","Std Physician Asst/Midwife",-,0
"'Total'","'6/17/07 6/23/07'","Physician Asst/Midwife",93.0,10
"'Total'","'6/17/07 6/23/07'","PM:Time spent with you*",92.5,10
"'Total'","'6/17/07 6/23/07'","PM:concern questions/worries*",92.5,10
"'Total'","'6/17/07 6/23/07'","PM:kept you informed*",92.5,10
"'Total'","'6/17/07 6/23/07'","Friendly/courtesy phys asst/midwife*",92.5,10
"'Total'","'6/17/07 6/23/07'","Skill of physician asst/midwife*",95.0,10
"'4015'","'6/24/07 6/30/07'","Std Physician Asst/Midwife",-,0
"'4015'","'6/24/07 6/30/07'","Physician Asst/Midwife",75.0,1
"'4015'","'6/24/07 6/30/07'","PM:Time spent with you*",75.0,1
"'4015'","'6/24/07 6/30/07'","PM:concern questions/worries*",75.0,1
"'4015'","'6/24/07 6/30/07'","PM:kept you informed*",75.0,1
"'4015'","'6/24/07 6/30/07'","Friendly/courtesy phys asst/midwife*",75.0,1
"'4015'","'6/24/07 6/30/07'","Skill of physician asst/midwife*",75.0,1
"'4003'","'6/24/07 6/30/07'","Std Physician Asst/Midwife",-,0
"'4003'","'6/24/07 6/30/07'","Physician Asst/Midwife",50.0,2
"'4003'","'6/24/07 6/30/07'","PM:Time spent with you*",50.0,2
"'4003'","'6/24/07 6/30/07'","PM:concern questions/worries*",50.0,2
"'4003'","'6/24/07 6/30/07'","PM:kept you informed*",50.0,2
"'4003'","'6/24/07 6/30/07'","Friendly/courtesy phys asst/midwife*",50.0,2
"'4003'","'6/24/07 6/30/07'","Skill of physician asst/midwife*",50.0,2
"'Total'","'6/24/07 6/30/07'","Std Physician Asst/Midwife",-,0
"'Total'","'6/24/07 6/30/07'","Physician Asst/Midwife",58.3,3
"'Total'","'6/24/07 6/30/07'","PM:Time spent with you*",58.3,3
"'Total'","'6/24/07 6/30/07'","PM:concern questions/worries*",58.3,3
"'Total'","'6/24/07 6/30/07'","PM:kept you informed*",58.3,3
"'Total'","'6/24/07 6/30/07'","Friendly/courtesy phys asst/midwife*",58.3,3
"'Total'","'6/24/07 6/30/07'","Skill of physician asst/midwife*",58.3,3
"'4018'","'7/1/07 7/7/07'","Std Physician Asst/Midwife",-,0
"'4018'","'7/1/07 7/7/07'","Physician Asst/Midwife",100.0,1
"'4018'","'7/1/07 7/7/07'","PM:Time spent with you*",100.0,1
"'4018'","'7/1/07 7/7/07'","PM:concern questions/worries*",100.0,1
"'4018'","'7/1/07 7/7/07'","PM:kept you informed*",100.0,1
"'4018'","'7/1/07 7/7/07'","Friendly/courtesy phys asst/midwife*",100.0,1
"'4018'","'7/1/07 7/7/07'","Skill of physician asst/midwife*",100.0,1
"'Total'","'7/1/07 7/7/07'","Std Physician Asst/Midwife",-,0
"'Total'","'7/1/07 7/7/07'","Physician Asst/Midwife",100.0,1
"'Total'","'7/1/07 7/7/07'","PM:Time spent with you*",100.0,1
"'Total'","'7/1/07 7/7/07'","PM:concern questions/worries*",100.0,1
"'Total'","'7/1/07 7/7/07'","PM:kept you informed*",100.0,1
"'Total'","'7/1/07 7/7/07'","Friendly/courtesy phys asst/midwife*",100.0,1
"'Total'","'7/1/07 7/7/07'","Skill of physician asst/midwife*",100.0,1
"'4023'","'7/22/07 7/28/07'","Std Physician Asst/Midwife",-,0
"'4023'","'7/22/07 7/28/07'","Physician Asst/Midwife",70.0,1
"'4023'","'7/22/07 7/28/07'","PM:Time spent with you*",50.0,1
"'4023'","'7/22/07 7/28/07'","PM:concern questions/worries*",75.0,1
"'4023'","'7/22/07 7/28/07'","PM:kept you informed*",75.0,1
"'4023'","'7/22/07 7/28/07'","Friendly/courtesy phys asst/midwife*",75.0,1
"'4023'","'7/22/07 7/28/07'","Skill of physician asst/midwife*",75.0,1
"'4027'","'7/22/07 7/28/07'","Std Physician Asst/Midwife",-,0
"'4027'","'7/22/07 7/28/07'","Physician Asst/Midwife",91.7,3
"'4027'","'7/22/07 7/28/07'","PM:Time spent with you*",91.7,3
"'4027'","'7/22/07 7/28/07'","PM:concern questions/worries*",91.7,3
"'4027'","'7/22/07 7/28/07'","PM:kept you informed*",91.7,3
"'4027'","'7/22/07 7/28/07'","Friendly/courtesy phys asst/midwife*",91.7,3
"'4027'","'7/22/07 7/28/07'","Skill of physician asst/midwife*",91.7,3
"'4017'","'7/22/07 7/28/07'","Std Physician Asst/Midwife",-,0
"'4017'","'7/22/07 7/28/07'","Physician Asst/Midwife",85.0,1
"'4017'","'7/22/07 7/28/07'","PM:Time spent with you*",75.0,1
"'4017'","'7/22/07 7/28/07'","PM:concern questions/worries*",75.0,1
"'4017'","'7/22/07 7/28/07'","PM:kept you informed*",75.0,1
"'4017'","'7/22/07 7/28/07'","Friendly/courtesy phys asst/midwife*",100.0,1
"'4017'","'7/22/07 7/28/07'","Skill of physician asst/midwife*",100.0,1
"'4030'","'7/22/07 7/28/07'","Std Physician Asst/Midwife",-,0
"'4030'","'7/22/07 7/28/07'","Physician Asst/Midwife",100.0,1
"'4030'","'7/22/07 7/28/07'","PM:Time spent with you*",100.0,1
"'4030'","'7/22/07 7/28/07'","PM:concern questions/worries*",100.0,1
"'4030'","'7/22/07 7/28/07'","PM:kept you informed*",100.0,1
"'4030'","'7/22/07 7/28/07'","Friendly/courtesy phys asst/midwife*",100.0,1
"'4030'","'7/22/07 7/28/07'","Skill of physician asst/midwife*",100.0,1
"'4031'","'7/22/07 7/28/07'","Std Physician Asst/Midwife",-,0
"'4031'","'7/22/07 7/28/07'","Physician Asst/Midwife",100.0,1
"'4031'","'7/22/07 7/28/07'","PM:Time spent with you*",100.0,1
"'4031'","'7/22/07 7/28/07'","PM:kept you informed*",100.0,1
"'4031'","'7/22/07 7/28/07'","Friendly/courtesy phys asst/midwife*",100.0,1
"'4031'","'7/22/07 7/28/07'","Skill of physician asst/midwife*",100.0,1
"'4019'","'7/22/07 7/28/07'","Std Physician Asst/Midwife",-,0
"'4019'","'7/22/07 7/28/07'","Physician Asst/Midwife",50.0,1
"'4019'","'7/22/07 7/28/07'","PM:Time spent with you*",50.0,1
"'4019'","'7/22/07 7/28/07'","PM:concern questions/worries*",50.0,1
"'4019'","'7/22/07 7/28/07'","PM:kept you informed*",50.0,1
"'4019'","'7/22/07 7/28/07'","Friendly/courtesy phys asst/midwife*",50.0,1
"'4019'","'7/22/07 7/28/07'","Skill of physician asst/midwife*",50.0,1
"'Total'","'7/22/07 7/28/07'","Std Physician Asst/Midwife",-,0
"'Total'","'7/22/07 7/28/07'","Physician Asst/Midwife",85.0,8
"'Total'","'7/22/07 7/28/07'","PM:Time spent with you*",81.3,8
"'Total'","'7/22/07 7/28/07'","PM:concern questions/worries*",82.1,7
"'Total'","'7/22/07 7/28/07'","PM:kept you informed*",84.4,8
"'Total'","'7/22/07 7/28/07'","Friendly/courtesy phys asst/midwife*",87.5,8
"'Total'","'7/22/07 7/28/07'","Skill of physician asst/midwife*",87.5,8
"'4015'","'8/5/07 8/11/07'","Std Physician Asst/Midwife",-,0
"'4015'","'8/5/07 8/11/07'","Physician Asst/Midwife",100.0,1
"'4015'","'8/5/07 8/11/07'","PM:Time spent with you*",100.0,1
"'4015'","'8/5/07 8/11/07'","PM:concern questions/worries*",100.0,1
"'4015'","'8/5/07 8/11/07'","PM:kept you informed*",100.0,1
"'4015'","'8/5/07 8/11/07'","Friendly/courtesy phys asst/midwife*",100.0,1
"'4015'","'8/5/07 8/11/07'","Skill of physician asst/midwife*",100.0,1
"'4026'","'8/5/07 8/11/07'","Std Physician Asst/Midwife",-,0
"'4026'","'8/5/07 8/11/07'","Physician Asst/Midwife",100.0,1
"'4026'","'8/5/07 8/11/07'","PM:Time spent with you*",100.0,1
"'4026'","'8/5/07 8/11/07'","PM:concern questions/worries*",100.0,1
"'4026'","'8/5/07 8/11/07'","PM:kept you informed*",100.0,1
"'4026'","'8/5/07 8/11/07'","Friendly/courtesy phys asst/midwife*",100.0,1
"'4026'","'8/5/07 8/11/07'","Skill of physician asst/midwife*",100.0,1
"'Total'","'8/5/07 8/11/07'","Std Physician Asst/Midwife",-,0
"'Total'","'8/5/07 8/11/07'","Physician Asst/Midwife",100.0,2
"'Total'","'8/5/07 8/11/07'","PM:Time spent with you*",100.0,2
"'Total'","'8/5/07 8/11/07'","PM:concern questions/worries*",100.0,2
"'Total'","'8/5/07 8/11/07'","PM:kept you informed*",100.0,2
"'Total'","'8/5/07 8/11/07'","Friendly/courtesy phys asst/midwife*",100.0,2
"'Total'","'8/5/07 8/11/07'","Skill of physician asst/midwife*",100.0,2
"'4034'","'8/19/07 8/25/07'","Std Physician Asst/Midwife",-,0
"'4034'","'8/19/07 8/25/07'","Physician Asst/Midwife",75.0,1
"'4034'","'8/19/07 8/25/07'","PM:Time spent with you*",75.0,1
"'4034'","'8/19/07 8/25/07'","PM:concern questions/worries*",75.0,1
"'4034'","'8/19/07 8/25/07'","PM:kept you informed*",75.0,1
"'4034'","'8/19/07 8/25/07'","Friendly/courtesy phys asst/midwife*",75.0,1
"'4034'","'8/19/07 8/25/07'","Skill of physician asst/midwife*",75.0,1
"'4032'","'8/19/07 8/25/07'","Std Physician Asst/Midwife",-,0
"'4032'","'8/19/07 8/25/07'","Physician Asst/Midwife",75.0,1
"'4032'","'8/19/07 8/25/07'","PM:Time spent with you*",75.0,1
"'4032'","'8/19/07 8/25/07'","PM:concern questions/worries*",75.0,1
"'4032'","'8/19/07 8/25/07'","PM:kept you informed*",75.0,1
"'4032'","'8/19/07 8/25/07'","Friendly/courtesy phys asst/midwife*",75.0,1
"'4032'","'8/19/07 8/25/07'","Skill of physician asst/midwife*",75.0,1
"'4005'","'8/19/07 8/25/07'","Std Physician Asst/Midwife",-,0
"'4005'","'8/19/07 8/25/07'","Physician Asst/Midwife",100.0,2
"'4005'","'8/19/07 8/25/07'","PM:Time spent with you*",100.0,2
"'4005'","'8/19/07 8/25/07'","PM:concern questions/worries*",100.0,2
"'4005'","'8/19/07 8/25/07'","PM:kept you informed*",100.0,2
"'4005'","'8/19/07 8/25/07'","Friendly/courtesy phys asst/midwife*",100.0,2
"'4005'","'8/19/07 8/25/07'","Skill of physician asst/midwife*",100.0,2
"'4024'","'8/19/07 8/25/07'","Std Physician Asst/Midwife",-,0
"'4024'","'8/19/07 8/25/07'","Physician Asst/Midwife",95.0,1
"'4024'","'8/19/07 8/25/07'","PM:Time spent with you*",75.0,1
"'4024'","'8/19/07 8/25/07'","PM:concern questions/worries*",100.0,1
"'4024'","'8/19/07 8/25/07'","PM:kept you informed*",100.0,1
"'4024'","'8/19/07 8/25/07'","Friendly/courtesy phys asst/midwife*",100.0,1
"'4024'","'8/19/07 8/25/07'","Skill of physician asst/midwife*",100.0,1
"'Total'","'8/19/07 8/25/07'","Std Physician Asst/Midwife",-,0
"'Total'","'8/19/07 8/25/07'","Physician Asst/Midwife",89.0,5
"'Total'","'8/19/07 8/25/07'","PM:Time spent with you*",85.0,5
"'Total'","'8/19/07 8/25/07'","PM:concern questions/worries*",90.0,5
"'Total'","'8/19/07 8/25/07'","PM:kept you informed*",90.0,5
"'Total'","'8/19/07 8/25/07'","Friendly/courtesy phys asst/midwife*",90.0,5
"'Total'","'8/19/07 8/25/07'","Skill of physician asst/midwife*",90.0,5
"'4015'","'8/26/07 9/1/07'","Std Physician Asst/Midwife",-,0
"'4015'","'8/26/07 9/1/07'","Physician Asst/Midwife",50.0,1
"'4015'","'8/26/07 9/1/07'","PM:Time spent with you*",50.0,1
"'4015'","'8/26/07 9/1/07'","PM:concern questions/worries*",50.0,1
"'4015'","'8/26/07 9/1/07'","PM:kept you informed*",50.0,1
"'4015'","'8/26/07 9/1/07'","Friendly/courtesy phys asst/midwife*",50.0,1
"'4015'","'8/26/07 9/1/07'","Skill of physician asst/midwife*",50.0,1
"'4003'","'8/26/07 9/1/07'","Std Physician Asst/Midwife",-,0
"'4003'","'8/26/07 9/1/07'","Physician Asst/Midwife",85.0,1
"'4003'","'8/26/07 9/1/07'","PM:Time spent with you*",75.0,1
"'4003'","'8/26/07 9/1/07'","PM:concern questions/worries*",75.0,1
"'4003'","'8/26/07 9/1/07'","PM:kept you informed*",75.0,1
"'4003'","'8/26/07 9/1/07'","Friendly/courtesy phys asst/midwife*",100.0,1
"'4003'","'8/26/07 9/1/07'","Skill of physician asst/midwife*",100.0,1
"'Total'","'8/26/07 9/1/07'","Std Physician Asst/Midwife",-,0
"'Total'","'8/26/07 9/1/07'","Physician Asst/Midwife",67.5,2
"'Total'","'8/26/07 9/1/07'","PM:Time spent with you*",62.5,2
"'Total'","'8/26/07 9/1/07'","PM:concern questions/worries*",62.5,2
"'Total'","'8/26/07 9/1/07'","PM:kept you informed*",62.5,2
"'Total'","'8/26/07 9/1/07'","Friendly/courtesy phys asst/midwife*",75.0,2
"'Total'","'8/26/07 9/1/07'","Skill of physician asst/midwife*",75.0,2
"'4009'","'9/2/07 9/8/07'","Std Physician Asst/Midwife",-,0
"'4009'","'9/2/07 9/8/07'","Physician Asst/Midwife",95.0,1
"'4009'","'9/2/07 9/8/07'","PM:Time spent with you*",75.0,1
"'4009'","'9/2/07 9/8/07'","PM:concern questions/worries*",100.0,1
"'4009'","'9/2/07 9/8/07'","PM:kept you informed*",100.0,1
"'4009'","'9/2/07 9/8/07'","Friendly/courtesy phys asst/midwife*",100.0,1
"'4009'","'9/2/07 9/8/07'","Skill of physician asst/midwife*",100.0,1
"'Total'","'9/2/07 9/8/07'","Std Physician Asst/Midwife",-,0
"'Total'","'9/2/07 9/8/07'","Physician Asst/Midwife",95.0,1
"'Total'","'9/2/07 9/8/07'","PM:Time spent with you*",75.0,1
"'Total'","'9/2/07 9/8/07'","PM:concern questions/worries*",100.0,1
"'Total'","'9/2/07 9/8/07'","PM:kept you informed*",100.0,1
"'Total'","'9/2/07 9/8/07'","Friendly/courtesy phys asst/midwife*",100.0,1
"'Total'","'9/2/07 9/8/07'","Skill of physician asst/midwife*",100.0,1
"'4025'","'9/16/07 9/22/07'","Std Physician Asst/Midwife",-,0
"'4025'","'9/16/07 9/22/07'","Physician Asst/Midwife",75.0,1
"'4025'","'9/16/07 9/22/07'","PM:Time spent with you*",75.0,1
"'4025'","'9/16/07 9/22/07'","PM:concern questions/worries*",75.0,1
"'4025'","'9/16/07 9/22/07'","PM:kept you informed*",75.0,1
"'4025'","'9/16/07 9/22/07'","Friendly/courtesy phys asst/midwife*",100.0,1
"'4025'","'9/16/07 9/22/07'","Skill of physician asst/midwife*",50.0,1
"'4019'","'9/16/07 9/22/07'","Std Physician Asst/Midwife",-,0
"'4019'","'9/16/07 9/22/07'","Physician Asst/Midwife",100.0,1
"'4019'","'9/16/07 9/22/07'","PM:Time spent with you*",100.0,1
"'4019'","'9/16/07 9/22/07'","PM:concern questions/worries*",100.0,1
"'4019'","'9/16/07 9/22/07'","PM:kept you informed*",100.0,1
"'4019'","'9/16/07 9/22/07'","Friendly/courtesy phys asst/midwife*",100.0,1
"'4019'","'9/16/07 9/22/07'","Skill of physician asst/midwife*",100.0,1
"'Total'","'9/16/07 9/22/07'","Std Physician Asst/Midwife",-,0
"'Total'","'9/16/07 9/22/07'","Physician Asst/Midwife",87.5,2
"'Total'","'9/16/07 9/22/07'","PM:Time spent with you*",87.5,2
"'Total'","'9/16/07 9/22/07'","PM:concern questions/worries*",87.5,2
"'Total'","'9/16/07 9/22/07'","PM:kept you informed*",87.5,2
"'Total'","'9/16/07 9/22/07'","Friendly/courtesy phys asst/midwife*",100.0,2
"'Total'","'9/16/07 9/22/07'","Skill of physician asst/midwife*",75.0,2
"'4018'","'9/23/07 9/29/07'","Std Physician Asst/Midwife",-,0
"'4018'","'9/23/07 9/29/07'","Physician Asst/Midwife",75.0,1
"'4018'","'9/23/07 9/29/07'","PM:Time spent with you*",75.0,1
"'4018'","'9/23/07 9/29/07'","PM:concern questions/worries*",75.0,1
"'4018'","'9/23/07 9/29/07'","PM:kept you informed*",75.0,1
"'4018'","'9/23/07 9/29/07'","Friendly/courtesy phys asst/midwife*",75.0,1
"'4018'","'9/23/07 9/29/07'","Skill of physician asst/midwife*",75.0,1
"'4005'","'9/23/07 9/29/07'","Std Physician Asst/Midwife",-,0
"'4005'","'9/23/07 9/29/07'","Physician Asst/Midwife",85.0,1
"'4005'","'9/23/07 9/29/07'","PM:Time spent with you*",75.0,1
"'4005'","'9/23/07 9/29/07'","PM:concern questions/worries*",75.0,1
"'4005'","'9/23/07 9/29/07'","PM:kept you informed*",75.0,1
"'4005'","'9/23/07 9/29/07'","Friendly/courtesy phys asst/midwife*",100.0,1
"'4005'","'9/23/07 9/29/07'","Skill of physician asst/midwife*",100.0,1
"'Total'","'9/23/07 9/29/07'","Std Physician Asst/Midwife",-,0
"'Total'","'9/23/07 9/29/07'","Physician Asst/Midwife",80.0,2
"'Total'","'9/23/07 9/29/07'","PM:Time spent with you*",75.0,2
"'Total'","'9/23/07 9/29/07'","PM:concern questions/worries*",75.0,2
"'Total'","'9/23/07 9/29/07'","PM:kept you informed*",75.0,2
"'Total'","'9/23/07 9/29/07'","Friendly/courtesy phys asst/midwife*",87.5,2
"'Total'","'9/23/07 9/29/07'","Skill of physician asst/midwife*",87.5,2
"'4009'","'9/30/07 10/6/07'","Std Physician Asst/Midwife",-,0
"'4009'","'9/30/07 10/6/07'","Physician Asst/Midwife",70.0,1
"'4009'","'9/30/07 10/6/07'","PM:Time spent with you*",50.0,1
"'4009'","'9/30/07 10/6/07'","PM:concern questions/worries*",50.0,1
"'4009'","'9/30/07 10/6/07'","PM:kept you informed*",75.0,1
"'4009'","'9/30/07 10/6/07'","Friendly/courtesy phys asst/midwife*",100.0,1
"'4009'","'9/30/07 10/6/07'","Skill of physician asst/midwife*",75.0,1
"'4002'","'9/30/07 10/6/07'","Std Physician Asst/Midwife",-,0
"'4002'","'9/30/07 10/6/07'","Physician Asst/Midwife",100.0,1
"'4002'","'9/30/07 10/6/07'","PM:Time spent with you*",100.0,1
"'4002'","'9/30/07 10/6/07'","PM:concern questions/worries*",100.0,1
"'4002'","'9/30/07 10/6/07'","PM:kept you informed*",100.0,1
"'4002'","'9/30/07 10/6/07'","Friendly/courtesy phys asst/midwife*",100.0,1
"'4002'","'9/30/07 10/6/07'","Skill of physician asst/midwife*",100.0,1
"'Total'","'9/30/07 10/6/07'","Std Physician Asst/Midwife",-,0
"'Total'","'9/30/07 10/6/07'","Physician Asst/Midwife",85.0,2
"'Total'","'9/30/07 10/6/07'","PM:Time spent with you*",75.0,2
"'Total'","'9/30/07 10/6/07'","PM:concern questions/worries*",75.0,2
"'Total'","'9/30/07 10/6/07'","PM:kept you informed*",87.5,2
"'Total'","'9/30/07 10/6/07'","Friendly/courtesy phys asst/midwife*",100.0,2
"'Total'","'9/30/07 10/6/07'","Skill of physician asst/midwife*",87.5,2
"'4027'","'10/14/07 10/20/07'","Std Physician Asst/Midwife",-,0
"'4027'","'10/14/07 10/20/07'","Physician Asst/Midwife",100.0,1
"'4027'","'10/14/07 10/20/07'","PM:Time spent with you*",100.0,1
"'4027'","'10/14/07 10/20/07'","PM:concern questions/worries*",100.0,1
"'4027'","'10/14/07 10/20/07'","PM:kept you informed*",100.0,1
"'4027'","'10/14/07 10/20/07'","Friendly/courtesy phys asst/midwife*",100.0,1
"'4027'","'10/14/07 10/20/07'","Skill of physician asst/midwife*",100.0,1
"'4007'","'10/14/07 10/20/07'","Std Physician Asst/Midwife",-,0
"'4007'","'10/14/07 10/20/07'","Physician Asst/Midwife",100.0,1
"'4007'","'10/14/07 10/20/07'","PM:Time spent with you*",100.0,1
"'4007'","'10/14/07 10/20/07'","PM:concern questions/worries*",100.0,1
"'4007'","'10/14/07 10/20/07'","PM:kept you informed*",100.0,1
"'4007'","'10/14/07 10/20/07'","Friendly/courtesy phys asst/midwife*",100.0,1
"'4007'","'10/14/07 10/20/07'","Skill of physician asst/midwife*",100.0,1
"'Total'","'10/14/07 10/20/07'","Std Physician Asst/Midwife",-,0
"'Total'","'10/14/07 10/20/07'","Physician Asst/Midwife",100.0,2
"'Total'","'10/14/07 10/20/07'","PM:Time spent with you*",100.0,2
"'Total'","'10/14/07 10/20/07'","PM:concern questions/worries*",100.0,2
"'Total'","'10/14/07 10/20/07'","PM:kept you informed*",100.0,2
"'Total'","'10/14/07 10/20/07'","Friendly/courtesy phys asst/midwife*",100.0,2
"'Total'","'10/14/07 10/20/07'","Skill of physician asst/midwife*",100.0,2
"'4004'","'10/28/07 11/3/07'","Std Physician Asst/Midwife",-,0
"'4004'","'10/28/07 11/3/07'","Physician Asst/Midwife",100.0,1
"'4004'","'10/28/07 11/3/07'","PM:Time spent with you*",100.0,1
"'4004'","'10/28/07 11/3/07'","PM:concern questions/worries*",100.0,1
"'4004'","'10/28/07 11/3/07'","PM:kept you informed*",100.0,1
"'4004'","'10/28/07 11/3/07'","Friendly/courtesy phys asst/midwife*",100.0,1
"'4004'","'10/28/07 11/3/07'","Skill of physician asst/midwife*",100.0,1
"'4025'","'10/28/07 11/3/07'","Std Physician Asst/Midwife",-,0
"'4025'","'10/28/07 11/3/07'","Physician Asst/Midwife",60.0,1
"'4025'","'10/28/07 11/3/07'","PM:Time spent with you*",50.0,1
"'4025'","'10/28/07 11/3/07'","PM:concern questions/worries*",50.0,1
"'4025'","'10/28/07 11/3/07'","PM:kept you informed*",50.0,1
"'4025'","'10/28/07 11/3/07'","Friendly/courtesy phys asst/midwife*",50.0,1
"'4025'","'10/28/07 11/3/07'","Skill of physician asst/midwife*",100.0,1
"'Total'","'10/28/07 11/3/07'","Std Physician Asst/Midwife",-,0
"'Total'","'10/28/07 11/3/07'","Physician Asst/Midwife",80.0,2
"'Total'","'10/28/07 11/3/07'","PM:Time spent with you*",75.0,2
"'Total'","'10/28/07 11/3/07'","PM:concern questions/worries*",75.0,2
"'Total'","'10/28/07 11/3/07'","PM:kept you informed*",75.0,2
"'Total'","'10/28/07 11/3/07'","Friendly/courtesy phys asst/midwife*",75.0,2
"'Total'","'10/28/07 11/3/07'","Skill of physician asst/midwife*",100.0,2
"'4004'","'11/25/07 12/1/07'","Std Physician Asst/Midwife",-,0
"'4004'","'11/25/07 12/1/07'","Physician Asst/Midwife",75.0,1
"'4004'","'11/25/07 12/1/07'","PM:Time spent with you*",75.0,1
"'4004'","'11/25/07 12/1/07'","PM:concern questions/worries*",75.0,1
"'4004'","'11/25/07 12/1/07'","PM:kept you informed*",75.0,1
"'4004'","'11/25/07 12/1/07'","Friendly/courtesy phys asst/midwife*",75.0,1
"'4004'","'11/25/07 12/1/07'","Skill of physician asst/midwife*",75.0,1
"'4009'","'11/25/07 12/1/07'","Std Physician Asst/Midwife",-,0
"'4009'","'11/25/07 12/1/07'","Physician Asst/Midwife",70.0,1
"'4009'","'11/25/07 12/1/07'","PM:Time spent with you*",50.0,1
"'4009'","'11/25/07 12/1/07'","PM:concern questions/worries*",75.0,1
"'4009'","'11/25/07 12/1/07'","PM:kept you informed*",75.0,1
"'4009'","'11/25/07 12/1/07'","Friendly/courtesy phys asst/midwife*",75.0,1
"'4009'","'11/25/07 12/1/07'","Skill of physician asst/midwife*",75.0,1
"'4007'","'11/25/07 12/1/07'","Std Physician Asst/Midwife",-,0
"'4007'","'11/25/07 12/1/07'","Physician Asst/Midwife",75.0,1
"'4007'","'11/25/07 12/1/07'","PM:Time spent with you*",75.0,1
"'4007'","'11/25/07 12/1/07'","PM:concern questions/worries*",75.0,1
"'4007'","'11/25/07 12/1/07'","PM:kept you informed*",75.0,1
"'4007'","'11/25/07 12/1/07'","Friendly/courtesy phys asst/midwife*",75.0,1
"'4007'","'11/25/07 12/1/07'","Skill of physician asst/midwife*",75.0,1
"'Total'","'11/25/07 12/1/07'","Std Physician Asst/Midwife",-,0
"'Total'","'11/25/07 12/1/07'","Physician Asst/Midwife",73.3,3
"'Total'","'11/25/07 12/1/07'","PM:Time spent with you*",66.7,3
"'Total'","'11/25/07 12/1/07'","PM:concern questions/worries*",75.0,3
"'Total'","'11/25/07 12/1/07'","PM:kept you informed*",75.0,3
"'Total'","'11/25/07 12/1/07'","Friendly/courtesy phys asst/midwife*",75.0,3
"'Total'","'11/25/07 12/1/07'","Skill of physician asst/midwife*",75.0,3
"'4016'","'12/2/07 12/8/07'","Std Physician Asst/Midwife",-,0
"'4016'","'12/2/07 12/8/07'","Physician Asst/Midwife",100.0,1
"'4016'","'12/2/07 12/8/07'","PM:Time spent with you*",100.0,1
"'4016'","'12/2/07 12/8/07'","PM:concern questions/worries*",100.0,1
"'4016'","'12/2/07 12/8/07'","PM:kept you informed*",100.0,1
"'4016'","'12/2/07 12/8/07'","Friendly/courtesy phys asst/midwife*",100.0,1
"'4016'","'12/2/07 12/8/07'","Skill of physician asst/midwife*",100.0,1
"'Total'","'12/2/07 12/8/07'","Std Physician Asst/Midwife",-,0
"'Total'","'12/2/07 12/8/07'","Physician Asst/Midwife",100.0,1
"'Total'","'12/2/07 12/8/07'","PM:Time spent with you*",100.0,1
"'Total'","'12/2/07 12/8/07'","PM:concern questions/worries*",100.0,1
"'Total'","'12/2/07 12/8/07'","PM:kept you informed*",100.0,1
"'Total'","'12/2/07 12/8/07'","Friendly/courtesy phys asst/midwife*",100.0,1
"'Total'","'12/2/07 12/8/07'","Skill of physician asst/midwife*",100.0,1
"'4017'","'12/16/07 12/22/07'","Std Physician Asst/Midwife",-,0
"'4017'","'12/16/07 12/22/07'","Physician Asst/Midwife",100.0,1
"'4017'","'12/16/07 12/22/07'","PM:Time spent with you*",100.0,1
"'4017'","'12/16/07 12/22/07'","PM:concern questions/worries*",100.0,1
"'4017'","'12/16/07 12/22/07'","PM:kept you informed*",100.0,1
"'4017'","'12/16/07 12/22/07'","Friendly/courtesy phys asst/midwife*",100.0,1
"'4017'","'12/16/07 12/22/07'","Skill of physician asst/midwife*",100.0,1
"'4005'","'12/16/07 12/22/07'","Std Physician Asst/Midwife",-,0
"'4005'","'12/16/07 12/22/07'","Physician Asst/Midwife",100.0,1
"'4005'","'12/16/07 12/22/07'","PM:Time spent with you*",100.0,1
"'4005'","'12/16/07 12/22/07'","PM:concern questions/worries*",100.0,1
"'4005'","'12/16/07 12/22/07'","PM:kept you informed*",100.0,1
"'4005'","'12/16/07 12/22/07'","Friendly/courtesy phys asst/midwife*",100.0,1
"'4005'","'12/16/07 12/22/07'","Skill of physician asst/midwife*",100.0,1
"'4012'","'12/16/07 12/22/07'","Std Physician Asst/Midwife",-,0
"'4012'","'12/16/07 12/22/07'","Physician Asst/Midwife",100.0,1
"'4012'","'12/16/07 12/22/07'","PM:Time spent with you*",100.0,1
"'4012'","'12/16/07 12/22/07'","PM:concern questions/worries*",100.0,1
"'4012'","'12/16/07 12/22/07'","PM:kept you informed*",100.0,1
"'4012'","'12/16/07 12/22/07'","Friendly/courtesy phys asst/midwife*",100.0,1
"'4012'","'12/16/07 12/22/07'","Skill of physician asst/midwife*",100.0,1
"'Total'","'12/16/07 12/22/07'","Std Physician Asst/Midwife",-,0
"'Total'","'12/16/07 12/22/07'","Physician Asst/Midwife",100.0,3
"'Total'","'12/16/07 12/22/07'","PM:Time spent with you*",100.0,3
"'Total'","'12/16/07 12/22/07'","PM:concern questions/worries*",100.0,3
"'Total'","'12/16/07 12/22/07'","PM:kept you informed*",100.0,3
"'Total'","'12/16/07 12/22/07'","Friendly/courtesy phys asst/midwife*",100.0,3
"'Total'","'12/16/07 12/22/07'","Skill of physician asst/midwife*",100.0,3
"'4003'","'12/23/07 12/29/07'","Std Physician Asst/Midwife",-,0
"'4003'","'12/23/07 12/29/07'","Physician Asst/Midwife",75.0,1
"'4003'","'12/23/07 12/29/07'","PM:Time spent with you*",75.0,1
"'4003'","'12/23/07 12/29/07'","PM:concern questions/worries*",75.0,1
"'4003'","'12/23/07 12/29/07'","PM:kept you informed*",75.0,1
"'4003'","'12/23/07 12/29/07'","Friendly/courtesy phys asst/midwife*",75.0,1
"'4003'","'12/23/07 12/29/07'","Skill of physician asst/midwife*",75.0,1
"'4026'","'12/23/07 12/29/07'","Std Physician Asst/Midwife",-,0
"'4026'","'12/23/07 12/29/07'","Physician Asst/Midwife",100.0,1
"'4026'","'12/23/07 12/29/07'","PM:Time spent with you*",100.0,1
"'4026'","'12/23/07 12/29/07'","PM:concern questions/worries*",100.0,1
"'4026'","'12/23/07 12/29/07'","PM:kept you informed*",100.0,1
"'4026'","'12/23/07 12/29/07'","Friendly/courtesy phys asst/midwife*",100.0,1
"'4026'","'12/23/07 12/29/07'","Skill of physician asst/midwife*",100.0,1
"'4016'","'12/23/07 12/29/07'","Std Physician Asst/Midwife",-,0
"'4016'","'12/23/07 12/29/07'","Physician Asst/Midwife",40.0,2
"'4016'","'12/23/07 12/29/07'","PM:Time spent with you*",25.0,2
"'4016'","'12/23/07 12/29/07'","PM:concern questions/worries*",50.0,2
"'4016'","'12/23/07 12/29/07'","PM:kept you informed*",25.0,2
"'4016'","'12/23/07 12/29/07'","Friendly/courtesy phys asst/midwife*",50.0,2
"'4016'","'12/23/07 12/29/07'","Skill of physician asst/midwife*",50.0,2
"'Total'","'12/23/07 12/29/07'","Std Physician Asst/Midwife",-,0
"'Total'","'12/23/07 12/29/07'","Physician Asst/Midwife",63.8,4
"'Total'","'12/23/07 12/29/07'","PM:Time spent with you*",56.3,4
"'Total'","'12/23/07 12/29/07'","PM:concern questions/worries*",68.8,4
"'Total'","'12/23/07 12/29/07'","PM:kept you informed*",56.3,4
"'Total'","'12/23/07 12/29/07'","Friendly/courtesy phys asst/midwife*",68.8,4
"'Total'","'12/23/07 12/29/07'","Skill of physician asst/midwife*",68.8,4
"'4016'","'12/30/07 1/5/08'","Std Physician Asst/Midwife",-,0
"'4016'","'12/30/07 1/5/08'","Physician Asst/Midwife",100.0,1
"'4016'","'12/30/07 1/5/08'","PM:Time spent with you*",100.0,1
"'4016'","'12/30/07 1/5/08'","PM:concern questions/worries*",100.0,1
"'4016'","'12/30/07 1/5/08'","PM:kept you informed*",100.0,1
"'4016'","'12/30/07 1/5/08'","Friendly/courtesy phys asst/midwife*",100.0,1
"'4016'","'12/30/07 1/5/08'","Skill of physician asst/midwife*",100.0,1
"'Total'","'12/30/07 1/5/08'","Std Physician Asst/Midwife",-,0
"'Total'","'12/30/07 1/5/08'","Physician Asst/Midwife",100.0,1
"'Total'","'12/30/07 1/5/08'","PM:Time spent with you*",100.0,1
"'Total'","'12/30/07 1/5/08'","PM:concern questions/worries*",100.0,1
"'Total'","'12/30/07 1/5/08'","PM:kept you informed*",100.0,1
"'Total'","'12/30/07 1/5/08'","Friendly/courtesy phys asst/midwife*",100.0,1
"'Total'","'12/30/07 1/5/08'","Skill of physician asst/midwife*",100.0,1
"'4004'","'Total'","Std Physician Asst/Midwife",-,0
"'4004'","'Total'","Physician Asst/Midwife",87.5,4
"'4004'","'Total'","PM:Time spent with you*",87.5,4
"'4004'","'Total'","PM:concern questions/worries*",83.3,3
"'4004'","'Total'","PM:kept you informed*",83.3,3
"'4004'","'Total'","Friendly/courtesy phys asst/midwife*",83.3,3
"'4004'","'Total'","Skill of physician asst/midwife*",83.3,3
"'4018'","'Total'","Std Physician Asst/Midwife",-,0
"'4018'","'Total'","Physician Asst/Midwife",77.0,5
"'4018'","'Total'","PM:Time spent with you*",75.0,5
"'4018'","'Total'","PM:concern questions/worries*",70.0,5
"'4018'","'Total'","PM:kept you informed*",75.0,5
"'4018'","'Total'","Friendly/courtesy phys asst/midwife*",85.0,5
"'4018'","'Total'","Skill of physician asst/midwife*",80.0,5
"'4034'","'Total'","Std Physician Asst/Midwife",-,0
"'4034'","'Total'","Physician Asst/Midwife",75.0,1
"'4034'","'Total'","PM:Time spent with you*",75.0,1
"'4034'","'Total'","PM:concern questions/worries*",75.0,1
"'4034'","'Total'","PM:kept you informed*",75.0,1
"'4034'","'Total'","Friendly/courtesy phys asst/midwife*",75.0,1
"'4034'","'Total'","Skill of physician asst/midwife*",75.0,1
"'4029'","'Total'","Std Physician Asst/Midwife",-,0
"'4029'","'Total'","Physician Asst/Midwife",92.5,2
"'4029'","'Total'","PM:Time spent with you*",100.0,2
"'4029'","'Total'","PM:concern questions/worries*",87.5,2
"'4029'","'Total'","PM:kept you informed*",87.5,2
"'4029'","'Total'","Friendly/courtesy phys asst/midwife*",100.0,2
"'4029'","'Total'","Skill of physician asst/midwife*",87.5,2
"'4015'","'Total'","Std Physician Asst/Midwife",-,0
"'4015'","'Total'","Physician Asst/Midwife",85.0,5
"'4015'","'Total'","PM:Time spent with you*",85.0,5
"'4015'","'Total'","PM:concern questions/worries*",85.0,5
"'4015'","'Total'","PM:kept you informed*",85.0,5
"'4015'","'Total'","Friendly/courtesy phys asst/midwife*",85.0,5
"'4015'","'Total'","Skill of physician asst/midwife*",85.0,5
"'4023'","'Total'","Std Physician Asst/Midwife",-,0
"'4023'","'Total'","Physician Asst/Midwife",70.0,1
"'4023'","'Total'","PM:Time spent with you*",50.0,1
"'4023'","'Total'","PM:concern questions/worries*",75.0,1
"'4023'","'Total'","PM:kept you informed*",75.0,1
"'4023'","'Total'","Friendly/courtesy phys asst/midwife*",75.0,1
"'4023'","'Total'","Skill of physician asst/midwife*",75.0,1
"'4014'","'Total'","Std Physician Asst/Midwife",-,0
"'4014'","'Total'","Physician Asst/Midwife",95.0,1
"'4014'","'Total'","PM:Time spent with you*",75.0,1
"'4014'","'Total'","PM:concern questions/worries*",100.0,1
"'4014'","'Total'","PM:kept you informed*",100.0,1
"'4014'","'Total'","Friendly/courtesy phys asst/midwife*",100.0,1
"'4014'","'Total'","Skill of physician asst/midwife*",100.0,1
"'4003'","'Total'","Std Physician Asst/Midwife",-,0
"'4003'","'Total'","Physician Asst/Midwife",80.0,7
"'4003'","'Total'","PM:Time spent with you*",78.6,7
"'4003'","'Total'","PM:concern questions/worries*",75.0,6
"'4003'","'Total'","PM:kept you informed*",75.0,6
"'4003'","'Total'","Friendly/courtesy phys asst/midwife*",79.2,6
"'4003'","'Total'","Skill of physician asst/midwife*",79.2,6
"'4025'","'Total'","Std Physician Asst/Midwife",-,0
"'4025'","'Total'","Physician Asst/Midwife",59.0,5
"'4025'","'Total'","PM:Time spent with you*",55.0,5
"'4025'","'Total'","PM:concern questions/worries*",60.0,5
"'4025'","'Total'","PM:kept you informed*",55.0,5
"'4025'","'Total'","Friendly/courtesy phys asst/midwife*",60.0,5
"'4025'","'Total'","Skill of physician asst/midwife*",65.0,5
"'4027'","'Total'","Std Physician Asst/Midwife",-,0
"'4027'","'Total'","Physician Asst/Midwife",88.1,8
"'4027'","'Total'","PM:Time spent with you*",87.5,8
"'4027'","'Total'","PM:concern questions/worries*",89.3,7
"'4027'","'Total'","PM:kept you informed*",89.3,7
"'4027'","'Total'","Friendly/courtesy phys asst/midwife*",89.3,7
"'4027'","'Total'","Skill of physician asst/midwife*",92.9,7
"'4026'","'Total'","Std Physician Asst/Midwife",-,0
"'4026'","'Total'","Physician Asst/Midwife",90.0,6
"'4026'","'Total'","PM:Time spent with you*",79.2,6
"'4026'","'Total'","PM:concern questions/worries*",87.5,6
"'4026'","'Total'","PM:kept you informed*",91.7,6
"'4026'","'Total'","Friendly/courtesy phys asst/midwife*",91.7,6
"'4026'","'Total'","Skill of physician asst/midwife*",100.0,6
"'4032'","'Total'","Std Physician Asst/Midwife",-,0
"'4032'","'Total'","Physician Asst/Midwife",87.5,2
"'4032'","'Total'","PM:Time spent with you*",87.5,2
"'4032'","'Total'","PM:concern questions/worries*",87.5,2
"'4032'","'Total'","PM:kept you informed*",87.5,2
"'4032'","'Total'","Friendly/courtesy phys asst/midwife*",87.5,2
"'4032'","'Total'","Skill of physician asst/midwife*",87.5,2
"'4016'","'Total'","Std Physician Asst/Midwife",-,0
"'4016'","'Total'","Physician Asst/Midwife",76.0,5
"'4016'","'Total'","PM:Time spent with you*",70.0,5
"'4016'","'Total'","PM:concern questions/worries*",80.0,5
"'4016'","'Total'","PM:kept you informed*",70.0,5
"'4016'","'Total'","Friendly/courtesy phys asst/midwife*",80.0,5
"'4016'","'Total'","Skill of physician asst/midwife*",80.0,5
"'4017'","'Total'","Std Physician Asst/Midwife",-,0
"'4017'","'Total'","Physician Asst/Midwife",96.3,4
"'4017'","'Total'","PM:Time spent with you*",93.8,4
"'4017'","'Total'","PM:concern questions/worries*",93.8,4
"'4017'","'Total'","PM:kept you informed*",93.8,4
"'4017'","'Total'","Friendly/courtesy phys asst/midwife*",100.0,4
"'4017'","'Total'","Skill of physician asst/midwife*",100.0,4
"'4009'","'Total'","Std Physician Asst/Midwife",-,0
"'4009'","'Total'","Physician Asst/Midwife",78.3,3
"'4009'","'Total'","PM:Time spent with you*",58.3,3
"'4009'","'Total'","PM:concern questions/worries*",75.0,3
"'4009'","'Total'","PM:kept you informed*",83.3,3
"'4009'","'Total'","Friendly/courtesy phys asst/midwife*",91.7,3
"'4009'","'Total'","Skill of physician asst/midwife*",83.3,3
"'4021'","'Total'","Std Physician Asst/Midwife",-,0
"'4021'","'Total'","Physician Asst/Midwife",91.7,3
"'4021'","'Total'","PM:Time spent with you*",91.7,3
"'4021'","'Total'","PM:concern questions/worries*",91.7,3
"'4021'","'Total'","PM:kept you informed*",91.7,3
"'4021'","'Total'","Friendly/courtesy phys asst/midwife*",91.7,3
"'4021'","'Total'","Skill of physician asst/midwife*",91.7,3
"'4011'","'Total'","Std Physician Asst/Midwife",-,0
"'4011'","'Total'","Physician Asst/Midwife",85.0,4
"'4011'","'Total'","PM:Time spent with you*",81.3,4
"'4011'","'Total'","PM:concern questions/worries*",87.5,4
"'4011'","'Total'","PM:kept you informed*",87.5,4
"'4011'","'Total'","Friendly/courtesy phys asst/midwife*",87.5,4
"'4011'","'Total'","Skill of physician asst/midwife*",81.3,4
"'4002'","'Total'","Std Physician Asst/Midwife",-,0
"'4002'","'Total'","Physician Asst/Midwife",93.8,4
"'4002'","'Total'","PM:Time spent with you*",93.8,4
"'4002'","'Total'","PM:concern questions/worries*",93.8,4
"'4002'","'Total'","PM:kept you informed*",93.8,4
"'4002'","'Total'","Friendly/courtesy phys asst/midwife*",93.8,4
"'4002'","'Total'","Skill of physician asst/midwife*",93.8,4
"'4010'","'Total'","Std Physician Asst/Midwife",-,0
"'4010'","'Total'","Physician Asst/Midwife",100.0,3
"'4010'","'Total'","PM:Time spent with you*",100.0,3
"'4010'","'Total'","PM:concern questions/worries*",100.0,3
"'4010'","'Total'","PM:kept you informed*",100.0,3
"'4010'","'Total'","Friendly/courtesy phys asst/midwife*",100.0,3
"'4010'","'Total'","Skill of physician asst/midwife*",100.0,3
"'4007'","'Total'","Std Physician Asst/Midwife",-,0
"'4007'","'Total'","Physician Asst/Midwife",93.8,4
"'4007'","'Total'","PM:Time spent with you*",93.8,4
"'4007'","'Total'","PM:concern questions/worries*",93.8,4
"'4007'","'Total'","PM:kept you informed*",93.8,4
"'4007'","'Total'","Friendly/courtesy phys asst/midwife*",93.8,4
"'4007'","'Total'","Skill of physician asst/midwife*",93.8,4
"'4013'","'Total'","Std Physician Asst/Midwife",-,0
"'4013'","'Total'","Physician Asst/Midwife",95.0,5
"'4013'","'Total'","PM:Time spent with you*",95.0,5
"'4013'","'Total'","PM:concern questions/worries*",95.0,5
"'4013'","'Total'","PM:kept you informed*",95.0,5
"'4013'","'Total'","Friendly/courtesy phys asst/midwife*",95.0,5
"'4013'","'Total'","Skill of physician asst/midwife*",95.0,5
"'4028'","'Total'","Std Physician Asst/Midwife",-,0
"'4028'","'Total'","Physician Asst/Midwife",75.0,1
"'4028'","'Total'","PM:Time spent with you*",75.0,1
"'4028'","'Total'","PM:concern questions/worries*",75.0,1
"'4028'","'Total'","PM:kept you informed*",75.0,1
"'4028'","'Total'","Friendly/courtesy phys asst/midwife*",75.0,1
"'4028'","'Total'","Skill of physician asst/midwife*",75.0,1
"'4030'","'Total'","Std Physician Asst/Midwife",-,0
"'4030'","'Total'","Physician Asst/Midwife",100.0,2
"'4030'","'Total'","PM:Time spent with you*",100.0,2
"'4030'","'Total'","PM:concern questions/worries*",100.0,2
"'4030'","'Total'","PM:kept you informed*",100.0,2
"'4030'","'Total'","Friendly/courtesy phys asst/midwife*",100.0,2
"'4030'","'Total'","Skill of physician asst/midwife*",100.0,2
"'4001'","'Total'","Std Physician Asst/Midwife",-,0
"'4001'","'Total'","Physician Asst/Midwife",100.0,1
"'4001'","'Total'","PM:Time spent with you*",100.0,1
"'4001'","'Total'","PM:concern questions/worries*",100.0,1
"'4001'","'Total'","PM:kept you informed*",100.0,1
"'4001'","'Total'","Friendly/courtesy phys asst/midwife*",100.0,1
"'4001'","'Total'","Skill of physician asst/midwife*",100.0,1
"'4005'","'Total'","Std Physician Asst/Midwife",-,0
"'4005'","'Total'","Physician Asst/Midwife",96.3,4
"'4005'","'Total'","PM:Time spent with you*",93.8,4
"'4005'","'Total'","PM:concern questions/worries*",93.8,4
"'4005'","'Total'","PM:kept you informed*",93.8,4
"'4005'","'Total'","Friendly/courtesy phys asst/midwife*",100.0,4
"'4005'","'Total'","Skill of physician asst/midwife*",100.0,4
"'4024'","'Total'","Std Physician Asst/Midwife",-,0
"'4024'","'Total'","Physician Asst/Midwife",86.3,4
"'4024'","'Total'","PM:Time spent with you*",81.3,4
"'4024'","'Total'","PM:concern questions/worries*",81.3,4
"'4024'","'Total'","PM:kept you informed*",81.3,4
"'4024'","'Total'","Friendly/courtesy phys asst/midwife*",87.5,4
"'4024'","'Total'","Skill of physician asst/midwife*",100.0,4
"'4012'","'Total'","Std Physician Asst/Midwife",-,0
"'4012'","'Total'","Physician Asst/Midwife",96.0,5
"'4012'","'Total'","PM:Time spent with you*",95.0,5
"'4012'","'Total'","PM:concern questions/worries*",100.0,5
"'4012'","'Total'","PM:kept you informed*",95.0,5
"'4012'","'Total'","Friendly/courtesy phys asst/midwife*",95.0,5
"'4012'","'Total'","Skill of physician asst/midwife*",95.0,5
"'4031'","'Total'","Std Physician Asst/Midwife",-,0
"'4031'","'Total'","Physician Asst/Midwife",100.0,1
"'4031'","'Total'","PM:Time spent with you*",100.0,1
"'4031'","'Total'","PM:kept you informed*",100.0,1
"'4031'","'Total'","Friendly/courtesy phys asst/midwife*",100.0,1
"'4031'","'Total'","Skill of physician asst/midwife*",100.0,1
"'4019'","'Total'","Std Physician Asst/Midwife",-,0
"'4019'","'Total'","Physician Asst/Midwife",50.0,3
"'4019'","'Total'","PM:Time spent with you*",50.0,3
"'4019'","'Total'","PM:concern questions/worries*",50.0,3
"'4019'","'Total'","PM:kept you informed*",50.0,3
"'4019'","'Total'","Friendly/courtesy phys asst/midwife*",50.0,3
"'4019'","'Total'","Skill of physician asst/midwife*",75.0,2
"'Total'","'Total'","Std Physician Asst/Midwife",-,0
"'Total'","'Total'","Physician Asst/Midwife",85.8,103
"'Total'","'Total'","PM:Time spent with you*",83.0,103
"'Total'","'Total'","PM:concern questions/worries*",84.9,99
"'Total'","'Total'","PM:kept you informed*",84.8,100
"'Total'","'Total'","Friendly/courtesy phys asst/midwife*",87.5,100
"'Total'","'Total'","Skill of physician asst/midwife*",88.9,99


