"FILTER","CHOICE(S)"


"Site","Emory University Hospital Midtown",(Site:1)
"IT Discharge date","From 01/01/2002 To 12/31/2002"

"MEAN REPORT"


"IT Room","IT Discharge date","Question","mean","n"
"'611001'","'12/30/01 1/5/02'","Std Physician Asst/Midwife",-,0
"'611001'","'12/30/01 1/5/02'","Physician Asst/Midwife",75.0,1
"'611001'","'12/30/01 1/5/02'","PM:Time spent with you*",75.0,1
"'611001'","'12/30/01 1/5/02'","PM:concern questions/worries*",75.0,1
"'611001'","'12/30/01 1/5/02'","PM:kept you informed*",75.0,1
"'611001'","'12/30/01 1/5/02'","Friendly/courtesy phys asst/midwife*",75.0,1
"'611001'","'12/30/01 1/5/02'","Skill of physician asst/midwife*",75.0,1
"'Total'","'12/30/01 1/5/02'","Std Physician Asst/Midwife",-,0
"'Total'","'12/30/01 1/5/02'","Physician Asst/Midwife",75.0,1
"'Total'","'12/30/01 1/5/02'","PM:Time spent with you*",75.0,1
"'Total'","'12/30/01 1/5/02'","PM:concern questions/worries*",75.0,1
"'Total'","'12/30/01 1/5/02'","PM:kept you informed*",75.0,1
"'Total'","'12/30/01 1/5/02'","Friendly/courtesy phys asst/midwife*",75.0,1
"'Total'","'12/30/01 1/5/02'","Skill of physician asst/midwife*",75.0,1
"'610601'","'1/6/02 1/12/02'","Std Physician Asst/Midwife",-,0
"'610601'","'1/6/02 1/12/02'","Physician Asst/Midwife",95.0,1
"'610601'","'1/6/02 1/12/02'","PM:Time spent with you*",75.0,1
"'610601'","'1/6/02 1/12/02'","PM:concern questions/worries*",100.0,1
"'610601'","'1/6/02 1/12/02'","PM:kept you informed*",100.0,1
"'610601'","'1/6/02 1/12/02'","Friendly/courtesy phys asst/midwife*",100.0,1
"'610601'","'1/6/02 1/12/02'","Skill of physician asst/midwife*",100.0,1
"'Total'","'1/6/02 1/12/02'","Std Physician Asst/Midwife",-,0
"'Total'","'1/6/02 1/12/02'","Physician Asst/Midwife",95.0,1
"'Total'","'1/6/02 1/12/02'","PM:Time spent with you*",75.0,1
"'Total'","'1/6/02 1/12/02'","PM:concern questions/worries*",100.0,1
"'Total'","'1/6/02 1/12/02'","PM:kept you informed*",100.0,1
"'Total'","'1/6/02 1/12/02'","Friendly/courtesy phys asst/midwife*",100.0,1
"'Total'","'1/6/02 1/12/02'","Skill of physician asst/midwife*",100.0,1
"'610901'","'1/13/02 1/19/02'","Std Physician Asst/Midwife",-,0
"'610901'","'1/13/02 1/19/02'","Physician Asst/Midwife",85.0,1
"'610901'","'1/13/02 1/19/02'","PM:Time spent with you*",100.0,1
"'610901'","'1/13/02 1/19/02'","PM:concern questions/worries*",75.0,1
"'610901'","'1/13/02 1/19/02'","PM:kept you informed*",75.0,1
"'610901'","'1/13/02 1/19/02'","Friendly/courtesy phys asst/midwife*",100.0,1
"'610901'","'1/13/02 1/19/02'","Skill of physician asst/midwife*",75.0,1
"'Total'","'1/13/02 1/19/02'","Std Physician Asst/Midwife",-,0
"'Total'","'1/13/02 1/19/02'","Physician Asst/Midwife",85.0,1
"'Total'","'1/13/02 1/19/02'","PM:Time spent with you*",100.0,1
"'Total'","'1/13/02 1/19/02'","PM:concern questions/worries*",75.0,1
"'Total'","'1/13/02 1/19/02'","PM:kept you informed*",75.0,1
"'Total'","'1/13/02 1/19/02'","Friendly/courtesy phys asst/midwife*",100.0,1
"'Total'","'1/13/02 1/19/02'","Skill of physician asst/midwife*",75.0,1
"'610601'","'2/3/02 2/9/02'","Std Physician Asst/Midwife",-,0
"'610601'","'2/3/02 2/9/02'","Physician Asst/Midwife",75.0,1
"'610601'","'2/3/02 2/9/02'","PM:Time spent with you*",75.0,1
"'610601'","'2/3/02 2/9/02'","PM:concern questions/worries*",75.0,1
"'610601'","'2/3/02 2/9/02'","PM:kept you informed*",75.0,1
"'610601'","'2/3/02 2/9/02'","Friendly/courtesy phys asst/midwife*",75.0,1
"'610601'","'2/3/02 2/9/02'","Skill of physician asst/midwife*",75.0,1
"'Total'","'2/3/02 2/9/02'","Std Physician Asst/Midwife",-,0
"'Total'","'2/3/02 2/9/02'","Physician Asst/Midwife",75.0,1
"'Total'","'2/3/02 2/9/02'","PM:Time spent with you*",75.0,1
"'Total'","'2/3/02 2/9/02'","PM:concern questions/worries*",75.0,1
"'Total'","'2/3/02 2/9/02'","PM:kept you informed*",75.0,1
"'Total'","'2/3/02 2/9/02'","Friendly/courtesy phys asst/midwife*",75.0,1
"'Total'","'2/3/02 2/9/02'","Skill of physician asst/midwife*",75.0,1
"'612301'","'2/10/02 2/16/02'","Std Physician Asst/Midwife",-,0
"'612301'","'2/10/02 2/16/02'","Physician Asst/Midwife",100.0,1
"'612301'","'2/10/02 2/16/02'","PM:Time spent with you*",100.0,1
"'612301'","'2/10/02 2/16/02'","PM:concern questions/worries*",100.0,1
"'612301'","'2/10/02 2/16/02'","PM:kept you informed*",100.0,1
"'612301'","'2/10/02 2/16/02'","Friendly/courtesy phys asst/midwife*",100.0,1
"'612301'","'2/10/02 2/16/02'","Skill of physician asst/midwife*",100.0,1
"'Total'","'2/10/02 2/16/02'","Std Physician Asst/Midwife",-,0
"'Total'","'2/10/02 2/16/02'","Physician Asst/Midwife",100.0,1
"'Total'","'2/10/02 2/16/02'","PM:Time spent with you*",100.0,1
"'Total'","'2/10/02 2/16/02'","PM:concern questions/worries*",100.0,1
"'Total'","'2/10/02 2/16/02'","PM:kept you informed*",100.0,1
"'Total'","'2/10/02 2/16/02'","Friendly/courtesy phys asst/midwife*",100.0,1
"'Total'","'2/10/02 2/16/02'","Skill of physician asst/midwife*",100.0,1
"'610701'","'2/17/02 2/23/02'","Std Physician Asst/Midwife",-,0
"'610701'","'2/17/02 2/23/02'","Physician Asst/Midwife",75.0,1
"'610701'","'2/17/02 2/23/02'","PM:Time spent with you*",75.0,1
"'610701'","'2/17/02 2/23/02'","PM:concern questions/worries*",75.0,1
"'610701'","'2/17/02 2/23/02'","PM:kept you informed*",75.0,1
"'610701'","'2/17/02 2/23/02'","Friendly/courtesy phys asst/midwife*",75.0,1
"'610701'","'2/17/02 2/23/02'","Skill of physician asst/midwife*",75.0,1
"'Total'","'2/17/02 2/23/02'","Std Physician Asst/Midwife",-,0
"'Total'","'2/17/02 2/23/02'","Physician Asst/Midwife",75.0,1
"'Total'","'2/17/02 2/23/02'","PM:Time spent with you*",75.0,1
"'Total'","'2/17/02 2/23/02'","PM:concern questions/worries*",75.0,1
"'Total'","'2/17/02 2/23/02'","PM:kept you informed*",75.0,1
"'Total'","'2/17/02 2/23/02'","Friendly/courtesy phys asst/midwife*",75.0,1
"'Total'","'2/17/02 2/23/02'","Skill of physician asst/midwife*",75.0,1
"'610801'","'2/24/02 3/2/02'","Std Physician Asst/Midwife",-,0
"'610801'","'2/24/02 3/2/02'","Physician Asst/Midwife",100.0,1
"'610801'","'2/24/02 3/2/02'","PM:Time spent with you*",100.0,1
"'610801'","'2/24/02 3/2/02'","Friendly/courtesy phys asst/midwife*",100.0,1
"'610801'","'2/24/02 3/2/02'","Skill of physician asst/midwife*",100.0,1
"'Total'","'2/24/02 3/2/02'","Std Physician Asst/Midwife",-,0
"'Total'","'2/24/02 3/2/02'","Physician Asst/Midwife",100.0,1
"'Total'","'2/24/02 3/2/02'","PM:Time spent with you*",100.0,1
"'Total'","'2/24/02 3/2/02'","Friendly/courtesy phys asst/midwife*",100.0,1
"'Total'","'2/24/02 3/2/02'","Skill of physician asst/midwife*",100.0,1
"'610701'","'3/3/02 3/9/02'","Std Physician Asst/Midwife",-,0
"'610701'","'3/3/02 3/9/02'","Physician Asst/Midwife",100.0,1
"'610701'","'3/3/02 3/9/02'","PM:Time spent with you*",100.0,1
"'610701'","'3/3/02 3/9/02'","PM:concern questions/worries*",100.0,1
"'610701'","'3/3/02 3/9/02'","PM:kept you informed*",100.0,1
"'610701'","'3/3/02 3/9/02'","Friendly/courtesy phys asst/midwife*",100.0,1
"'610701'","'3/3/02 3/9/02'","Skill of physician asst/midwife*",100.0,1
"'611601'","'3/3/02 3/9/02'","Std Physician Asst/Midwife",-,0
"'611601'","'3/3/02 3/9/02'","Physician Asst/Midwife",100.0,1
"'611601'","'3/3/02 3/9/02'","PM:Time spent with you*",100.0,1
"'611601'","'3/3/02 3/9/02'","PM:concern questions/worries*",100.0,1
"'611601'","'3/3/02 3/9/02'","PM:kept you informed*",100.0,1
"'611601'","'3/3/02 3/9/02'","Friendly/courtesy phys asst/midwife*",100.0,1
"'611601'","'3/3/02 3/9/02'","Skill of physician asst/midwife*",100.0,1
"'Total'","'3/3/02 3/9/02'","Std Physician Asst/Midwife",-,0
"'Total'","'3/3/02 3/9/02'","Physician Asst/Midwife",100.0,2
"'Total'","'3/3/02 3/9/02'","PM:Time spent with you*",100.0,2
"'Total'","'3/3/02 3/9/02'","PM:concern questions/worries*",100.0,2
"'Total'","'3/3/02 3/9/02'","PM:kept you informed*",100.0,2
"'Total'","'3/3/02 3/9/02'","Friendly/courtesy phys asst/midwife*",100.0,2
"'Total'","'3/3/02 3/9/02'","Skill of physician asst/midwife*",100.0,2
"'611301'","'3/10/02 3/16/02'","Std Physician Asst/Midwife",-,0
"'611301'","'3/10/02 3/16/02'","Physician Asst/Midwife",100.0,1
"'611301'","'3/10/02 3/16/02'","PM:Time spent with you*",100.0,1
"'611301'","'3/10/02 3/16/02'","PM:concern questions/worries*",100.0,1
"'611301'","'3/10/02 3/16/02'","PM:kept you informed*",100.0,1
"'611301'","'3/10/02 3/16/02'","Friendly/courtesy phys asst/midwife*",100.0,1
"'611301'","'3/10/02 3/16/02'","Skill of physician asst/midwife*",100.0,1
"'Total'","'3/10/02 3/16/02'","Std Physician Asst/Midwife",-,0
"'Total'","'3/10/02 3/16/02'","Physician Asst/Midwife",100.0,1
"'Total'","'3/10/02 3/16/02'","PM:Time spent with you*",100.0,1
"'Total'","'3/10/02 3/16/02'","PM:concern questions/worries*",100.0,1
"'Total'","'3/10/02 3/16/02'","PM:kept you informed*",100.0,1
"'Total'","'3/10/02 3/16/02'","Friendly/courtesy phys asst/midwife*",100.0,1
"'Total'","'3/10/02 3/16/02'","Skill of physician asst/midwife*",100.0,1
"'611901'","'3/17/02 3/23/02'","Std Physician Asst/Midwife",-,0
"'611901'","'3/17/02 3/23/02'","Physician Asst/Midwife",100.0,1
"'611901'","'3/17/02 3/23/02'","PM:Time spent with you*",100.0,1
"'611901'","'3/17/02 3/23/02'","PM:concern questions/worries*",100.0,1
"'611901'","'3/17/02 3/23/02'","PM:kept you informed*",100.0,1
"'611901'","'3/17/02 3/23/02'","Friendly/courtesy phys asst/midwife*",100.0,1
"'611901'","'3/17/02 3/23/02'","Skill of physician asst/midwife*",100.0,1
"'610501'","'3/17/02 3/23/02'","Std Physician Asst/Midwife",-,0
"'610501'","'3/17/02 3/23/02'","Physician Asst/Midwife",75.0,1
"'610501'","'3/17/02 3/23/02'","PM:Time spent with you*",75.0,1
"'610501'","'3/17/02 3/23/02'","PM:concern questions/worries*",75.0,1
"'610501'","'3/17/02 3/23/02'","PM:kept you informed*",75.0,1
"'610501'","'3/17/02 3/23/02'","Friendly/courtesy phys asst/midwife*",75.0,1
"'610501'","'3/17/02 3/23/02'","Skill of physician asst/midwife*",75.0,1
"'610801'","'3/17/02 3/23/02'","Std Physician Asst/Midwife",-,0
"'610801'","'3/17/02 3/23/02'","Physician Asst/Midwife",90.0,1
"'610801'","'3/17/02 3/23/02'","PM:Time spent with you*",75.0,1
"'610801'","'3/17/02 3/23/02'","PM:concern questions/worries*",75.0,1
"'610801'","'3/17/02 3/23/02'","PM:kept you informed*",100.0,1
"'610801'","'3/17/02 3/23/02'","Friendly/courtesy phys asst/midwife*",100.0,1
"'610801'","'3/17/02 3/23/02'","Skill of physician asst/midwife*",100.0,1
"'Total'","'3/17/02 3/23/02'","Std Physician Asst/Midwife",-,0
"'Total'","'3/17/02 3/23/02'","Physician Asst/Midwife",88.3,3
"'Total'","'3/17/02 3/23/02'","PM:Time spent with you*",83.3,3
"'Total'","'3/17/02 3/23/02'","PM:concern questions/worries*",83.3,3
"'Total'","'3/17/02 3/23/02'","PM:kept you informed*",91.7,3
"'Total'","'3/17/02 3/23/02'","Friendly/courtesy phys asst/midwife*",91.7,3
"'Total'","'3/17/02 3/23/02'","Skill of physician asst/midwife*",91.7,3
"'612101'","'3/24/02 3/30/02'","Std Physician Asst/Midwife",-,0
"'612101'","'3/24/02 3/30/02'","Physician Asst/Midwife",75.0,1
"'612101'","'3/24/02 3/30/02'","PM:Time spent with you*",75.0,1
"'612101'","'3/24/02 3/30/02'","PM:concern questions/worries*",75.0,1
"'612101'","'3/24/02 3/30/02'","PM:kept you informed*",75.0,1
"'612101'","'3/24/02 3/30/02'","Friendly/courtesy phys asst/midwife*",75.0,1
"'612101'","'3/24/02 3/30/02'","Skill of physician asst/midwife*",75.0,1
"'Total'","'3/24/02 3/30/02'","Std Physician Asst/Midwife",-,0
"'Total'","'3/24/02 3/30/02'","Physician Asst/Midwife",75.0,1
"'Total'","'3/24/02 3/30/02'","PM:Time spent with you*",75.0,1
"'Total'","'3/24/02 3/30/02'","PM:concern questions/worries*",75.0,1
"'Total'","'3/24/02 3/30/02'","PM:kept you informed*",75.0,1
"'Total'","'3/24/02 3/30/02'","Friendly/courtesy phys asst/midwife*",75.0,1
"'Total'","'3/24/02 3/30/02'","Skill of physician asst/midwife*",75.0,1
"'610401'","'4/14/02 4/20/02'","Std Physician Asst/Midwife",-,0
"'610401'","'4/14/02 4/20/02'","Physician Asst/Midwife",75.0,1
"'610401'","'4/14/02 4/20/02'","PM:Time spent with you*",75.0,1
"'610401'","'4/14/02 4/20/02'","PM:concern questions/worries*",75.0,1
"'610401'","'4/14/02 4/20/02'","PM:kept you informed*",75.0,1
"'610401'","'4/14/02 4/20/02'","Friendly/courtesy phys asst/midwife*",75.0,1
"'610401'","'4/14/02 4/20/02'","Skill of physician asst/midwife*",75.0,1
"'Total'","'4/14/02 4/20/02'","Std Physician Asst/Midwife",-,0
"'Total'","'4/14/02 4/20/02'","Physician Asst/Midwife",75.0,1
"'Total'","'4/14/02 4/20/02'","PM:Time spent with you*",75.0,1
"'Total'","'4/14/02 4/20/02'","PM:concern questions/worries*",75.0,1
"'Total'","'4/14/02 4/20/02'","PM:kept you informed*",75.0,1
"'Total'","'4/14/02 4/20/02'","Friendly/courtesy phys asst/midwife*",75.0,1
"'Total'","'4/14/02 4/20/02'","Skill of physician asst/midwife*",75.0,1
"'610501'","'4/21/02 4/27/02'","Std Physician Asst/Midwife",-,0
"'610501'","'4/21/02 4/27/02'","Physician Asst/Midwife",100.0,1
"'610501'","'4/21/02 4/27/02'","PM:Time spent with you*",100.0,1
"'610501'","'4/21/02 4/27/02'","PM:concern questions/worries*",100.0,1
"'610501'","'4/21/02 4/27/02'","PM:kept you informed*",100.0,1
"'610501'","'4/21/02 4/27/02'","Friendly/courtesy phys asst/midwife*",100.0,1
"'610501'","'4/21/02 4/27/02'","Skill of physician asst/midwife*",100.0,1
"'610801'","'4/21/02 4/27/02'","Std Physician Asst/Midwife",-,0
"'610801'","'4/21/02 4/27/02'","Physician Asst/Midwife",25.0,1
"'610801'","'4/21/02 4/27/02'","PM:Time spent with you*",25.0,1
"'610801'","'4/21/02 4/27/02'","PM:concern questions/worries*",25.0,1
"'610801'","'4/21/02 4/27/02'","PM:kept you informed*",25.0,1
"'610801'","'4/21/02 4/27/02'","Friendly/courtesy phys asst/midwife*",25.0,1
"'610801'","'4/21/02 4/27/02'","Skill of physician asst/midwife*",25.0,1
"'Total'","'4/21/02 4/27/02'","Std Physician Asst/Midwife",-,0
"'Total'","'4/21/02 4/27/02'","Physician Asst/Midwife",62.5,2
"'Total'","'4/21/02 4/27/02'","PM:Time spent with you*",62.5,2
"'Total'","'4/21/02 4/27/02'","PM:concern questions/worries*",62.5,2
"'Total'","'4/21/02 4/27/02'","PM:kept you informed*",62.5,2
"'Total'","'4/21/02 4/27/02'","Friendly/courtesy phys asst/midwife*",62.5,2
"'Total'","'4/21/02 4/27/02'","Skill of physician asst/midwife*",62.5,2
"'612101'","'4/28/02 5/4/02'","Std Physician Asst/Midwife",-,0
"'612101'","'4/28/02 5/4/02'","Physician Asst/Midwife",100.0,1
"'612101'","'4/28/02 5/4/02'","PM:Time spent with you*",100.0,1
"'612101'","'4/28/02 5/4/02'","PM:concern questions/worries*",100.0,1
"'612101'","'4/28/02 5/4/02'","PM:kept you informed*",100.0,1
"'612101'","'4/28/02 5/4/02'","Friendly/courtesy phys asst/midwife*",100.0,1
"'612101'","'4/28/02 5/4/02'","Skill of physician asst/midwife*",100.0,1
"'Total'","'4/28/02 5/4/02'","Std Physician Asst/Midwife",-,0
"'Total'","'4/28/02 5/4/02'","Physician Asst/Midwife",100.0,1
"'Total'","'4/28/02 5/4/02'","PM:Time spent with you*",100.0,1
"'Total'","'4/28/02 5/4/02'","PM:concern questions/worries*",100.0,1
"'Total'","'4/28/02 5/4/02'","PM:kept you informed*",100.0,1
"'Total'","'4/28/02 5/4/02'","Friendly/courtesy phys asst/midwife*",100.0,1
"'Total'","'4/28/02 5/4/02'","Skill of physician asst/midwife*",100.0,1
"'611101'","'5/5/02 5/11/02'","Std Physician Asst/Midwife",-,0
"'611101'","'5/5/02 5/11/02'","Physician Asst/Midwife",100.0,1
"'611101'","'5/5/02 5/11/02'","PM:Time spent with you*",100.0,1
"'611101'","'5/5/02 5/11/02'","PM:concern questions/worries*",100.0,1
"'611101'","'5/5/02 5/11/02'","PM:kept you informed*",100.0,1
"'611101'","'5/5/02 5/11/02'","Friendly/courtesy phys asst/midwife*",100.0,1
"'611101'","'5/5/02 5/11/02'","Skill of physician asst/midwife*",100.0,1
"'611001'","'5/5/02 5/11/02'","Std Physician Asst/Midwife",-,0
"'611001'","'5/5/02 5/11/02'","Physician Asst/Midwife",91.7,1
"'611001'","'5/5/02 5/11/02'","PM:Time spent with you*",75.0,1
"'611001'","'5/5/02 5/11/02'","Friendly/courtesy phys asst/midwife*",100.0,1
"'611001'","'5/5/02 5/11/02'","Skill of physician asst/midwife*",100.0,1
"'610801'","'5/5/02 5/11/02'","Std Physician Asst/Midwife",-,0
"'610801'","'5/5/02 5/11/02'","Physician Asst/Midwife",75.0,1
"'610801'","'5/5/02 5/11/02'","PM:Time spent with you*",25.0,1
"'610801'","'5/5/02 5/11/02'","PM:concern questions/worries*",75.0,1
"'610801'","'5/5/02 5/11/02'","PM:kept you informed*",75.0,1
"'610801'","'5/5/02 5/11/02'","Friendly/courtesy phys asst/midwife*",100.0,1
"'610801'","'5/5/02 5/11/02'","Skill of physician asst/midwife*",100.0,1
"'Total'","'5/5/02 5/11/02'","Std Physician Asst/Midwife",-,0
"'Total'","'5/5/02 5/11/02'","Physician Asst/Midwife",88.9,3
"'Total'","'5/5/02 5/11/02'","PM:Time spent with you*",66.7,3
"'Total'","'5/5/02 5/11/02'","PM:concern questions/worries*",87.5,2
"'Total'","'5/5/02 5/11/02'","PM:kept you informed*",87.5,2
"'Total'","'5/5/02 5/11/02'","Friendly/courtesy phys asst/midwife*",100.0,3
"'Total'","'5/5/02 5/11/02'","Skill of physician asst/midwife*",100.0,3
"'612301'","'5/12/02 5/18/02'","Std Physician Asst/Midwife",-,0
"'612301'","'5/12/02 5/18/02'","Physician Asst/Midwife",100.0,1
"'612301'","'5/12/02 5/18/02'","PM:Time spent with you*",100.0,1
"'612301'","'5/12/02 5/18/02'","PM:concern questions/worries*",100.0,1
"'612301'","'5/12/02 5/18/02'","PM:kept you informed*",100.0,1
"'612301'","'5/12/02 5/18/02'","Friendly/courtesy phys asst/midwife*",100.0,1
"'612301'","'5/12/02 5/18/02'","Skill of physician asst/midwife*",100.0,1
"'Total'","'5/12/02 5/18/02'","Std Physician Asst/Midwife",-,0
"'Total'","'5/12/02 5/18/02'","Physician Asst/Midwife",100.0,1
"'Total'","'5/12/02 5/18/02'","PM:Time spent with you*",100.0,1
"'Total'","'5/12/02 5/18/02'","PM:concern questions/worries*",100.0,1
"'Total'","'5/12/02 5/18/02'","PM:kept you informed*",100.0,1
"'Total'","'5/12/02 5/18/02'","Friendly/courtesy phys asst/midwife*",100.0,1
"'Total'","'5/12/02 5/18/02'","Skill of physician asst/midwife*",100.0,1
"'612001'","'5/19/02 5/25/02'","Std Physician Asst/Midwife",-,0
"'612001'","'5/19/02 5/25/02'","Physician Asst/Midwife",100.0,1
"'612001'","'5/19/02 5/25/02'","PM:concern questions/worries*",100.0,1
"'612001'","'5/19/02 5/25/02'","Friendly/courtesy phys asst/midwife*",100.0,1
"'612001'","'5/19/02 5/25/02'","Skill of physician asst/midwife*",100.0,1
"'Total'","'5/19/02 5/25/02'","Std Physician Asst/Midwife",-,0
"'Total'","'5/19/02 5/25/02'","Physician Asst/Midwife",100.0,1
"'Total'","'5/19/02 5/25/02'","PM:concern questions/worries*",100.0,1
"'Total'","'5/19/02 5/25/02'","Friendly/courtesy phys asst/midwife*",100.0,1
"'Total'","'5/19/02 5/25/02'","Skill of physician asst/midwife*",100.0,1
"'611301'","'5/26/02 6/1/02'","Std Physician Asst/Midwife",-,0
"'611301'","'5/26/02 6/1/02'","Physician Asst/Midwife",100.0,1
"'611301'","'5/26/02 6/1/02'","PM:Time spent with you*",100.0,1
"'611301'","'5/26/02 6/1/02'","PM:concern questions/worries*",100.0,1
"'611301'","'5/26/02 6/1/02'","PM:kept you informed*",100.0,1
"'611301'","'5/26/02 6/1/02'","Friendly/courtesy phys asst/midwife*",100.0,1
"'611301'","'5/26/02 6/1/02'","Skill of physician asst/midwife*",100.0,1
"'Total'","'5/26/02 6/1/02'","Std Physician Asst/Midwife",-,0
"'Total'","'5/26/02 6/1/02'","Physician Asst/Midwife",100.0,1
"'Total'","'5/26/02 6/1/02'","PM:Time spent with you*",100.0,1
"'Total'","'5/26/02 6/1/02'","PM:concern questions/worries*",100.0,1
"'Total'","'5/26/02 6/1/02'","PM:kept you informed*",100.0,1
"'Total'","'5/26/02 6/1/02'","Friendly/courtesy phys asst/midwife*",100.0,1
"'Total'","'5/26/02 6/1/02'","Skill of physician asst/midwife*",100.0,1
"'610801'","'6/2/02 6/8/02'","Std Physician Asst/Midwife",-,0
"'610801'","'6/2/02 6/8/02'","Physician Asst/Midwife",62.5,2
"'610801'","'6/2/02 6/8/02'","PM:Time spent with you*",62.5,2
"'610801'","'6/2/02 6/8/02'","PM:concern questions/worries*",100.0,1
"'610801'","'6/2/02 6/8/02'","PM:kept you informed*",100.0,1
"'610801'","'6/2/02 6/8/02'","Friendly/courtesy phys asst/midwife*",100.0,1
"'610801'","'6/2/02 6/8/02'","Skill of physician asst/midwife*",100.0,1
"'Total'","'6/2/02 6/8/02'","Std Physician Asst/Midwife",-,0
"'Total'","'6/2/02 6/8/02'","Physician Asst/Midwife",62.5,2
"'Total'","'6/2/02 6/8/02'","PM:Time spent with you*",62.5,2
"'Total'","'6/2/02 6/8/02'","PM:concern questions/worries*",100.0,1
"'Total'","'6/2/02 6/8/02'","PM:kept you informed*",100.0,1
"'Total'","'6/2/02 6/8/02'","Friendly/courtesy phys asst/midwife*",100.0,1
"'Total'","'6/2/02 6/8/02'","Skill of physician asst/midwife*",100.0,1
"'610701'","'6/9/02 6/15/02'","Std Physician Asst/Midwife",-,0
"'610701'","'6/9/02 6/15/02'","Physician Asst/Midwife",70.0,1
"'610701'","'6/9/02 6/15/02'","PM:Time spent with you*",50.0,1
"'610701'","'6/9/02 6/15/02'","PM:concern questions/worries*",75.0,1
"'610701'","'6/9/02 6/15/02'","PM:kept you informed*",75.0,1
"'610701'","'6/9/02 6/15/02'","Friendly/courtesy phys asst/midwife*",75.0,1
"'610701'","'6/9/02 6/15/02'","Skill of physician asst/midwife*",75.0,1
"'611601'","'6/9/02 6/15/02'","Std Physician Asst/Midwife",-,0
"'611601'","'6/9/02 6/15/02'","Physician Asst/Midwife",75.0,1
"'611601'","'6/9/02 6/15/02'","PM:Time spent with you*",75.0,1
"'611601'","'6/9/02 6/15/02'","PM:concern questions/worries*",75.0,1
"'611601'","'6/9/02 6/15/02'","PM:kept you informed*",75.0,1
"'611601'","'6/9/02 6/15/02'","Friendly/courtesy phys asst/midwife*",75.0,1
"'611601'","'6/9/02 6/15/02'","Skill of physician asst/midwife*",75.0,1
"'Total'","'6/9/02 6/15/02'","Std Physician Asst/Midwife",-,0
"'Total'","'6/9/02 6/15/02'","Physician Asst/Midwife",72.5,2
"'Total'","'6/9/02 6/15/02'","PM:Time spent with you*",62.5,2
"'Total'","'6/9/02 6/15/02'","PM:concern questions/worries*",75.0,2
"'Total'","'6/9/02 6/15/02'","PM:kept you informed*",75.0,2
"'Total'","'6/9/02 6/15/02'","Friendly/courtesy phys asst/midwife*",75.0,2
"'Total'","'6/9/02 6/15/02'","Skill of physician asst/midwife*",75.0,2
"'610801'","'6/16/02 6/22/02'","Std Physician Asst/Midwife",-,0
"'610801'","'6/16/02 6/22/02'","Physician Asst/Midwife",90.0,1
"'610801'","'6/16/02 6/22/02'","PM:Time spent with you*",75.0,1
"'610801'","'6/16/02 6/22/02'","PM:concern questions/worries*",75.0,1
"'610801'","'6/16/02 6/22/02'","PM:kept you informed*",100.0,1
"'610801'","'6/16/02 6/22/02'","Friendly/courtesy phys asst/midwife*",100.0,1
"'610801'","'6/16/02 6/22/02'","Skill of physician asst/midwife*",100.0,1
"'Total'","'6/16/02 6/22/02'","Std Physician Asst/Midwife",-,0
"'Total'","'6/16/02 6/22/02'","Physician Asst/Midwife",90.0,1
"'Total'","'6/16/02 6/22/02'","PM:Time spent with you*",75.0,1
"'Total'","'6/16/02 6/22/02'","PM:concern questions/worries*",75.0,1
"'Total'","'6/16/02 6/22/02'","PM:kept you informed*",100.0,1
"'Total'","'6/16/02 6/22/02'","Friendly/courtesy phys asst/midwife*",100.0,1
"'Total'","'6/16/02 6/22/02'","Skill of physician asst/midwife*",100.0,1
"'612001'","'6/23/02 6/29/02'","Std Physician Asst/Midwife",-,0
"'612001'","'6/23/02 6/29/02'","Physician Asst/Midwife",100.0,1
"'612001'","'6/23/02 6/29/02'","PM:Time spent with you*",100.0,1
"'612001'","'6/23/02 6/29/02'","PM:concern questions/worries*",100.0,1
"'612001'","'6/23/02 6/29/02'","PM:kept you informed*",100.0,1
"'612001'","'6/23/02 6/29/02'","Friendly/courtesy phys asst/midwife*",100.0,1
"'612001'","'6/23/02 6/29/02'","Skill of physician asst/midwife*",100.0,1
"'Total'","'6/23/02 6/29/02'","Std Physician Asst/Midwife",-,0
"'Total'","'6/23/02 6/29/02'","Physician Asst/Midwife",100.0,1
"'Total'","'6/23/02 6/29/02'","PM:Time spent with you*",100.0,1
"'Total'","'6/23/02 6/29/02'","PM:concern questions/worries*",100.0,1
"'Total'","'6/23/02 6/29/02'","PM:kept you informed*",100.0,1
"'Total'","'6/23/02 6/29/02'","Friendly/courtesy phys asst/midwife*",100.0,1
"'Total'","'6/23/02 6/29/02'","Skill of physician asst/midwife*",100.0,1
"'610701'","'7/7/02 7/13/02'","Std Physician Asst/Midwife",-,0
"'610701'","'7/7/02 7/13/02'","Physician Asst/Midwife",100.0,1
"'610701'","'7/7/02 7/13/02'","PM:Time spent with you*",100.0,1
"'610701'","'7/7/02 7/13/02'","PM:concern questions/worries*",100.0,1
"'610701'","'7/7/02 7/13/02'","PM:kept you informed*",100.0,1
"'610701'","'7/7/02 7/13/02'","Friendly/courtesy phys asst/midwife*",100.0,1
"'610701'","'7/7/02 7/13/02'","Skill of physician asst/midwife*",100.0,1
"'Total'","'7/7/02 7/13/02'","Std Physician Asst/Midwife",-,0
"'Total'","'7/7/02 7/13/02'","Physician Asst/Midwife",100.0,1
"'Total'","'7/7/02 7/13/02'","PM:Time spent with you*",100.0,1
"'Total'","'7/7/02 7/13/02'","PM:concern questions/worries*",100.0,1
"'Total'","'7/7/02 7/13/02'","PM:kept you informed*",100.0,1
"'Total'","'7/7/02 7/13/02'","Friendly/courtesy phys asst/midwife*",100.0,1
"'Total'","'7/7/02 7/13/02'","Skill of physician asst/midwife*",100.0,1
"'612001'","'7/28/02 8/3/02'","Std Physician Asst/Midwife",-,0
"'612001'","'7/28/02 8/3/02'","Physician Asst/Midwife",100.0,1
"'612001'","'7/28/02 8/3/02'","PM:Time spent with you*",100.0,1
"'612001'","'7/28/02 8/3/02'","PM:concern questions/worries*",100.0,1
"'612001'","'7/28/02 8/3/02'","PM:kept you informed*",100.0,1
"'612001'","'7/28/02 8/3/02'","Friendly/courtesy phys asst/midwife*",100.0,1
"'612001'","'7/28/02 8/3/02'","Skill of physician asst/midwife*",100.0,1
"'Total'","'7/28/02 8/3/02'","Std Physician Asst/Midwife",-,0
"'Total'","'7/28/02 8/3/02'","Physician Asst/Midwife",100.0,1
"'Total'","'7/28/02 8/3/02'","PM:Time spent with you*",100.0,1
"'Total'","'7/28/02 8/3/02'","PM:concern questions/worries*",100.0,1
"'Total'","'7/28/02 8/3/02'","PM:kept you informed*",100.0,1
"'Total'","'7/28/02 8/3/02'","Friendly/courtesy phys asst/midwife*",100.0,1
"'Total'","'7/28/02 8/3/02'","Skill of physician asst/midwife*",100.0,1
"'401601'","'9/15/02 9/21/02'","Std Physician Asst/Midwife",-,0
"'401601'","'9/15/02 9/21/02'","Physician Asst/Midwife",100.0,1
"'401601'","'9/15/02 9/21/02'","PM:Time spent with you*",100.0,1
"'401601'","'9/15/02 9/21/02'","PM:concern questions/worries*",100.0,1
"'401601'","'9/15/02 9/21/02'","PM:kept you informed*",100.0,1
"'401601'","'9/15/02 9/21/02'","Friendly/courtesy phys asst/midwife*",100.0,1
"'401601'","'9/15/02 9/21/02'","Skill of physician asst/midwife*",100.0,1
"'402501'","'9/15/02 9/21/02'","Std Physician Asst/Midwife",-,0
"'402501'","'9/15/02 9/21/02'","Physician Asst/Midwife",75.0,1
"'402501'","'9/15/02 9/21/02'","PM:Time spent with you*",75.0,1
"'402501'","'9/15/02 9/21/02'","PM:concern questions/worries*",75.0,1
"'402501'","'9/15/02 9/21/02'","PM:kept you informed*",75.0,1
"'402501'","'9/15/02 9/21/02'","Friendly/courtesy phys asst/midwife*",75.0,1
"'402501'","'9/15/02 9/21/02'","Skill of physician asst/midwife*",75.0,1
"'Total'","'9/15/02 9/21/02'","Std Physician Asst/Midwife",-,0
"'Total'","'9/15/02 9/21/02'","Physician Asst/Midwife",87.5,2
"'Total'","'9/15/02 9/21/02'","PM:Time spent with you*",87.5,2
"'Total'","'9/15/02 9/21/02'","PM:concern questions/worries*",87.5,2
"'Total'","'9/15/02 9/21/02'","PM:kept you informed*",87.5,2
"'Total'","'9/15/02 9/21/02'","Friendly/courtesy phys asst/midwife*",87.5,2
"'Total'","'9/15/02 9/21/02'","Skill of physician asst/midwife*",87.5,2
"'401201'","'9/29/02 10/5/02'","Std Physician Asst/Midwife",-,0
"'401201'","'9/29/02 10/5/02'","Physician Asst/Midwife",100.0,1
"'401201'","'9/29/02 10/5/02'","PM:Time spent with you*",100.0,1
"'401201'","'9/29/02 10/5/02'","PM:concern questions/worries*",100.0,1
"'401201'","'9/29/02 10/5/02'","PM:kept you informed*",100.0,1
"'401201'","'9/29/02 10/5/02'","Friendly/courtesy phys asst/midwife*",100.0,1
"'401201'","'9/29/02 10/5/02'","Skill of physician asst/midwife*",100.0,1
"'401501'","'9/29/02 10/5/02'","Std Physician Asst/Midwife",-,0
"'401501'","'9/29/02 10/5/02'","Physician Asst/Midwife",80.0,1
"'401501'","'9/29/02 10/5/02'","PM:Time spent with you*",75.0,1
"'401501'","'9/29/02 10/5/02'","PM:concern questions/worries*",75.0,1
"'401501'","'9/29/02 10/5/02'","PM:kept you informed*",50.0,1
"'401501'","'9/29/02 10/5/02'","Friendly/courtesy phys asst/midwife*",100.0,1
"'401501'","'9/29/02 10/5/02'","Skill of physician asst/midwife*",100.0,1
"'Total'","'9/29/02 10/5/02'","Std Physician Asst/Midwife",-,0
"'Total'","'9/29/02 10/5/02'","Physician Asst/Midwife",90.0,2
"'Total'","'9/29/02 10/5/02'","PM:Time spent with you*",87.5,2
"'Total'","'9/29/02 10/5/02'","PM:concern questions/worries*",87.5,2
"'Total'","'9/29/02 10/5/02'","PM:kept you informed*",75.0,2
"'Total'","'9/29/02 10/5/02'","Friendly/courtesy phys asst/midwife*",100.0,2
"'Total'","'9/29/02 10/5/02'","Skill of physician asst/midwife*",100.0,2
"'400301'","'10/6/02 10/12/02'","Std Physician Asst/Midwife",-,0
"'400301'","'10/6/02 10/12/02'","Physician Asst/Midwife",75.0,1
"'400301'","'10/6/02 10/12/02'","PM:Time spent with you*",75.0,1
"'400301'","'10/6/02 10/12/02'","PM:concern questions/worries*",75.0,1
"'400301'","'10/6/02 10/12/02'","PM:kept you informed*",75.0,1
"'400301'","'10/6/02 10/12/02'","Friendly/courtesy phys asst/midwife*",75.0,1
"'400301'","'10/6/02 10/12/02'","Skill of physician asst/midwife*",75.0,1
"'Total'","'10/6/02 10/12/02'","Std Physician Asst/Midwife",-,0
"'Total'","'10/6/02 10/12/02'","Physician Asst/Midwife",75.0,1
"'Total'","'10/6/02 10/12/02'","PM:Time spent with you*",75.0,1
"'Total'","'10/6/02 10/12/02'","PM:concern questions/worries*",75.0,1
"'Total'","'10/6/02 10/12/02'","PM:kept you informed*",75.0,1
"'Total'","'10/6/02 10/12/02'","Friendly/courtesy phys asst/midwife*",75.0,1
"'Total'","'10/6/02 10/12/02'","Skill of physician asst/midwife*",75.0,1
"'402001'","'10/13/02 10/19/02'","Std Physician Asst/Midwife",-,0
"'402001'","'10/13/02 10/19/02'","Physician Asst/Midwife",75.0,1
"'402001'","'10/13/02 10/19/02'","PM:Time spent with you*",75.0,1
"'402001'","'10/13/02 10/19/02'","PM:concern questions/worries*",75.0,1
"'402301'","'10/13/02 10/19/02'","Std Physician Asst/Midwife",-,0
"'402301'","'10/13/02 10/19/02'","Physician Asst/Midwife",25.0,1
"'402301'","'10/13/02 10/19/02'","PM:Time spent with you*",25.0,1
"'402301'","'10/13/02 10/19/02'","PM:concern questions/worries*",25.0,1
"'402301'","'10/13/02 10/19/02'","PM:kept you informed*",25.0,1
"'402301'","'10/13/02 10/19/02'","Friendly/courtesy phys asst/midwife*",25.0,1
"'402301'","'10/13/02 10/19/02'","Skill of physician asst/midwife*",25.0,1
"'Total'","'10/13/02 10/19/02'","Std Physician Asst/Midwife",-,0
"'Total'","'10/13/02 10/19/02'","Physician Asst/Midwife",50.0,2
"'Total'","'10/13/02 10/19/02'","PM:Time spent with you*",50.0,2
"'Total'","'10/13/02 10/19/02'","PM:concern questions/worries*",50.0,2
"'Total'","'10/13/02 10/19/02'","PM:kept you informed*",25.0,1
"'Total'","'10/13/02 10/19/02'","Friendly/courtesy phys asst/midwife*",25.0,1
"'Total'","'10/13/02 10/19/02'","Skill of physician asst/midwife*",25.0,1
"'400501'","'10/20/02 10/26/02'","Std Physician Asst/Midwife",-,0
"'400501'","'10/20/02 10/26/02'","Physician Asst/Midwife",95.0,1
"'400501'","'10/20/02 10/26/02'","PM:Time spent with you*",75.0,1
"'400501'","'10/20/02 10/26/02'","PM:concern questions/worries*",100.0,1
"'400501'","'10/20/02 10/26/02'","PM:kept you informed*",100.0,1
"'400501'","'10/20/02 10/26/02'","Friendly/courtesy phys asst/midwife*",100.0,1
"'400501'","'10/20/02 10/26/02'","Skill of physician asst/midwife*",100.0,1
"'Total'","'10/20/02 10/26/02'","Std Physician Asst/Midwife",-,0
"'Total'","'10/20/02 10/26/02'","Physician Asst/Midwife",95.0,1
"'Total'","'10/20/02 10/26/02'","PM:Time spent with you*",75.0,1
"'Total'","'10/20/02 10/26/02'","PM:concern questions/worries*",100.0,1
"'Total'","'10/20/02 10/26/02'","PM:kept you informed*",100.0,1
"'Total'","'10/20/02 10/26/02'","Friendly/courtesy phys asst/midwife*",100.0,1
"'Total'","'10/20/02 10/26/02'","Skill of physician asst/midwife*",100.0,1
"'400801'","'10/27/02 11/2/02'","Std Physician Asst/Midwife",-,0
"'400801'","'10/27/02 11/2/02'","Physician Asst/Midwife",75.0,1
"'400801'","'10/27/02 11/2/02'","PM:Time spent with you*",75.0,1
"'400801'","'10/27/02 11/2/02'","PM:concern questions/worries*",75.0,1
"'400801'","'10/27/02 11/2/02'","PM:kept you informed*",75.0,1
"'400801'","'10/27/02 11/2/02'","Friendly/courtesy phys asst/midwife*",75.0,1
"'400801'","'10/27/02 11/2/02'","Skill of physician asst/midwife*",75.0,1
"'Total'","'10/27/02 11/2/02'","Std Physician Asst/Midwife",-,0
"'Total'","'10/27/02 11/2/02'","Physician Asst/Midwife",75.0,1
"'Total'","'10/27/02 11/2/02'","PM:Time spent with you*",75.0,1
"'Total'","'10/27/02 11/2/02'","PM:concern questions/worries*",75.0,1
"'Total'","'10/27/02 11/2/02'","PM:kept you informed*",75.0,1
"'Total'","'10/27/02 11/2/02'","Friendly/courtesy phys asst/midwife*",75.0,1
"'Total'","'10/27/02 11/2/02'","Skill of physician asst/midwife*",75.0,1
"'400101'","'11/3/02 11/9/02'","Std Physician Asst/Midwife",-,0
"'400101'","'11/3/02 11/9/02'","Physician Asst/Midwife",100.0,1
"'400101'","'11/3/02 11/9/02'","PM:Time spent with you*",100.0,1
"'400101'","'11/3/02 11/9/02'","PM:concern questions/worries*",100.0,1
"'400101'","'11/3/02 11/9/02'","PM:kept you informed*",100.0,1
"'400101'","'11/3/02 11/9/02'","Friendly/courtesy phys asst/midwife*",100.0,1
"'400101'","'11/3/02 11/9/02'","Skill of physician asst/midwife*",100.0,1
"'400601'","'11/3/02 11/9/02'","Std Physician Asst/Midwife",-,0
"'400601'","'11/3/02 11/9/02'","Physician Asst/Midwife",85.0,1
"'400601'","'11/3/02 11/9/02'","PM:Time spent with you*",100.0,1
"'400601'","'11/3/02 11/9/02'","PM:concern questions/worries*",75.0,1
"'400601'","'11/3/02 11/9/02'","PM:kept you informed*",75.0,1
"'400601'","'11/3/02 11/9/02'","Friendly/courtesy phys asst/midwife*",75.0,1
"'400601'","'11/3/02 11/9/02'","Skill of physician asst/midwife*",100.0,1
"'Total'","'11/3/02 11/9/02'","Std Physician Asst/Midwife",-,0
"'Total'","'11/3/02 11/9/02'","Physician Asst/Midwife",92.5,2
"'Total'","'11/3/02 11/9/02'","PM:Time spent with you*",100.0,2
"'Total'","'11/3/02 11/9/02'","PM:concern questions/worries*",87.5,2
"'Total'","'11/3/02 11/9/02'","PM:kept you informed*",87.5,2
"'Total'","'11/3/02 11/9/02'","Friendly/courtesy phys asst/midwife*",87.5,2
"'Total'","'11/3/02 11/9/02'","Skill of physician asst/midwife*",100.0,2
"'401601'","'11/10/02 11/16/02'","Std Physician Asst/Midwife",-,0
"'401601'","'11/10/02 11/16/02'","Physician Asst/Midwife",100.0,1
"'401601'","'11/10/02 11/16/02'","PM:Time spent with you*",100.0,1
"'401601'","'11/10/02 11/16/02'","PM:concern questions/worries*",100.0,1
"'401601'","'11/10/02 11/16/02'","PM:kept you informed*",100.0,1
"'401601'","'11/10/02 11/16/02'","Friendly/courtesy phys asst/midwife*",100.0,1
"'401601'","'11/10/02 11/16/02'","Skill of physician asst/midwife*",100.0,1
"'Total'","'11/10/02 11/16/02'","Std Physician Asst/Midwife",-,0
"'Total'","'11/10/02 11/16/02'","Physician Asst/Midwife",100.0,1
"'Total'","'11/10/02 11/16/02'","PM:Time spent with you*",100.0,1
"'Total'","'11/10/02 11/16/02'","PM:concern questions/worries*",100.0,1
"'Total'","'11/10/02 11/16/02'","PM:kept you informed*",100.0,1
"'Total'","'11/10/02 11/16/02'","Friendly/courtesy phys asst/midwife*",100.0,1
"'Total'","'11/10/02 11/16/02'","Skill of physician asst/midwife*",100.0,1
"'400401'","'11/17/02 11/23/02'","Std Physician Asst/Midwife",-,0
"'400401'","'11/17/02 11/23/02'","Physician Asst/Midwife",55.0,1
"'400401'","'11/17/02 11/23/02'","PM:Time spent with you*",50.0,1
"'400401'","'11/17/02 11/23/02'","PM:concern questions/worries*",50.0,1
"'400401'","'11/17/02 11/23/02'","PM:kept you informed*",50.0,1
"'400401'","'11/17/02 11/23/02'","Friendly/courtesy phys asst/midwife*",50.0,1
"'400401'","'11/17/02 11/23/02'","Skill of physician asst/midwife*",75.0,1
"'Total'","'11/17/02 11/23/02'","Std Physician Asst/Midwife",-,0
"'Total'","'11/17/02 11/23/02'","Physician Asst/Midwife",55.0,1
"'Total'","'11/17/02 11/23/02'","PM:Time spent with you*",50.0,1
"'Total'","'11/17/02 11/23/02'","PM:concern questions/worries*",50.0,1
"'Total'","'11/17/02 11/23/02'","PM:kept you informed*",50.0,1
"'Total'","'11/17/02 11/23/02'","Friendly/courtesy phys asst/midwife*",50.0,1
"'Total'","'11/17/02 11/23/02'","Skill of physician asst/midwife*",75.0,1
"'400301'","'11/24/02 11/30/02'","Std Physician Asst/Midwife",-,0
"'400301'","'11/24/02 11/30/02'","Physician Asst/Midwife",100.0,1
"'400301'","'11/24/02 11/30/02'","PM:Time spent with you*",100.0,1
"'400301'","'11/24/02 11/30/02'","PM:concern questions/worries*",100.0,1
"'400301'","'11/24/02 11/30/02'","PM:kept you informed*",100.0,1
"'400301'","'11/24/02 11/30/02'","Friendly/courtesy phys asst/midwife*",100.0,1
"'400301'","'11/24/02 11/30/02'","Skill of physician asst/midwife*",100.0,1
"'400901'","'11/24/02 11/30/02'","Std Physician Asst/Midwife",-,0
"'400901'","'11/24/02 11/30/02'","Physician Asst/Midwife",100.0,1
"'400901'","'11/24/02 11/30/02'","PM:Time spent with you*",100.0,1
"'400901'","'11/24/02 11/30/02'","PM:concern questions/worries*",100.0,1
"'400901'","'11/24/02 11/30/02'","PM:kept you informed*",100.0,1
"'400901'","'11/24/02 11/30/02'","Friendly/courtesy phys asst/midwife*",100.0,1
"'400901'","'11/24/02 11/30/02'","Skill of physician asst/midwife*",100.0,1
"'401301'","'11/24/02 11/30/02'","Std Physician Asst/Midwife",-,0
"'401301'","'11/24/02 11/30/02'","Physician Asst/Midwife",75.0,1
"'401301'","'11/24/02 11/30/02'","PM:Time spent with you*",75.0,1
"'401301'","'11/24/02 11/30/02'","PM:concern questions/worries*",75.0,1
"'401301'","'11/24/02 11/30/02'","PM:kept you informed*",75.0,1
"'401301'","'11/24/02 11/30/02'","Friendly/courtesy phys asst/midwife*",75.0,1
"'401301'","'11/24/02 11/30/02'","Skill of physician asst/midwife*",75.0,1
"'Total'","'11/24/02 11/30/02'","Std Physician Asst/Midwife",-,0
"'Total'","'11/24/02 11/30/02'","Physician Asst/Midwife",91.7,3
"'Total'","'11/24/02 11/30/02'","PM:Time spent with you*",91.7,3
"'Total'","'11/24/02 11/30/02'","PM:concern questions/worries*",91.7,3
"'Total'","'11/24/02 11/30/02'","PM:kept you informed*",91.7,3
"'Total'","'11/24/02 11/30/02'","Friendly/courtesy phys asst/midwife*",91.7,3
"'Total'","'11/24/02 11/30/02'","Skill of physician asst/midwife*",91.7,3
"'401001'","'12/1/02 12/7/02'","Std Physician Asst/Midwife",-,0
"'401001'","'12/1/02 12/7/02'","Physician Asst/Midwife",50.0,1
"'401001'","'12/1/02 12/7/02'","PM:Time spent with you*",50.0,1
"'401001'","'12/1/02 12/7/02'","PM:concern questions/worries*",50.0,1
"'401001'","'12/1/02 12/7/02'","PM:kept you informed*",50.0,1
"'401001'","'12/1/02 12/7/02'","Friendly/courtesy phys asst/midwife*",50.0,1
"'401001'","'12/1/02 12/7/02'","Skill of physician asst/midwife*",50.0,1
"'Total'","'12/1/02 12/7/02'","Std Physician Asst/Midwife",-,0
"'Total'","'12/1/02 12/7/02'","Physician Asst/Midwife",50.0,1
"'Total'","'12/1/02 12/7/02'","PM:Time spent with you*",50.0,1
"'Total'","'12/1/02 12/7/02'","PM:concern questions/worries*",50.0,1
"'Total'","'12/1/02 12/7/02'","PM:kept you informed*",50.0,1
"'Total'","'12/1/02 12/7/02'","Friendly/courtesy phys asst/midwife*",50.0,1
"'Total'","'12/1/02 12/7/02'","Skill of physician asst/midwife*",50.0,1
"'401001'","'12/8/02 12/14/02'","Std Physician Asst/Midwife",-,0
"'401001'","'12/8/02 12/14/02'","Physician Asst/Midwife",25.0,1
"'401001'","'12/8/02 12/14/02'","PM:concern questions/worries*",25.0,1
"'401001'","'12/8/02 12/14/02'","PM:kept you informed*",25.0,1
"'401001'","'12/8/02 12/14/02'","Skill of physician asst/midwife*",25.0,1
"'Total'","'12/8/02 12/14/02'","Std Physician Asst/Midwife",-,0
"'Total'","'12/8/02 12/14/02'","Physician Asst/Midwife",25.0,1
"'Total'","'12/8/02 12/14/02'","PM:concern questions/worries*",25.0,1
"'Total'","'12/8/02 12/14/02'","PM:kept you informed*",25.0,1
"'Total'","'12/8/02 12/14/02'","Skill of physician asst/midwife*",25.0,1
"'400201'","'12/15/02 12/21/02'","Std Physician Asst/Midwife",-,0
"'400201'","'12/15/02 12/21/02'","Physician Asst/Midwife",100.0,1
"'400201'","'12/15/02 12/21/02'","PM:Time spent with you*",100.0,1
"'400201'","'12/15/02 12/21/02'","PM:concern questions/worries*",100.0,1
"'400201'","'12/15/02 12/21/02'","PM:kept you informed*",100.0,1
"'400201'","'12/15/02 12/21/02'","Friendly/courtesy phys asst/midwife*",100.0,1
"'400201'","'12/15/02 12/21/02'","Skill of physician asst/midwife*",100.0,1
"'400401'","'12/15/02 12/21/02'","Std Physician Asst/Midwife",-,0
"'400401'","'12/15/02 12/21/02'","Physician Asst/Midwife",80.0,1
"'400401'","'12/15/02 12/21/02'","PM:Time spent with you*",75.0,1
"'400401'","'12/15/02 12/21/02'","PM:concern questions/worries*",75.0,1
"'400401'","'12/15/02 12/21/02'","PM:kept you informed*",75.0,1
"'400401'","'12/15/02 12/21/02'","Friendly/courtesy phys asst/midwife*",100.0,1
"'400401'","'12/15/02 12/21/02'","Skill of physician asst/midwife*",75.0,1
"'400801'","'12/15/02 12/21/02'","Std Physician Asst/Midwife",-,0
"'400801'","'12/15/02 12/21/02'","Physician Asst/Midwife",60.0,1
"'400801'","'12/15/02 12/21/02'","PM:Time spent with you*",50.0,1
"'400801'","'12/15/02 12/21/02'","PM:concern questions/worries*",50.0,1
"'400801'","'12/15/02 12/21/02'","PM:kept you informed*",75.0,1
"'400801'","'12/15/02 12/21/02'","Friendly/courtesy phys asst/midwife*",75.0,1
"'400801'","'12/15/02 12/21/02'","Skill of physician asst/midwife*",50.0,1
"'401001'","'12/15/02 12/21/02'","Std Physician Asst/Midwife",-,0
"'401001'","'12/15/02 12/21/02'","Physician Asst/Midwife",75.0,1
"'401001'","'12/15/02 12/21/02'","PM:Time spent with you*",75.0,1
"'401001'","'12/15/02 12/21/02'","PM:concern questions/worries*",75.0,1
"'401001'","'12/15/02 12/21/02'","PM:kept you informed*",75.0,1
"'401001'","'12/15/02 12/21/02'","Friendly/courtesy phys asst/midwife*",75.0,1
"'401001'","'12/15/02 12/21/02'","Skill of physician asst/midwife*",75.0,1
"'400701'","'12/15/02 12/21/02'","Std Physician Asst/Midwife",-,0
"'400701'","'12/15/02 12/21/02'","Physician Asst/Midwife",100.0,1
"'400701'","'12/15/02 12/21/02'","PM:Time spent with you*",100.0,1
"'400701'","'12/15/02 12/21/02'","PM:concern questions/worries*",100.0,1
"'400701'","'12/15/02 12/21/02'","PM:kept you informed*",100.0,1
"'400701'","'12/15/02 12/21/02'","Friendly/courtesy phys asst/midwife*",100.0,1
"'400701'","'12/15/02 12/21/02'","Skill of physician asst/midwife*",100.0,1
"'Total'","'12/15/02 12/21/02'","Std Physician Asst/Midwife",-,0
"'Total'","'12/15/02 12/21/02'","Physician Asst/Midwife",83.0,5
"'Total'","'12/15/02 12/21/02'","PM:Time spent with you*",80.0,5
"'Total'","'12/15/02 12/21/02'","PM:concern questions/worries*",80.0,5
"'Total'","'12/15/02 12/21/02'","PM:kept you informed*",85.0,5
"'Total'","'12/15/02 12/21/02'","Friendly/courtesy phys asst/midwife*",90.0,5
"'Total'","'12/15/02 12/21/02'","Skill of physician asst/midwife*",80.0,5
"'611901'","'Total'","Std Physician Asst/Midwife",-,0
"'611901'","'Total'","Physician Asst/Midwife",100.0,1
"'611901'","'Total'","PM:Time spent with you*",100.0,1
"'611901'","'Total'","PM:concern questions/worries*",100.0,1
"'611901'","'Total'","PM:kept you informed*",100.0,1
"'611901'","'Total'","Friendly/courtesy phys asst/midwife*",100.0,1
"'611901'","'Total'","Skill of physician asst/midwife*",100.0,1
"'611101'","'Total'","Std Physician Asst/Midwife",-,0
"'611101'","'Total'","Physician Asst/Midwife",100.0,1
"'611101'","'Total'","PM:Time spent with you*",100.0,1
"'611101'","'Total'","PM:concern questions/worries*",100.0,1
"'611101'","'Total'","PM:kept you informed*",100.0,1
"'611101'","'Total'","Friendly/courtesy phys asst/midwife*",100.0,1
"'611101'","'Total'","Skill of physician asst/midwife*",100.0,1
"'610701'","'Total'","Std Physician Asst/Midwife",-,0
"'610701'","'Total'","Physician Asst/Midwife",86.3,4
"'610701'","'Total'","PM:Time spent with you*",81.3,4
"'610701'","'Total'","PM:concern questions/worries*",87.5,4
"'610701'","'Total'","PM:kept you informed*",87.5,4
"'610701'","'Total'","Friendly/courtesy phys asst/midwife*",87.5,4
"'610701'","'Total'","Skill of physician asst/midwife*",87.5,4
"'611001'","'Total'","Std Physician Asst/Midwife",-,0
"'611001'","'Total'","Physician Asst/Midwife",83.3,2
"'611001'","'Total'","PM:Time spent with you*",75.0,2
"'611001'","'Total'","PM:concern questions/worries*",75.0,1
"'611001'","'Total'","PM:kept you informed*",75.0,1
"'611001'","'Total'","Friendly/courtesy phys asst/midwife*",87.5,2
"'611001'","'Total'","Skill of physician asst/midwife*",87.5,2
"'612001'","'Total'","Std Physician Asst/Midwife",-,0
"'612001'","'Total'","Physician Asst/Midwife",100.0,3
"'612001'","'Total'","PM:Time spent with you*",100.0,2
"'612001'","'Total'","PM:concern questions/worries*",100.0,3
"'612001'","'Total'","PM:kept you informed*",100.0,2
"'612001'","'Total'","Friendly/courtesy phys asst/midwife*",100.0,3
"'612001'","'Total'","Skill of physician asst/midwife*",100.0,3
"'611601'","'Total'","Std Physician Asst/Midwife",-,0
"'611601'","'Total'","Physician Asst/Midwife",87.5,2
"'611601'","'Total'","PM:Time spent with you*",87.5,2
"'611601'","'Total'","PM:concern questions/worries*",87.5,2
"'611601'","'Total'","PM:kept you informed*",87.5,2
"'611601'","'Total'","Friendly/courtesy phys asst/midwife*",87.5,2
"'611601'","'Total'","Skill of physician asst/midwife*",87.5,2
"'612301'","'Total'","Std Physician Asst/Midwife",-,0
"'612301'","'Total'","Physician Asst/Midwife",100.0,2
"'612301'","'Total'","PM:Time spent with you*",100.0,2
"'612301'","'Total'","PM:concern questions/worries*",100.0,2
"'612301'","'Total'","PM:kept you informed*",100.0,2
"'612301'","'Total'","Friendly/courtesy phys asst/midwife*",100.0,2
"'612301'","'Total'","Skill of physician asst/midwife*",100.0,2
"'610501'","'Total'","Std Physician Asst/Midwife",-,0
"'610501'","'Total'","Physician Asst/Midwife",87.5,2
"'610501'","'Total'","PM:Time spent with you*",87.5,2
"'610501'","'Total'","PM:concern questions/worries*",87.5,2
"'610501'","'Total'","PM:kept you informed*",87.5,2
"'610501'","'Total'","Friendly/courtesy phys asst/midwife*",87.5,2
"'610501'","'Total'","Skill of physician asst/midwife*",87.5,2
"'610601'","'Total'","Std Physician Asst/Midwife",-,0
"'610601'","'Total'","Physician Asst/Midwife",85.0,2
"'610601'","'Total'","PM:Time spent with you*",75.0,2
"'610601'","'Total'","PM:concern questions/worries*",87.5,2
"'610601'","'Total'","PM:kept you informed*",87.5,2
"'610601'","'Total'","Friendly/courtesy phys asst/midwife*",87.5,2
"'610601'","'Total'","Skill of physician asst/midwife*",87.5,2
"'611301'","'Total'","Std Physician Asst/Midwife",-,0
"'611301'","'Total'","Physician Asst/Midwife",100.0,2
"'611301'","'Total'","PM:Time spent with you*",100.0,2
"'611301'","'Total'","PM:concern questions/worries*",100.0,2
"'611301'","'Total'","PM:kept you informed*",100.0,2
"'611301'","'Total'","Friendly/courtesy phys asst/midwife*",100.0,2
"'611301'","'Total'","Skill of physician asst/midwife*",100.0,2
"'612101'","'Total'","Std Physician Asst/Midwife",-,0
"'612101'","'Total'","Physician Asst/Midwife",87.5,2
"'612101'","'Total'","PM:Time spent with you*",87.5,2
"'612101'","'Total'","PM:concern questions/worries*",87.5,2
"'612101'","'Total'","PM:kept you informed*",87.5,2
"'612101'","'Total'","Friendly/courtesy phys asst/midwife*",87.5,2
"'612101'","'Total'","Skill of physician asst/midwife*",87.5,2
"'610901'","'Total'","Std Physician Asst/Midwife",-,0
"'610901'","'Total'","Physician Asst/Midwife",85.0,1
"'610901'","'Total'","PM:Time spent with you*",100.0,1
"'610901'","'Total'","PM:concern questions/worries*",75.0,1
"'610901'","'Total'","PM:kept you informed*",75.0,1
"'610901'","'Total'","Friendly/courtesy phys asst/midwife*",100.0,1
"'610901'","'Total'","Skill of physician asst/midwife*",75.0,1
"'610401'","'Total'","Std Physician Asst/Midwife",-,0
"'610401'","'Total'","Physician Asst/Midwife",75.0,1
"'610401'","'Total'","PM:Time spent with you*",75.0,1
"'610401'","'Total'","PM:concern questions/worries*",75.0,1
"'610401'","'Total'","PM:kept you informed*",75.0,1
"'610401'","'Total'","Friendly/courtesy phys asst/midwife*",75.0,1
"'610401'","'Total'","Skill of physician asst/midwife*",75.0,1
"'610801'","'Total'","Std Physician Asst/Midwife",-,0
"'610801'","'Total'","Physician Asst/Midwife",72.1,7
"'610801'","'Total'","PM:Time spent with you*",60.7,7
"'610801'","'Total'","PM:concern questions/worries*",70.0,5
"'610801'","'Total'","PM:kept you informed*",80.0,5
"'610801'","'Total'","Friendly/courtesy phys asst/midwife*",87.5,6
"'610801'","'Total'","Skill of physician asst/midwife*",87.5,6
"'400201'","'Total'","Std Physician Asst/Midwife",-,0
"'400201'","'Total'","Physician Asst/Midwife",100.0,1
"'400201'","'Total'","PM:Time spent with you*",100.0,1
"'400201'","'Total'","PM:concern questions/worries*",100.0,1
"'400201'","'Total'","PM:kept you informed*",100.0,1
"'400201'","'Total'","Friendly/courtesy phys asst/midwife*",100.0,1
"'400201'","'Total'","Skill of physician asst/midwife*",100.0,1
"'400101'","'Total'","Std Physician Asst/Midwife",-,0
"'400101'","'Total'","Physician Asst/Midwife",100.0,1
"'400101'","'Total'","PM:Time spent with you*",100.0,1
"'400101'","'Total'","PM:concern questions/worries*",100.0,1
"'400101'","'Total'","PM:kept you informed*",100.0,1
"'400101'","'Total'","Friendly/courtesy phys asst/midwife*",100.0,1
"'400101'","'Total'","Skill of physician asst/midwife*",100.0,1
"'400501'","'Total'","Std Physician Asst/Midwife",-,0
"'400501'","'Total'","Physician Asst/Midwife",95.0,1
"'400501'","'Total'","PM:Time spent with you*",75.0,1
"'400501'","'Total'","PM:concern questions/worries*",100.0,1
"'400501'","'Total'","PM:kept you informed*",100.0,1
"'400501'","'Total'","Friendly/courtesy phys asst/midwife*",100.0,1
"'400501'","'Total'","Skill of physician asst/midwife*",100.0,1
"'400401'","'Total'","Std Physician Asst/Midwife",-,0
"'400401'","'Total'","Physician Asst/Midwife",67.5,2
"'400401'","'Total'","PM:Time spent with you*",62.5,2
"'400401'","'Total'","PM:concern questions/worries*",62.5,2
"'400401'","'Total'","PM:kept you informed*",62.5,2
"'400401'","'Total'","Friendly/courtesy phys asst/midwife*",75.0,2
"'400401'","'Total'","Skill of physician asst/midwife*",75.0,2
"'401601'","'Total'","Std Physician Asst/Midwife",-,0
"'401601'","'Total'","Physician Asst/Midwife",100.0,2
"'401601'","'Total'","PM:Time spent with you*",100.0,2
"'401601'","'Total'","PM:concern questions/worries*",100.0,2
"'401601'","'Total'","PM:kept you informed*",100.0,2
"'401601'","'Total'","Friendly/courtesy phys asst/midwife*",100.0,2
"'401601'","'Total'","Skill of physician asst/midwife*",100.0,2
"'400301'","'Total'","Std Physician Asst/Midwife",-,0
"'400301'","'Total'","Physician Asst/Midwife",87.5,2
"'400301'","'Total'","PM:Time spent with you*",87.5,2
"'400301'","'Total'","PM:concern questions/worries*",87.5,2
"'400301'","'Total'","PM:kept you informed*",87.5,2
"'400301'","'Total'","Friendly/courtesy phys asst/midwife*",87.5,2
"'400301'","'Total'","Skill of physician asst/midwife*",87.5,2
"'400801'","'Total'","Std Physician Asst/Midwife",-,0
"'400801'","'Total'","Physician Asst/Midwife",67.5,2
"'400801'","'Total'","PM:Time spent with you*",62.5,2
"'400801'","'Total'","PM:concern questions/worries*",62.5,2
"'400801'","'Total'","PM:kept you informed*",75.0,2
"'400801'","'Total'","Friendly/courtesy phys asst/midwife*",75.0,2
"'400801'","'Total'","Skill of physician asst/midwife*",62.5,2
"'401201'","'Total'","Std Physician Asst/Midwife",-,0
"'401201'","'Total'","Physician Asst/Midwife",100.0,1
"'401201'","'Total'","PM:Time spent with you*",100.0,1
"'401201'","'Total'","PM:concern questions/worries*",100.0,1
"'401201'","'Total'","PM:kept you informed*",100.0,1
"'401201'","'Total'","Friendly/courtesy phys asst/midwife*",100.0,1
"'401201'","'Total'","Skill of physician asst/midwife*",100.0,1
"'401001'","'Total'","Std Physician Asst/Midwife",-,0
"'401001'","'Total'","Physician Asst/Midwife",50.0,3
"'401001'","'Total'","PM:Time spent with you*",62.5,2
"'401001'","'Total'","PM:concern questions/worries*",50.0,3
"'401001'","'Total'","PM:kept you informed*",50.0,3
"'401001'","'Total'","Friendly/courtesy phys asst/midwife*",62.5,2
"'401001'","'Total'","Skill of physician asst/midwife*",50.0,3
"'401501'","'Total'","Std Physician Asst/Midwife",-,0
"'401501'","'Total'","Physician Asst/Midwife",80.0,1
"'401501'","'Total'","PM:Time spent with you*",75.0,1
"'401501'","'Total'","PM:concern questions/worries*",75.0,1
"'401501'","'Total'","PM:kept you informed*",50.0,1
"'401501'","'Total'","Friendly/courtesy phys asst/midwife*",100.0,1
"'401501'","'Total'","Skill of physician asst/midwife*",100.0,1
"'400601'","'Total'","Std Physician Asst/Midwife",-,0
"'400601'","'Total'","Physician Asst/Midwife",85.0,1
"'400601'","'Total'","PM:Time spent with you*",100.0,1
"'400601'","'Total'","PM:concern questions/worries*",75.0,1
"'400601'","'Total'","PM:kept you informed*",75.0,1
"'400601'","'Total'","Friendly/courtesy phys asst/midwife*",75.0,1
"'400601'","'Total'","Skill of physician asst/midwife*",100.0,1
"'402501'","'Total'","Std Physician Asst/Midwife",-,0
"'402501'","'Total'","Physician Asst/Midwife",75.0,1
"'402501'","'Total'","PM:Time spent with you*",75.0,1
"'402501'","'Total'","PM:concern questions/worries*",75.0,1
"'402501'","'Total'","PM:kept you informed*",75.0,1
"'402501'","'Total'","Friendly/courtesy phys asst/midwife*",75.0,1
"'402501'","'Total'","Skill of physician asst/midwife*",75.0,1
"'402001'","'Total'","Std Physician Asst/Midwife",-,0
"'402001'","'Total'","Physician Asst/Midwife",75.0,1
"'402001'","'Total'","PM:Time spent with you*",75.0,1
"'402001'","'Total'","PM:concern questions/worries*",75.0,1
"'400901'","'Total'","Std Physician Asst/Midwife",-,0
"'400901'","'Total'","Physician Asst/Midwife",100.0,1
"'400901'","'Total'","PM:Time spent with you*",100.0,1
"'400901'","'Total'","PM:concern questions/worries*",100.0,1
"'400901'","'Total'","PM:kept you informed*",100.0,1
"'400901'","'Total'","Friendly/courtesy phys asst/midwife*",100.0,1
"'400901'","'Total'","Skill of physician asst/midwife*",100.0,1
"'402301'","'Total'","Std Physician Asst/Midwife",-,0
"'402301'","'Total'","Physician Asst/Midwife",25.0,1
"'402301'","'Total'","PM:Time spent with you*",25.0,1
"'402301'","'Total'","PM:concern questions/worries*",25.0,1
"'402301'","'Total'","PM:kept you informed*",25.0,1
"'402301'","'Total'","Friendly/courtesy phys asst/midwife*",25.0,1
"'402301'","'Total'","Skill of physician asst/midwife*",25.0,1
"'400701'","'Total'","Std Physician Asst/Midwife",-,0
"'400701'","'Total'","Physician Asst/Midwife",100.0,1
"'400701'","'Total'","PM:Time spent with you*",100.0,1
"'400701'","'Total'","PM:concern questions/worries*",100.0,1
"'400701'","'Total'","PM:kept you informed*",100.0,1
"'400701'","'Total'","Friendly/courtesy phys asst/midwife*",100.0,1
"'400701'","'Total'","Skill of physician asst/midwife*",100.0,1
"'401301'","'Total'","Std Physician Asst/Midwife",-,0
"'401301'","'Total'","Physician Asst/Midwife",75.0,1
"'401301'","'Total'","PM:Time spent with you*",75.0,1
"'401301'","'Total'","PM:concern questions/worries*",75.0,1
"'401301'","'Total'","PM:kept you informed*",75.0,1
"'401301'","'Total'","Friendly/courtesy phys asst/midwife*",75.0,1
"'401301'","'Total'","Skill of physician asst/midwife*",75.0,1
"'Total'","'Total'","Std Physician Asst/Midwife",-,0
"'Total'","'Total'","Physician Asst/Midwife",83.2,55
"'Total'","'Total'","PM:Time spent with you*",81.1,53
"'Total'","'Total'","PM:concern questions/worries*",82.7,52
"'Total'","'Total'","PM:kept you informed*",83.5,50
"'Total'","'Total'","Friendly/courtesy phys asst/midwife*",88.0,52
"'Total'","'Total'","Skill of physician asst/midwife*",86.3,53


