"FILTER","CHOICE(S)"


"Site","Emory University Hospital",(Site:1)
"IT Discharge date","From 01/01/2009 To 12/31/2009"

"MEAN REPORT"


"IT Room","IT Discharge date","Question","mean"
"'G749'","'12/28/08 1/3/09'","Std Transplant Care",-
"'G749'","'12/28/08 1/3/09'","Transplant Care",100.0
"'G749'","'12/28/08 1/3/09'","Transplant care: Clinic reception*",100.0
"'G749'","'12/28/08 1/3/09'","Transplant care: Finance Counselor*",100.0
"'G749'","'12/28/08 1/3/09'","Transplant care: Social Worker*",100.0
"'G749'","'12/28/08 1/3/09'","Transplant care: Trans. Coordinator*",100.0
"'G749'","'12/28/08 1/3/09'","Transplant care: Trans. Physician*",100.0
"'G749'","'12/28/08 1/3/09'","Transplant care: Transplant Surgeon*",100.0
"'G749'","'12/28/08 1/3/09'","Transplant care: Psychologist*",100.0
"'G749'","'12/28/08 1/3/09'","Transplant care: Pat Resource Mnger*",100.0
"'G749'","'12/28/08 1/3/09'","Transplant care: Nutritionist*",100.0
"'G749'","'12/28/08 1/3/09'","Transplant care: Pharmacist*",100.0
"'G749'","'12/28/08 1/3/09'","Transplant care: Chaplain*",100.0
"'G749'","'12/28/08 1/3/09'","Transplant team worked together*",100.0
"'G749'","'12/28/08 1/3/09'","Respect caring by transplant team*",100.0
"'G759'","'12/28/08 1/3/09'","Std Transplant Care",-
"'G759'","'12/28/08 1/3/09'","Transplant Care",100.0
"'G759'","'12/28/08 1/3/09'","Transplant care: Clinic reception*",100.0
"'G759'","'12/28/08 1/3/09'","Transplant care: Finance Counselor*",100.0
"'G759'","'12/28/08 1/3/09'","Transplant care: Trans. Coordinator*",100.0
"'G759'","'12/28/08 1/3/09'","Transplant care: Trans. Physician*",100.0
"'G759'","'12/28/08 1/3/09'","Transplant care: Transplant Surgeon*",100.0
"'G759'","'12/28/08 1/3/09'","Transplant care: Pat Resource Mnger*",100.0
"'G759'","'12/28/08 1/3/09'","Transplant care: Nutritionist*",100.0
"'G759'","'12/28/08 1/3/09'","Transplant care: Pharmacist*",100.0
"'G759'","'12/28/08 1/3/09'","Transplant team worked together*",100.0
"'G759'","'12/28/08 1/3/09'","Respect caring by transplant team*",100.0
"'Total'","'12/28/08 1/3/09'","Std Transplant Care",-
"'Total'","'12/28/08 1/3/09'","Transplant Care",100.0
"'Total'","'12/28/08 1/3/09'","Transplant care: Clinic reception*",100.0
"'Total'","'12/28/08 1/3/09'","Transplant care: Finance Counselor*",100.0
"'Total'","'12/28/08 1/3/09'","Transplant care: Social Worker*",100.0
"'Total'","'12/28/08 1/3/09'","Transplant care: Trans. Coordinator*",100.0
"'Total'","'12/28/08 1/3/09'","Transplant care: Trans. Physician*",100.0
"'Total'","'12/28/08 1/3/09'","Transplant care: Transplant Surgeon*",100.0
"'Total'","'12/28/08 1/3/09'","Transplant care: Psychologist*",100.0
"'Total'","'12/28/08 1/3/09'","Transplant care: Pat Resource Mnger*",100.0
"'Total'","'12/28/08 1/3/09'","Transplant care: Nutritionist*",100.0
"'Total'","'12/28/08 1/3/09'","Transplant care: Pharmacist*",100.0
"'Total'","'12/28/08 1/3/09'","Transplant care: Chaplain*",100.0
"'Total'","'12/28/08 1/3/09'","Transplant team worked together*",100.0
"'Total'","'12/28/08 1/3/09'","Respect caring by transplant team*",100.0
"'G753'","'1/11/09 1/17/09'","Std Transplant Care",-
"'G753'","'1/11/09 1/17/09'","Transplant Care",77.5
"'G753'","'1/11/09 1/17/09'","Transplant care: Clinic reception*",75.0
"'G753'","'1/11/09 1/17/09'","Transplant care: Finance Counselor*",75.0
"'G753'","'1/11/09 1/17/09'","Transplant care: Social Worker*",50.0
"'G753'","'1/11/09 1/17/09'","Transplant care: Trans. Coordinator*",75.0
"'G753'","'1/11/09 1/17/09'","Transplant care: Trans. Physician*",100.0
"'G753'","'1/11/09 1/17/09'","Transplant care: Transplant Surgeon*",100.0
"'G753'","'1/11/09 1/17/09'","Transplant care: Nutritionist*",25.0
"'G753'","'1/11/09 1/17/09'","Transplant care: Pharmacist*",75.0
"'G753'","'1/11/09 1/17/09'","Transplant team worked together*",100.0
"'G753'","'1/11/09 1/17/09'","Respect caring by transplant team*",100.0
"'G732'","'1/11/09 1/17/09'","Std Transplant Care",-
"'G732'","'1/11/09 1/17/09'","Transplant Care",86.4
"'G732'","'1/11/09 1/17/09'","Transplant care: Finance Counselor*",75.0
"'G732'","'1/11/09 1/17/09'","Transplant care: Social Worker*",75.0
"'G732'","'1/11/09 1/17/09'","Transplant care: Trans. Coordinator*",75.0
"'G732'","'1/11/09 1/17/09'","Transplant care: Trans. Physician*",75.0
"'G732'","'1/11/09 1/17/09'","Transplant care: Transplant Surgeon*",75.0
"'G732'","'1/11/09 1/17/09'","Transplant care: Psychologist*",75.0
"'G732'","'1/11/09 1/17/09'","Transplant care: Pat Resource Mnger*",100.0
"'G732'","'1/11/09 1/17/09'","Transplant care: Nutritionist*",100.0
"'G732'","'1/11/09 1/17/09'","Transplant care: Pharmacist*",100.0
"'G732'","'1/11/09 1/17/09'","Transplant care: Chaplain*",100.0
"'G732'","'1/11/09 1/17/09'","Transplant team worked together*",100.0
"'Total'","'1/11/09 1/17/09'","Std Transplant Care",-
"'Total'","'1/11/09 1/17/09'","Transplant Care",81.9
"'Total'","'1/11/09 1/17/09'","Transplant care: Clinic reception*",75.0
"'Total'","'1/11/09 1/17/09'","Transplant care: Finance Counselor*",75.0
"'Total'","'1/11/09 1/17/09'","Transplant care: Social Worker*",62.5
"'Total'","'1/11/09 1/17/09'","Transplant care: Trans. Coordinator*",75.0
"'Total'","'1/11/09 1/17/09'","Transplant care: Trans. Physician*",87.5
"'Total'","'1/11/09 1/17/09'","Transplant care: Transplant Surgeon*",87.5
"'Total'","'1/11/09 1/17/09'","Transplant care: Psychologist*",75.0
"'Total'","'1/11/09 1/17/09'","Transplant care: Pat Resource Mnger*",100.0
"'Total'","'1/11/09 1/17/09'","Transplant care: Nutritionist*",62.5
"'Total'","'1/11/09 1/17/09'","Transplant care: Pharmacist*",87.5
"'Total'","'1/11/09 1/17/09'","Transplant care: Chaplain*",100.0
"'Total'","'1/11/09 1/17/09'","Transplant team worked together*",100.0
"'Total'","'1/11/09 1/17/09'","Respect caring by transplant team*",100.0
"'G747'","'1/18/09 1/24/09'","Std Transplant Care",-
"'G747'","'1/18/09 1/24/09'","Transplant Care",100.0
"'G747'","'1/18/09 1/24/09'","Transplant care: Clinic reception*",100.0
"'G747'","'1/18/09 1/24/09'","Transplant care: Trans. Coordinator*",100.0
"'G747'","'1/18/09 1/24/09'","Transplant care: Trans. Physician*",100.0
"'G747'","'1/18/09 1/24/09'","Transplant care: Transplant Surgeon*",100.0
"'G747'","'1/18/09 1/24/09'","Transplant care: Pat Resource Mnger*",100.0
"'G747'","'1/18/09 1/24/09'","Transplant care: Nutritionist*",100.0
"'G747'","'1/18/09 1/24/09'","Transplant care: Pharmacist*",100.0
"'G747'","'1/18/09 1/24/09'","Transplant team worked together*",100.0
"'G747'","'1/18/09 1/24/09'","Respect caring by transplant team*",100.0
"'Total'","'1/18/09 1/24/09'","Std Transplant Care",-
"'Total'","'1/18/09 1/24/09'","Transplant Care",100.0
"'Total'","'1/18/09 1/24/09'","Transplant care: Clinic reception*",100.0
"'Total'","'1/18/09 1/24/09'","Transplant care: Trans. Coordinator*",100.0
"'Total'","'1/18/09 1/24/09'","Transplant care: Trans. Physician*",100.0
"'Total'","'1/18/09 1/24/09'","Transplant care: Transplant Surgeon*",100.0
"'Total'","'1/18/09 1/24/09'","Transplant care: Pat Resource Mnger*",100.0
"'Total'","'1/18/09 1/24/09'","Transplant care: Nutritionist*",100.0
"'Total'","'1/18/09 1/24/09'","Transplant care: Pharmacist*",100.0
"'Total'","'1/18/09 1/24/09'","Transplant team worked together*",100.0
"'Total'","'1/18/09 1/24/09'","Respect caring by transplant team*",100.0
"'B480'","'2/8/09 2/14/09'","Std Transplant Care",-
"'B480'","'2/8/09 2/14/09'","Transplant Care",100.0
"'B480'","'2/8/09 2/14/09'","Transplant care: Trans. Coordinator*",100.0
"'B480'","'2/8/09 2/14/09'","Transplant care: Transplant Surgeon*",100.0
"'B480'","'2/8/09 2/14/09'","Transplant care: Chaplain*",100.0
"'B480'","'2/8/09 2/14/09'","Transplant team worked together*",100.0
"'B480'","'2/8/09 2/14/09'","Respect caring by transplant team*",100.0
"'G757'","'2/8/09 2/14/09'","Std Transplant Care",-
"'G757'","'2/8/09 2/14/09'","Transplant Care",88.9
"'G757'","'2/8/09 2/14/09'","Transplant care: Social Worker*",100.0
"'G757'","'2/8/09 2/14/09'","Transplant care: Trans. Coordinator*",100.0
"'G757'","'2/8/09 2/14/09'","Transplant care: Trans. Physician*",100.0
"'G757'","'2/8/09 2/14/09'","Transplant care: Transplant Surgeon*",100.0
"'G757'","'2/8/09 2/14/09'","Transplant care: Pat Resource Mnger*",100.0
"'G757'","'2/8/09 2/14/09'","Transplant care: Nutritionist*",50.0
"'G757'","'2/8/09 2/14/09'","Transplant care: Chaplain*",50.0
"'G757'","'2/8/09 2/14/09'","Transplant team worked together*",100.0
"'G757'","'2/8/09 2/14/09'","Respect caring by transplant team*",100.0
"'Total'","'2/8/09 2/14/09'","Std Transplant Care",-
"'Total'","'2/8/09 2/14/09'","Transplant Care",94.4
"'Total'","'2/8/09 2/14/09'","Transplant care: Social Worker*",100.0
"'Total'","'2/8/09 2/14/09'","Transplant care: Trans. Coordinator*",100.0
"'Total'","'2/8/09 2/14/09'","Transplant care: Trans. Physician*",100.0
"'Total'","'2/8/09 2/14/09'","Transplant care: Transplant Surgeon*",100.0
"'Total'","'2/8/09 2/14/09'","Transplant care: Pat Resource Mnger*",100.0
"'Total'","'2/8/09 2/14/09'","Transplant care: Nutritionist*",50.0
"'Total'","'2/8/09 2/14/09'","Transplant care: Chaplain*",75.0
"'Total'","'2/8/09 2/14/09'","Transplant team worked together*",100.0
"'Total'","'2/8/09 2/14/09'","Respect caring by transplant team*",100.0
"'G732'","'2/15/09 2/21/09'","Std Transplant Care",-
"'G732'","'2/15/09 2/21/09'","Transplant Care",75.0
"'G732'","'2/15/09 2/21/09'","Transplant care: Clinic reception*",75.0
"'G732'","'2/15/09 2/21/09'","Transplant care: Finance Counselor*",50.0
"'G732'","'2/15/09 2/21/09'","Transplant care: Social Worker*",50.0
"'G732'","'2/15/09 2/21/09'","Transplant care: Trans. Coordinator*",75.0
"'G732'","'2/15/09 2/21/09'","Transplant care: Trans. Physician*",100.0
"'G732'","'2/15/09 2/21/09'","Transplant care: Transplant Surgeon*",100.0
"'G732'","'2/15/09 2/21/09'","Transplant care: Pat Resource Mnger*",100.0
"'G732'","'2/15/09 2/21/09'","Transplant care: Nutritionist*",50.0
"'G732'","'2/15/09 2/21/09'","Transplant care: Pharmacist*",75.0
"'G732'","'2/15/09 2/21/09'","Transplant team worked together*",75.0
"'G732'","'2/15/09 2/21/09'","Respect caring by transplant team*",75.0
"'Total'","'2/15/09 2/21/09'","Std Transplant Care",-
"'Total'","'2/15/09 2/21/09'","Transplant Care",75.0
"'Total'","'2/15/09 2/21/09'","Transplant care: Clinic reception*",75.0
"'Total'","'2/15/09 2/21/09'","Transplant care: Finance Counselor*",50.0
"'Total'","'2/15/09 2/21/09'","Transplant care: Social Worker*",50.0
"'Total'","'2/15/09 2/21/09'","Transplant care: Trans. Coordinator*",75.0
"'Total'","'2/15/09 2/21/09'","Transplant care: Trans. Physician*",100.0
"'Total'","'2/15/09 2/21/09'","Transplant care: Transplant Surgeon*",100.0
"'Total'","'2/15/09 2/21/09'","Transplant care: Pat Resource Mnger*",100.0
"'Total'","'2/15/09 2/21/09'","Transplant care: Nutritionist*",50.0
"'Total'","'2/15/09 2/21/09'","Transplant care: Pharmacist*",75.0
"'Total'","'2/15/09 2/21/09'","Transplant team worked together*",75.0
"'Total'","'2/15/09 2/21/09'","Respect caring by transplant team*",75.0
"'G754'","'2/22/09 2/28/09'","Std Transplant Care",-
"'G754'","'2/22/09 2/28/09'","Transplant Care",100.0
"'G754'","'2/22/09 2/28/09'","Transplant care: Clinic reception*",100.0
"'G754'","'2/22/09 2/28/09'","Transplant care: Finance Counselor*",100.0
"'G754'","'2/22/09 2/28/09'","Transplant care: Social Worker*",100.0
"'G754'","'2/22/09 2/28/09'","Transplant care: Trans. Coordinator*",100.0
"'G754'","'2/22/09 2/28/09'","Transplant care: Trans. Physician*",100.0
"'G754'","'2/22/09 2/28/09'","Transplant care: Transplant Surgeon*",100.0
"'G754'","'2/22/09 2/28/09'","Transplant care: Pat Resource Mnger*",100.0
"'G754'","'2/22/09 2/28/09'","Transplant care: Nutritionist*",100.0
"'G754'","'2/22/09 2/28/09'","Transplant care: Pharmacist*",100.0
"'G754'","'2/22/09 2/28/09'","Transplant team worked together*",100.0
"'G754'","'2/22/09 2/28/09'","Respect caring by transplant team*",100.0
"'Total'","'2/22/09 2/28/09'","Std Transplant Care",-
"'Total'","'2/22/09 2/28/09'","Transplant Care",100.0
"'Total'","'2/22/09 2/28/09'","Transplant care: Clinic reception*",100.0
"'Total'","'2/22/09 2/28/09'","Transplant care: Finance Counselor*",100.0
"'Total'","'2/22/09 2/28/09'","Transplant care: Social Worker*",100.0
"'Total'","'2/22/09 2/28/09'","Transplant care: Trans. Coordinator*",100.0
"'Total'","'2/22/09 2/28/09'","Transplant care: Trans. Physician*",100.0
"'Total'","'2/22/09 2/28/09'","Transplant care: Transplant Surgeon*",100.0
"'Total'","'2/22/09 2/28/09'","Transplant care: Pat Resource Mnger*",100.0
"'Total'","'2/22/09 2/28/09'","Transplant care: Nutritionist*",100.0
"'Total'","'2/22/09 2/28/09'","Transplant care: Pharmacist*",100.0
"'Total'","'2/22/09 2/28/09'","Transplant team worked together*",100.0
"'Total'","'2/22/09 2/28/09'","Respect caring by transplant team*",100.0
"'G763'","'3/15/09 3/21/09'","Std Transplant Care",-
"'G763'","'3/15/09 3/21/09'","Transplant Care",100.0
"'G763'","'3/15/09 3/21/09'","Transplant care: Clinic reception*",100.0
"'G763'","'3/15/09 3/21/09'","Transplant care: Finance Counselor*",100.0
"'G763'","'3/15/09 3/21/09'","Transplant care: Trans. Coordinator*",100.0
"'G763'","'3/15/09 3/21/09'","Transplant care: Trans. Physician*",100.0
"'G763'","'3/15/09 3/21/09'","Transplant care: Transplant Surgeon*",100.0
"'G763'","'3/15/09 3/21/09'","Transplant care: Pat Resource Mnger*",100.0
"'G763'","'3/15/09 3/21/09'","Transplant team worked together*",100.0
"'G763'","'3/15/09 3/21/09'","Respect caring by transplant team*",100.0
"'Total'","'3/15/09 3/21/09'","Std Transplant Care",-
"'Total'","'3/15/09 3/21/09'","Transplant Care",100.0
"'Total'","'3/15/09 3/21/09'","Transplant care: Clinic reception*",100.0
"'Total'","'3/15/09 3/21/09'","Transplant care: Finance Counselor*",100.0
"'Total'","'3/15/09 3/21/09'","Transplant care: Trans. Coordinator*",100.0
"'Total'","'3/15/09 3/21/09'","Transplant care: Trans. Physician*",100.0
"'Total'","'3/15/09 3/21/09'","Transplant care: Transplant Surgeon*",100.0
"'Total'","'3/15/09 3/21/09'","Transplant care: Pat Resource Mnger*",100.0
"'Total'","'3/15/09 3/21/09'","Transplant team worked together*",100.0
"'Total'","'3/15/09 3/21/09'","Respect caring by transplant team*",100.0
"'G741'","'3/22/09 3/28/09'","Std Transplant Care",-
"'G741'","'3/22/09 3/28/09'","Transplant Care",100.0
"'G741'","'3/22/09 3/28/09'","Transplant care: Clinic reception*",100.0
"'G741'","'3/22/09 3/28/09'","Transplant care: Finance Counselor*",100.0
"'G741'","'3/22/09 3/28/09'","Transplant care: Social Worker*",100.0
"'G741'","'3/22/09 3/28/09'","Transplant care: Trans. Coordinator*",100.0
"'G741'","'3/22/09 3/28/09'","Transplant care: Trans. Physician*",100.0
"'G741'","'3/22/09 3/28/09'","Transplant care: Transplant Surgeon*",100.0
"'G741'","'3/22/09 3/28/09'","Transplant care: Pharmacist*",100.0
"'G741'","'3/22/09 3/28/09'","Transplant team worked together*",100.0
"'G741'","'3/22/09 3/28/09'","Respect caring by transplant team*",100.0
"'G737'","'3/22/09 3/28/09'","Std Transplant Care",-
"'G737'","'3/22/09 3/28/09'","Transplant Care",85.4
"'G737'","'3/22/09 3/28/09'","Transplant care: Clinic reception*",75.0
"'G737'","'3/22/09 3/28/09'","Transplant care: Finance Counselor*",75.0
"'G737'","'3/22/09 3/28/09'","Transplant care: Social Worker*",75.0
"'G737'","'3/22/09 3/28/09'","Transplant care: Trans. Coordinator*",75.0
"'G737'","'3/22/09 3/28/09'","Transplant care: Trans. Physician*",100.0
"'G737'","'3/22/09 3/28/09'","Transplant care: Transplant Surgeon*",100.0
"'G737'","'3/22/09 3/28/09'","Transplant care: Psychologist*",75.0
"'G737'","'3/22/09 3/28/09'","Transplant care: Pat Resource Mnger*",100.0
"'G737'","'3/22/09 3/28/09'","Transplant care: Nutritionist*",75.0
"'G737'","'3/22/09 3/28/09'","Transplant care: Pharmacist*",75.0
"'G737'","'3/22/09 3/28/09'","Transplant team worked together*",100.0
"'G737'","'3/22/09 3/28/09'","Respect caring by transplant team*",100.0
"'Total'","'3/22/09 3/28/09'","Std Transplant Care",-
"'Total'","'3/22/09 3/28/09'","Transplant Care",92.7
"'Total'","'3/22/09 3/28/09'","Transplant care: Clinic reception*",87.5
"'Total'","'3/22/09 3/28/09'","Transplant care: Finance Counselor*",87.5
"'Total'","'3/22/09 3/28/09'","Transplant care: Social Worker*",87.5
"'Total'","'3/22/09 3/28/09'","Transplant care: Trans. Coordinator*",87.5
"'Total'","'3/22/09 3/28/09'","Transplant care: Trans. Physician*",100.0
"'Total'","'3/22/09 3/28/09'","Transplant care: Transplant Surgeon*",100.0
"'Total'","'3/22/09 3/28/09'","Transplant care: Psychologist*",75.0
"'Total'","'3/22/09 3/28/09'","Transplant care: Pat Resource Mnger*",100.0
"'Total'","'3/22/09 3/28/09'","Transplant care: Nutritionist*",75.0
"'Total'","'3/22/09 3/28/09'","Transplant care: Pharmacist*",87.5
"'Total'","'3/22/09 3/28/09'","Transplant team worked together*",100.0
"'Total'","'3/22/09 3/28/09'","Respect caring by transplant team*",100.0
"'B480'","'3/29/09 4/4/09'","Std Transplant Care",-
"'B480'","'3/29/09 4/4/09'","Transplant Care",100.0
"'B480'","'3/29/09 4/4/09'","Transplant care: Clinic reception*",100.0
"'B480'","'3/29/09 4/4/09'","Transplant care: Finance Counselor*",100.0
"'B480'","'3/29/09 4/4/09'","Transplant care: Social Worker*",100.0
"'B480'","'3/29/09 4/4/09'","Transplant care: Trans. Coordinator*",100.0
"'B480'","'3/29/09 4/4/09'","Transplant care: Trans. Physician*",100.0
"'B480'","'3/29/09 4/4/09'","Transplant care: Transplant Surgeon*",100.0
"'B480'","'3/29/09 4/4/09'","Transplant care: Psychologist*",100.0
"'B480'","'3/29/09 4/4/09'","Transplant care: Pat Resource Mnger*",100.0
"'B480'","'3/29/09 4/4/09'","Transplant care: Nutritionist*",100.0
"'B480'","'3/29/09 4/4/09'","Transplant care: Pharmacist*",100.0
"'B480'","'3/29/09 4/4/09'","Transplant care: Chaplain*",100.0
"'B480'","'3/29/09 4/4/09'","Transplant team worked together*",100.0
"'B480'","'3/29/09 4/4/09'","Respect caring by transplant team*",100.0
"'Total'","'3/29/09 4/4/09'","Std Transplant Care",-
"'Total'","'3/29/09 4/4/09'","Transplant Care",100.0
"'Total'","'3/29/09 4/4/09'","Transplant care: Clinic reception*",100.0
"'Total'","'3/29/09 4/4/09'","Transplant care: Finance Counselor*",100.0
"'Total'","'3/29/09 4/4/09'","Transplant care: Social Worker*",100.0
"'Total'","'3/29/09 4/4/09'","Transplant care: Trans. Coordinator*",100.0
"'Total'","'3/29/09 4/4/09'","Transplant care: Trans. Physician*",100.0
"'Total'","'3/29/09 4/4/09'","Transplant care: Transplant Surgeon*",100.0
"'Total'","'3/29/09 4/4/09'","Transplant care: Psychologist*",100.0
"'Total'","'3/29/09 4/4/09'","Transplant care: Pat Resource Mnger*",100.0
"'Total'","'3/29/09 4/4/09'","Transplant care: Nutritionist*",100.0
"'Total'","'3/29/09 4/4/09'","Transplant care: Pharmacist*",100.0
"'Total'","'3/29/09 4/4/09'","Transplant care: Chaplain*",100.0
"'Total'","'3/29/09 4/4/09'","Transplant team worked together*",100.0
"'Total'","'3/29/09 4/4/09'","Respect caring by transplant team*",100.0
"'G753'","'4/5/09 4/11/09'","Std Transplant Care",-
"'G753'","'4/5/09 4/11/09'","Transplant Care",100.0
"'G753'","'4/5/09 4/11/09'","Transplant care: Clinic reception*",100.0
"'G753'","'4/5/09 4/11/09'","Transplant care: Finance Counselor*",100.0
"'G753'","'4/5/09 4/11/09'","Transplant care: Social Worker*",100.0
"'G753'","'4/5/09 4/11/09'","Transplant care: Trans. Coordinator*",100.0
"'G753'","'4/5/09 4/11/09'","Transplant care: Trans. Physician*",100.0
"'G753'","'4/5/09 4/11/09'","Transplant care: Transplant Surgeon*",100.0
"'G753'","'4/5/09 4/11/09'","Transplant care: Psychologist*",100.0
"'G753'","'4/5/09 4/11/09'","Transplant care: Pat Resource Mnger*",100.0
"'G753'","'4/5/09 4/11/09'","Transplant care: Nutritionist*",100.0
"'G753'","'4/5/09 4/11/09'","Transplant care: Pharmacist*",100.0
"'G753'","'4/5/09 4/11/09'","Transplant care: Chaplain*",100.0
"'G753'","'4/5/09 4/11/09'","Transplant team worked together*",100.0
"'G753'","'4/5/09 4/11/09'","Respect caring by transplant team*",100.0
"'B594'","'4/5/09 4/11/09'","Std Transplant Care",-
"'B594'","'4/5/09 4/11/09'","Transplant Care",97.5
"'B594'","'4/5/09 4/11/09'","Transplant care: Clinic reception*",100.0
"'B594'","'4/5/09 4/11/09'","Transplant care: Trans. Coordinator*",100.0
"'B594'","'4/5/09 4/11/09'","Transplant care: Trans. Physician*",100.0
"'B594'","'4/5/09 4/11/09'","Transplant care: Transplant Surgeon*",100.0
"'B594'","'4/5/09 4/11/09'","Transplant care: Pat Resource Mnger*",100.0
"'B594'","'4/5/09 4/11/09'","Transplant care: Nutritionist*",75.0
"'B594'","'4/5/09 4/11/09'","Transplant care: Pharmacist*",100.0
"'B594'","'4/5/09 4/11/09'","Transplant care: Chaplain*",100.0
"'B594'","'4/5/09 4/11/09'","Transplant team worked together*",100.0
"'B594'","'4/5/09 4/11/09'","Respect caring by transplant team*",100.0
"'Total'","'4/5/09 4/11/09'","Std Transplant Care",-
"'Total'","'4/5/09 4/11/09'","Transplant Care",98.8
"'Total'","'4/5/09 4/11/09'","Transplant care: Clinic reception*",100.0
"'Total'","'4/5/09 4/11/09'","Transplant care: Finance Counselor*",100.0
"'Total'","'4/5/09 4/11/09'","Transplant care: Social Worker*",100.0
"'Total'","'4/5/09 4/11/09'","Transplant care: Trans. Coordinator*",100.0
"'Total'","'4/5/09 4/11/09'","Transplant care: Trans. Physician*",100.0
"'Total'","'4/5/09 4/11/09'","Transplant care: Transplant Surgeon*",100.0
"'Total'","'4/5/09 4/11/09'","Transplant care: Psychologist*",100.0
"'Total'","'4/5/09 4/11/09'","Transplant care: Pat Resource Mnger*",100.0
"'Total'","'4/5/09 4/11/09'","Transplant care: Nutritionist*",87.5
"'Total'","'4/5/09 4/11/09'","Transplant care: Pharmacist*",100.0
"'Total'","'4/5/09 4/11/09'","Transplant care: Chaplain*",100.0
"'Total'","'4/5/09 4/11/09'","Transplant team worked together*",100.0
"'Total'","'4/5/09 4/11/09'","Respect caring by transplant team*",100.0
"'B487'","'4/19/09 4/25/09'","Std Transplant Care",-
"'B487'","'4/19/09 4/25/09'","Transplant Care",100.0
"'B487'","'4/19/09 4/25/09'","Transplant care: Clinic reception*",100.0
"'B487'","'4/19/09 4/25/09'","Transplant care: Finance Counselor*",100.0
"'B487'","'4/19/09 4/25/09'","Transplant care: Trans. Coordinator*",100.0
"'B487'","'4/19/09 4/25/09'","Transplant care: Trans. Physician*",100.0
"'B487'","'4/19/09 4/25/09'","Transplant care: Transplant Surgeon*",100.0
"'B487'","'4/19/09 4/25/09'","Transplant care: Nutritionist*",100.0
"'B487'","'4/19/09 4/25/09'","Transplant care: Pharmacist*",100.0
"'B487'","'4/19/09 4/25/09'","Transplant team worked together*",100.0
"'B487'","'4/19/09 4/25/09'","Respect caring by transplant team*",100.0
"'Total'","'4/19/09 4/25/09'","Std Transplant Care",-
"'Total'","'4/19/09 4/25/09'","Transplant Care",100.0
"'Total'","'4/19/09 4/25/09'","Transplant care: Clinic reception*",100.0
"'Total'","'4/19/09 4/25/09'","Transplant care: Finance Counselor*",100.0
"'Total'","'4/19/09 4/25/09'","Transplant care: Trans. Coordinator*",100.0
"'Total'","'4/19/09 4/25/09'","Transplant care: Trans. Physician*",100.0
"'Total'","'4/19/09 4/25/09'","Transplant care: Transplant Surgeon*",100.0
"'Total'","'4/19/09 4/25/09'","Transplant care: Nutritionist*",100.0
"'Total'","'4/19/09 4/25/09'","Transplant care: Pharmacist*",100.0
"'Total'","'4/19/09 4/25/09'","Transplant team worked together*",100.0
"'Total'","'4/19/09 4/25/09'","Respect caring by transplant team*",100.0
"'G736'","'5/10/09 5/16/09'","Std Transplant Care",-
"'G736'","'5/10/09 5/16/09'","Transplant Care",100.0
"'G736'","'5/10/09 5/16/09'","Transplant care: Trans. Coordinator*",100.0
"'G736'","'5/10/09 5/16/09'","Transplant care: Trans. Physician*",100.0
"'G736'","'5/10/09 5/16/09'","Transplant care: Transplant Surgeon*",100.0
"'G736'","'5/10/09 5/16/09'","Transplant care: Pat Resource Mnger*",100.0
"'G736'","'5/10/09 5/16/09'","Transplant care: Pharmacist*",100.0
"'G736'","'5/10/09 5/16/09'","Transplant team worked together*",100.0
"'G736'","'5/10/09 5/16/09'","Respect caring by transplant team*",100.0
"'Total'","'5/10/09 5/16/09'","Std Transplant Care",-
"'Total'","'5/10/09 5/16/09'","Transplant Care",100.0
"'Total'","'5/10/09 5/16/09'","Transplant care: Trans. Coordinator*",100.0
"'Total'","'5/10/09 5/16/09'","Transplant care: Trans. Physician*",100.0
"'Total'","'5/10/09 5/16/09'","Transplant care: Transplant Surgeon*",100.0
"'Total'","'5/10/09 5/16/09'","Transplant care: Pat Resource Mnger*",100.0
"'Total'","'5/10/09 5/16/09'","Transplant care: Pharmacist*",100.0
"'Total'","'5/10/09 5/16/09'","Transplant team worked together*",100.0
"'Total'","'5/10/09 5/16/09'","Respect caring by transplant team*",100.0
"'G732'","'6/7/09 6/13/09'","Std Transplant Care",-
"'G732'","'6/7/09 6/13/09'","Transplant Care",96.9
"'G732'","'6/7/09 6/13/09'","Transplant care: Trans. Coordinator*",75.0
"'G732'","'6/7/09 6/13/09'","Transplant care: Trans. Physician*",100.0
"'G732'","'6/7/09 6/13/09'","Transplant care: Transplant Surgeon*",100.0
"'G732'","'6/7/09 6/13/09'","Transplant care: Pat Resource Mnger*",100.0
"'G732'","'6/7/09 6/13/09'","Transplant care: Pharmacist*",100.0
"'G732'","'6/7/09 6/13/09'","Transplant care: Chaplain*",100.0
"'G732'","'6/7/09 6/13/09'","Transplant team worked together*",100.0
"'G732'","'6/7/09 6/13/09'","Respect caring by transplant team*",100.0
"'Total'","'6/7/09 6/13/09'","Std Transplant Care",-
"'Total'","'6/7/09 6/13/09'","Transplant Care",96.9
"'Total'","'6/7/09 6/13/09'","Transplant care: Trans. Coordinator*",75.0
"'Total'","'6/7/09 6/13/09'","Transplant care: Trans. Physician*",100.0
"'Total'","'6/7/09 6/13/09'","Transplant care: Transplant Surgeon*",100.0
"'Total'","'6/7/09 6/13/09'","Transplant care: Pat Resource Mnger*",100.0
"'Total'","'6/7/09 6/13/09'","Transplant care: Pharmacist*",100.0
"'Total'","'6/7/09 6/13/09'","Transplant care: Chaplain*",100.0
"'Total'","'6/7/09 6/13/09'","Transplant team worked together*",100.0
"'Total'","'6/7/09 6/13/09'","Respect caring by transplant team*",100.0
"'B495'","'6/14/09 6/20/09'","Std Transplant Care",-
"'B495'","'6/14/09 6/20/09'","Transplant Care",100.0
"'B495'","'6/14/09 6/20/09'","Transplant care: Clinic reception*",100.0
"'B495'","'6/14/09 6/20/09'","Transplant care: Finance Counselor*",100.0
"'B495'","'6/14/09 6/20/09'","Transplant care: Social Worker*",100.0
"'B495'","'6/14/09 6/20/09'","Transplant care: Trans. Coordinator*",100.0
"'B495'","'6/14/09 6/20/09'","Transplant care: Trans. Physician*",100.0
"'B495'","'6/14/09 6/20/09'","Transplant care: Transplant Surgeon*",100.0
"'B495'","'6/14/09 6/20/09'","Transplant care: Psychologist*",100.0
"'B495'","'6/14/09 6/20/09'","Transplant care: Pat Resource Mnger*",100.0
"'B495'","'6/14/09 6/20/09'","Transplant care: Nutritionist*",100.0
"'B495'","'6/14/09 6/20/09'","Transplant care: Pharmacist*",100.0
"'B495'","'6/14/09 6/20/09'","Transplant care: Chaplain*",100.0
"'B495'","'6/14/09 6/20/09'","Transplant team worked together*",100.0
"'B495'","'6/14/09 6/20/09'","Respect caring by transplant team*",100.0
"'Total'","'6/14/09 6/20/09'","Std Transplant Care",-
"'Total'","'6/14/09 6/20/09'","Transplant Care",100.0
"'Total'","'6/14/09 6/20/09'","Transplant care: Clinic reception*",100.0
"'Total'","'6/14/09 6/20/09'","Transplant care: Finance Counselor*",100.0
"'Total'","'6/14/09 6/20/09'","Transplant care: Social Worker*",100.0
"'Total'","'6/14/09 6/20/09'","Transplant care: Trans. Coordinator*",100.0
"'Total'","'6/14/09 6/20/09'","Transplant care: Trans. Physician*",100.0
"'Total'","'6/14/09 6/20/09'","Transplant care: Transplant Surgeon*",100.0
"'Total'","'6/14/09 6/20/09'","Transplant care: Psychologist*",100.0
"'Total'","'6/14/09 6/20/09'","Transplant care: Pat Resource Mnger*",100.0
"'Total'","'6/14/09 6/20/09'","Transplant care: Nutritionist*",100.0
"'Total'","'6/14/09 6/20/09'","Transplant care: Pharmacist*",100.0
"'Total'","'6/14/09 6/20/09'","Transplant care: Chaplain*",100.0
"'Total'","'6/14/09 6/20/09'","Transplant team worked together*",100.0
"'Total'","'6/14/09 6/20/09'","Respect caring by transplant team*",100.0
"'G763'","'6/28/09 7/4/09'","Std Transplant Care",-
"'G763'","'6/28/09 7/4/09'","Transplant Care",95.5
"'G763'","'6/28/09 7/4/09'","Transplant care: Clinic reception*",100.0
"'G763'","'6/28/09 7/4/09'","Transplant care: Finance Counselor*",100.0
"'G763'","'6/28/09 7/4/09'","Transplant care: Social Worker*",100.0
"'G763'","'6/28/09 7/4/09'","Transplant care: Trans. Coordinator*",100.0
"'G763'","'6/28/09 7/4/09'","Transplant care: Trans. Physician*",100.0
"'G763'","'6/28/09 7/4/09'","Transplant care: Transplant Surgeon*",100.0
"'G763'","'6/28/09 7/4/09'","Transplant care: Pat Resource Mnger*",100.0
"'G763'","'6/28/09 7/4/09'","Transplant care: Nutritionist*",75.0
"'G763'","'6/28/09 7/4/09'","Transplant care: Pharmacist*",75.0
"'G763'","'6/28/09 7/4/09'","Transplant team worked together*",100.0
"'G763'","'6/28/09 7/4/09'","Respect caring by transplant team*",100.0
"'G765'","'6/28/09 7/4/09'","Std Transplant Care",-
"'G765'","'6/28/09 7/4/09'","Transplant Care",97.2
"'G765'","'6/28/09 7/4/09'","Transplant care: Clinic reception*",100.0
"'G765'","'6/28/09 7/4/09'","Transplant care: Finance Counselor*",100.0
"'G765'","'6/28/09 7/4/09'","Transplant care: Social Worker*",75.0
"'G765'","'6/28/09 7/4/09'","Transplant care: Trans. Coordinator*",100.0
"'G765'","'6/28/09 7/4/09'","Transplant care: Trans. Physician*",100.0
"'G765'","'6/28/09 7/4/09'","Transplant care: Transplant Surgeon*",100.0
"'G765'","'6/28/09 7/4/09'","Transplant care: Pharmacist*",100.0
"'G765'","'6/28/09 7/4/09'","Transplant team worked together*",100.0
"'G765'","'6/28/09 7/4/09'","Respect caring by transplant team*",100.0
"'Total'","'6/28/09 7/4/09'","Std Transplant Care",-
"'Total'","'6/28/09 7/4/09'","Transplant Care",96.3
"'Total'","'6/28/09 7/4/09'","Transplant care: Clinic reception*",100.0
"'Total'","'6/28/09 7/4/09'","Transplant care: Finance Counselor*",100.0
"'Total'","'6/28/09 7/4/09'","Transplant care: Social Worker*",87.5
"'Total'","'6/28/09 7/4/09'","Transplant care: Trans. Coordinator*",100.0
"'Total'","'6/28/09 7/4/09'","Transplant care: Trans. Physician*",100.0
"'Total'","'6/28/09 7/4/09'","Transplant care: Transplant Surgeon*",100.0
"'Total'","'6/28/09 7/4/09'","Transplant care: Pat Resource Mnger*",100.0
"'Total'","'6/28/09 7/4/09'","Transplant care: Nutritionist*",75.0
"'Total'","'6/28/09 7/4/09'","Transplant care: Pharmacist*",87.5
"'Total'","'6/28/09 7/4/09'","Transplant team worked together*",100.0
"'Total'","'6/28/09 7/4/09'","Respect caring by transplant team*",100.0
"'G757'","'7/5/09 7/11/09'","Std Transplant Care",-
"'G757'","'7/5/09 7/11/09'","Transplant Care",100.0
"'G757'","'7/5/09 7/11/09'","Transplant care: Finance Counselor*",100.0
"'G757'","'7/5/09 7/11/09'","Transplant care: Social Worker*",100.0
"'G757'","'7/5/09 7/11/09'","Transplant care: Trans. Coordinator*",100.0
"'G757'","'7/5/09 7/11/09'","Transplant care: Trans. Physician*",100.0
"'G757'","'7/5/09 7/11/09'","Transplant care: Transplant Surgeon*",100.0
"'G757'","'7/5/09 7/11/09'","Transplant care: Pat Resource Mnger*",100.0
"'G757'","'7/5/09 7/11/09'","Transplant care: Nutritionist*",100.0
"'G757'","'7/5/09 7/11/09'","Transplant care: Pharmacist*",100.0
"'G757'","'7/5/09 7/11/09'","Transplant care: Chaplain*",100.0
"'G757'","'7/5/09 7/11/09'","Transplant team worked together*",100.0
"'G757'","'7/5/09 7/11/09'","Respect caring by transplant team*",100.0
"'Total'","'7/5/09 7/11/09'","Std Transplant Care",-
"'Total'","'7/5/09 7/11/09'","Transplant Care",100.0
"'Total'","'7/5/09 7/11/09'","Transplant care: Finance Counselor*",100.0
"'Total'","'7/5/09 7/11/09'","Transplant care: Social Worker*",100.0
"'Total'","'7/5/09 7/11/09'","Transplant care: Trans. Coordinator*",100.0
"'Total'","'7/5/09 7/11/09'","Transplant care: Trans. Physician*",100.0
"'Total'","'7/5/09 7/11/09'","Transplant care: Transplant Surgeon*",100.0
"'Total'","'7/5/09 7/11/09'","Transplant care: Pat Resource Mnger*",100.0
"'Total'","'7/5/09 7/11/09'","Transplant care: Nutritionist*",100.0
"'Total'","'7/5/09 7/11/09'","Transplant care: Pharmacist*",100.0
"'Total'","'7/5/09 7/11/09'","Transplant care: Chaplain*",100.0
"'Total'","'7/5/09 7/11/09'","Transplant team worked together*",100.0
"'Total'","'7/5/09 7/11/09'","Respect caring by transplant team*",100.0
"'B598'","'7/12/09 7/18/09'","Std Transplant Care",-
"'B598'","'7/12/09 7/18/09'","Transplant Care",97.2
"'B598'","'7/12/09 7/18/09'","Transplant care: Finance Counselor*",100.0
"'B598'","'7/12/09 7/18/09'","Transplant care: Social Worker*",100.0
"'B598'","'7/12/09 7/18/09'","Transplant care: Trans. Coordinator*",100.0
"'B598'","'7/12/09 7/18/09'","Transplant care: Trans. Physician*",100.0
"'B598'","'7/12/09 7/18/09'","Transplant care: Transplant Surgeon*",100.0
"'B598'","'7/12/09 7/18/09'","Transplant care: Pat Resource Mnger*",100.0
"'B598'","'7/12/09 7/18/09'","Transplant care: Nutritionist*",75.0
"'B598'","'7/12/09 7/18/09'","Transplant team worked together*",100.0
"'B598'","'7/12/09 7/18/09'","Respect caring by transplant team*",100.0
"'Total'","'7/12/09 7/18/09'","Std Transplant Care",-
"'Total'","'7/12/09 7/18/09'","Transplant Care",97.2
"'Total'","'7/12/09 7/18/09'","Transplant care: Finance Counselor*",100.0
"'Total'","'7/12/09 7/18/09'","Transplant care: Social Worker*",100.0
"'Total'","'7/12/09 7/18/09'","Transplant care: Trans. Coordinator*",100.0
"'Total'","'7/12/09 7/18/09'","Transplant care: Trans. Physician*",100.0
"'Total'","'7/12/09 7/18/09'","Transplant care: Transplant Surgeon*",100.0
"'Total'","'7/12/09 7/18/09'","Transplant care: Pat Resource Mnger*",100.0
"'Total'","'7/12/09 7/18/09'","Transplant care: Nutritionist*",75.0
"'Total'","'7/12/09 7/18/09'","Transplant team worked together*",100.0
"'Total'","'7/12/09 7/18/09'","Respect caring by transplant team*",100.0
"'G757'","'7/19/09 7/25/09'","Std Transplant Care",-
"'G757'","'7/19/09 7/25/09'","Transplant Care",92.9
"'G757'","'7/19/09 7/25/09'","Transplant care: Social Worker*",75.0
"'G757'","'7/19/09 7/25/09'","Transplant care: Trans. Coordinator*",75.0
"'G757'","'7/19/09 7/25/09'","Transplant care: Trans. Physician*",100.0
"'G757'","'7/19/09 7/25/09'","Transplant care: Transplant Surgeon*",100.0
"'G757'","'7/19/09 7/25/09'","Transplant care: Pharmacist*",100.0
"'G757'","'7/19/09 7/25/09'","Transplant team worked together*",100.0
"'G757'","'7/19/09 7/25/09'","Respect caring by transplant team*",100.0
"'Total'","'7/19/09 7/25/09'","Std Transplant Care",-
"'Total'","'7/19/09 7/25/09'","Transplant Care",92.9
"'Total'","'7/19/09 7/25/09'","Transplant care: Social Worker*",75.0
"'Total'","'7/19/09 7/25/09'","Transplant care: Trans. Coordinator*",75.0
"'Total'","'7/19/09 7/25/09'","Transplant care: Trans. Physician*",100.0
"'Total'","'7/19/09 7/25/09'","Transplant care: Transplant Surgeon*",100.0
"'Total'","'7/19/09 7/25/09'","Transplant care: Pharmacist*",100.0
"'Total'","'7/19/09 7/25/09'","Transplant team worked together*",100.0
"'Total'","'7/19/09 7/25/09'","Respect caring by transplant team*",100.0
"'G743'","'8/9/09 8/15/09'","Std Transplant Care",-
"'G743'","'8/9/09 8/15/09'","Transplant Care",100.0
"'G743'","'8/9/09 8/15/09'","Transplant care: Clinic reception*",100.0
"'G743'","'8/9/09 8/15/09'","Transplant care: Finance Counselor*",100.0
"'G743'","'8/9/09 8/15/09'","Transplant care: Social Worker*",100.0
"'G743'","'8/9/09 8/15/09'","Transplant care: Trans. Coordinator*",100.0
"'G743'","'8/9/09 8/15/09'","Transplant care: Trans. Physician*",100.0
"'G743'","'8/9/09 8/15/09'","Transplant care: Transplant Surgeon*",100.0
"'G743'","'8/9/09 8/15/09'","Transplant care: Pat Resource Mnger*",100.0
"'G743'","'8/9/09 8/15/09'","Transplant care: Nutritionist*",100.0
"'G743'","'8/9/09 8/15/09'","Transplant care: Pharmacist*",100.0
"'G743'","'8/9/09 8/15/09'","Transplant team worked together*",100.0
"'G743'","'8/9/09 8/15/09'","Respect caring by transplant team*",100.0
"'Total'","'8/9/09 8/15/09'","Std Transplant Care",-
"'Total'","'8/9/09 8/15/09'","Transplant Care",100.0
"'Total'","'8/9/09 8/15/09'","Transplant care: Clinic reception*",100.0
"'Total'","'8/9/09 8/15/09'","Transplant care: Finance Counselor*",100.0
"'Total'","'8/9/09 8/15/09'","Transplant care: Social Worker*",100.0
"'Total'","'8/9/09 8/15/09'","Transplant care: Trans. Coordinator*",100.0
"'Total'","'8/9/09 8/15/09'","Transplant care: Trans. Physician*",100.0
"'Total'","'8/9/09 8/15/09'","Transplant care: Transplant Surgeon*",100.0
"'Total'","'8/9/09 8/15/09'","Transplant care: Pat Resource Mnger*",100.0
"'Total'","'8/9/09 8/15/09'","Transplant care: Nutritionist*",100.0
"'Total'","'8/9/09 8/15/09'","Transplant care: Pharmacist*",100.0
"'Total'","'8/9/09 8/15/09'","Transplant team worked together*",100.0
"'Total'","'8/9/09 8/15/09'","Respect caring by transplant team*",100.0
"'B599'","'8/16/09 8/22/09'","Std Transplant Care",-
"'B599'","'8/16/09 8/22/09'","Transplant Care",72.2
"'B599'","'8/16/09 8/22/09'","Transplant care: Trans. Coordinator*",100.0
"'B599'","'8/16/09 8/22/09'","Transplant care: Trans. Physician*",100.0
"'B599'","'8/16/09 8/22/09'","Transplant care: Psychologist*",50.0
"'B599'","'8/16/09 8/22/09'","Transplant care: Pat Resource Mnger*",50.0
"'B599'","'8/16/09 8/22/09'","Transplant care: Nutritionist*",50.0
"'B599'","'8/16/09 8/22/09'","Transplant care: Pharmacist*",75.0
"'B599'","'8/16/09 8/22/09'","Transplant care: Chaplain*",50.0
"'B599'","'8/16/09 8/22/09'","Transplant team worked together*",75.0
"'B599'","'8/16/09 8/22/09'","Respect caring by transplant team*",100.0
"'G731'","'8/16/09 8/22/09'","Std Transplant Care",-
"'G731'","'8/16/09 8/22/09'","Transplant Care",75.0
"'G731'","'8/16/09 8/22/09'","Transplant care: Trans. Coordinator*",25.0
"'G731'","'8/16/09 8/22/09'","Transplant care: Trans. Physician*",100.0
"'G731'","'8/16/09 8/22/09'","Transplant care: Transplant Surgeon*",100.0
"'G731'","'8/16/09 8/22/09'","Transplant care: Pharmacist*",100.0
"'G731'","'8/16/09 8/22/09'","Transplant team worked together*",50.0
"'G731'","'8/16/09 8/22/09'","Respect caring by transplant team*",75.0
"'G745'","'8/16/09 8/22/09'","Std Transplant Care",-
"'G745'","'8/16/09 8/22/09'","Transplant Care",100.0
"'G745'","'8/16/09 8/22/09'","Transplant care: Clinic reception*",100.0
"'G745'","'8/16/09 8/22/09'","Transplant care: Finance Counselor*",100.0
"'G745'","'8/16/09 8/22/09'","Transplant care: Social Worker*",100.0
"'G745'","'8/16/09 8/22/09'","Transplant care: Trans. Coordinator*",100.0
"'G745'","'8/16/09 8/22/09'","Transplant care: Trans. Physician*",100.0
"'G745'","'8/16/09 8/22/09'","Transplant care: Transplant Surgeon*",100.0
"'G745'","'8/16/09 8/22/09'","Transplant care: Psychologist*",100.0
"'G745'","'8/16/09 8/22/09'","Transplant care: Pat Resource Mnger*",100.0
"'G745'","'8/16/09 8/22/09'","Transplant care: Nutritionist*",100.0
"'G745'","'8/16/09 8/22/09'","Transplant care: Pharmacist*",100.0
"'G745'","'8/16/09 8/22/09'","Transplant team worked together*",100.0
"'G745'","'8/16/09 8/22/09'","Respect caring by transplant team*",100.0
"'Total'","'8/16/09 8/22/09'","Std Transplant Care",-
"'Total'","'8/16/09 8/22/09'","Transplant Care",82.4
"'Total'","'8/16/09 8/22/09'","Transplant care: Clinic reception*",100.0
"'Total'","'8/16/09 8/22/09'","Transplant care: Finance Counselor*",100.0
"'Total'","'8/16/09 8/22/09'","Transplant care: Social Worker*",100.0
"'Total'","'8/16/09 8/22/09'","Transplant care: Trans. Coordinator*",75.0
"'Total'","'8/16/09 8/22/09'","Transplant care: Trans. Physician*",100.0
"'Total'","'8/16/09 8/22/09'","Transplant care: Transplant Surgeon*",100.0
"'Total'","'8/16/09 8/22/09'","Transplant care: Psychologist*",75.0
"'Total'","'8/16/09 8/22/09'","Transplant care: Pat Resource Mnger*",75.0
"'Total'","'8/16/09 8/22/09'","Transplant care: Nutritionist*",75.0
"'Total'","'8/16/09 8/22/09'","Transplant care: Pharmacist*",91.7
"'Total'","'8/16/09 8/22/09'","Transplant care: Chaplain*",50.0
"'Total'","'8/16/09 8/22/09'","Transplant team worked together*",75.0
"'Total'","'8/16/09 8/22/09'","Respect caring by transplant team*",91.7
"'G755'","'8/23/09 8/29/09'","Std Transplant Care",-
"'G755'","'8/23/09 8/29/09'","Transplant Care",100.0
"'G755'","'8/23/09 8/29/09'","Transplant care: Clinic reception*",100.0
"'G755'","'8/23/09 8/29/09'","Transplant care: Finance Counselor*",100.0
"'G755'","'8/23/09 8/29/09'","Transplant care: Social Worker*",100.0
"'G755'","'8/23/09 8/29/09'","Transplant care: Trans. Coordinator*",100.0
"'G755'","'8/23/09 8/29/09'","Transplant care: Trans. Physician*",100.0
"'G755'","'8/23/09 8/29/09'","Transplant care: Transplant Surgeon*",100.0
"'G755'","'8/23/09 8/29/09'","Transplant care: Psychologist*",100.0
"'G755'","'8/23/09 8/29/09'","Transplant care: Pat Resource Mnger*",100.0
"'G755'","'8/23/09 8/29/09'","Transplant care: Nutritionist*",100.0
"'G755'","'8/23/09 8/29/09'","Transplant care: Pharmacist*",100.0
"'G755'","'8/23/09 8/29/09'","Transplant care: Chaplain*",100.0
"'G755'","'8/23/09 8/29/09'","Transplant team worked together*",100.0
"'G755'","'8/23/09 8/29/09'","Respect caring by transplant team*",100.0
"'G748'","'8/23/09 8/29/09'","Std Transplant Care",-
"'G748'","'8/23/09 8/29/09'","Transplant Care",88.9
"'G748'","'8/23/09 8/29/09'","Transplant care: Clinic reception*",75.0
"'G748'","'8/23/09 8/29/09'","Transplant care: Finance Counselor*",75.0
"'G748'","'8/23/09 8/29/09'","Transplant care: Social Worker*",75.0
"'G748'","'8/23/09 8/29/09'","Transplant care: Trans. Coordinator*",100.0
"'G748'","'8/23/09 8/29/09'","Transplant care: Trans. Physician*",100.0
"'G748'","'8/23/09 8/29/09'","Transplant care: Transplant Surgeon*",100.0
"'G748'","'8/23/09 8/29/09'","Transplant care: Pharmacist*",75.0
"'G748'","'8/23/09 8/29/09'","Transplant team worked together*",100.0
"'G748'","'8/23/09 8/29/09'","Respect caring by transplant team*",100.0
"'B463'","'8/23/09 8/29/09'","Std Transplant Care",-
"'B463'","'8/23/09 8/29/09'","Transplant Care",90.6
"'B463'","'8/23/09 8/29/09'","Transplant care: Clinic reception*",75.0
"'B463'","'8/23/09 8/29/09'","Transplant care: Finance Counselor*",75.0
"'B463'","'8/23/09 8/29/09'","Transplant care: Trans. Coordinator*",100.0
"'B463'","'8/23/09 8/29/09'","Transplant care: Trans. Physician*",100.0
"'B463'","'8/23/09 8/29/09'","Transplant care: Transplant Surgeon*",100.0
"'B463'","'8/23/09 8/29/09'","Transplant care: Nutritionist*",75.0
"'B463'","'8/23/09 8/29/09'","Transplant team worked together*",100.0
"'B463'","'8/23/09 8/29/09'","Respect caring by transplant team*",100.0
"'Total'","'8/23/09 8/29/09'","Std Transplant Care",-
"'Total'","'8/23/09 8/29/09'","Transplant Care",93.2
"'Total'","'8/23/09 8/29/09'","Transplant care: Clinic reception*",83.3
"'Total'","'8/23/09 8/29/09'","Transplant care: Finance Counselor*",83.3
"'Total'","'8/23/09 8/29/09'","Transplant care: Social Worker*",87.5
"'Total'","'8/23/09 8/29/09'","Transplant care: Trans. Coordinator*",100.0
"'Total'","'8/23/09 8/29/09'","Transplant care: Trans. Physician*",100.0
"'Total'","'8/23/09 8/29/09'","Transplant care: Transplant Surgeon*",100.0
"'Total'","'8/23/09 8/29/09'","Transplant care: Psychologist*",100.0
"'Total'","'8/23/09 8/29/09'","Transplant care: Pat Resource Mnger*",100.0
"'Total'","'8/23/09 8/29/09'","Transplant care: Nutritionist*",87.5
"'Total'","'8/23/09 8/29/09'","Transplant care: Pharmacist*",87.5
"'Total'","'8/23/09 8/29/09'","Transplant care: Chaplain*",100.0
"'Total'","'8/23/09 8/29/09'","Transplant team worked together*",100.0
"'Total'","'8/23/09 8/29/09'","Respect caring by transplant team*",100.0
"'G732'","'8/30/09 9/5/09'","Std Transplant Care",-
"'G732'","'8/30/09 9/5/09'","Transplant Care",100.0
"'G732'","'8/30/09 9/5/09'","Transplant care: Clinic reception*",100.0
"'G732'","'8/30/09 9/5/09'","Transplant care: Finance Counselor*",100.0
"'G732'","'8/30/09 9/5/09'","Transplant care: Social Worker*",100.0
"'G732'","'8/30/09 9/5/09'","Transplant care: Trans. Coordinator*",100.0
"'G732'","'8/30/09 9/5/09'","Transplant care: Trans. Physician*",100.0
"'G732'","'8/30/09 9/5/09'","Transplant care: Transplant Surgeon*",100.0
"'G732'","'8/30/09 9/5/09'","Transplant care: Psychologist*",100.0
"'G732'","'8/30/09 9/5/09'","Transplant care: Pat Resource Mnger*",100.0
"'G732'","'8/30/09 9/5/09'","Transplant care: Nutritionist*",100.0
"'G732'","'8/30/09 9/5/09'","Transplant care: Pharmacist*",100.0
"'G732'","'8/30/09 9/5/09'","Transplant team worked together*",100.0
"'G732'","'8/30/09 9/5/09'","Respect caring by transplant team*",100.0
"'G731'","'8/30/09 9/5/09'","Std Transplant Care",-
"'G731'","'8/30/09 9/5/09'","Transplant Care",100.0
"'G731'","'8/30/09 9/5/09'","Transplant care: Clinic reception*",100.0
"'G731'","'8/30/09 9/5/09'","Transplant care: Finance Counselor*",100.0
"'G731'","'8/30/09 9/5/09'","Transplant care: Social Worker*",100.0
"'G731'","'8/30/09 9/5/09'","Transplant care: Trans. Coordinator*",100.0
"'G731'","'8/30/09 9/5/09'","Transplant care: Trans. Physician*",100.0
"'G731'","'8/30/09 9/5/09'","Transplant care: Transplant Surgeon*",100.0
"'G731'","'8/30/09 9/5/09'","Transplant care: Pat Resource Mnger*",100.0
"'G731'","'8/30/09 9/5/09'","Transplant care: Nutritionist*",100.0
"'G731'","'8/30/09 9/5/09'","Transplant care: Pharmacist*",100.0
"'G731'","'8/30/09 9/5/09'","Transplant team worked together*",100.0
"'G731'","'8/30/09 9/5/09'","Respect caring by transplant team*",100.0
"'G745'","'8/30/09 9/5/09'","Std Transplant Care",-
"'G745'","'8/30/09 9/5/09'","Transplant Care",97.2
"'G745'","'8/30/09 9/5/09'","Transplant care: Finance Counselor*",75.0
"'G745'","'8/30/09 9/5/09'","Transplant care: Social Worker*",100.0
"'G745'","'8/30/09 9/5/09'","Transplant care: Trans. Coordinator*",100.0
"'G745'","'8/30/09 9/5/09'","Transplant care: Trans. Physician*",100.0
"'G745'","'8/30/09 9/5/09'","Transplant care: Transplant Surgeon*",100.0
"'G745'","'8/30/09 9/5/09'","Transplant care: Pat Resource Mnger*",100.0
"'G745'","'8/30/09 9/5/09'","Transplant care: Nutritionist*",100.0
"'G745'","'8/30/09 9/5/09'","Transplant team worked together*",100.0
"'G745'","'8/30/09 9/5/09'","Respect caring by transplant team*",100.0
"'Total'","'8/30/09 9/5/09'","Std Transplant Care",-
"'Total'","'8/30/09 9/5/09'","Transplant Care",99.1
"'Total'","'8/30/09 9/5/09'","Transplant care: Clinic reception*",100.0
"'Total'","'8/30/09 9/5/09'","Transplant care: Finance Counselor*",91.7
"'Total'","'8/30/09 9/5/09'","Transplant care: Social Worker*",100.0
"'Total'","'8/30/09 9/5/09'","Transplant care: Trans. Coordinator*",100.0
"'Total'","'8/30/09 9/5/09'","Transplant care: Trans. Physician*",100.0
"'Total'","'8/30/09 9/5/09'","Transplant care: Transplant Surgeon*",100.0
"'Total'","'8/30/09 9/5/09'","Transplant care: Psychologist*",100.0
"'Total'","'8/30/09 9/5/09'","Transplant care: Pat Resource Mnger*",100.0
"'Total'","'8/30/09 9/5/09'","Transplant care: Nutritionist*",100.0
"'Total'","'8/30/09 9/5/09'","Transplant care: Pharmacist*",100.0
"'Total'","'8/30/09 9/5/09'","Transplant team worked together*",100.0
"'Total'","'8/30/09 9/5/09'","Respect caring by transplant team*",100.0
"'G732'","'9/6/09 9/12/09'","Std Transplant Care",-
"'G732'","'9/6/09 9/12/09'","Transplant Care",100.0
"'G732'","'9/6/09 9/12/09'","Transplant care: Clinic reception*",100.0
"'G732'","'9/6/09 9/12/09'","Transplant care: Finance Counselor*",100.0
"'G732'","'9/6/09 9/12/09'","Transplant care: Social Worker*",100.0
"'G732'","'9/6/09 9/12/09'","Transplant care: Trans. Coordinator*",100.0
"'G732'","'9/6/09 9/12/09'","Transplant care: Trans. Physician*",100.0
"'G732'","'9/6/09 9/12/09'","Transplant care: Transplant Surgeon*",100.0
"'G732'","'9/6/09 9/12/09'","Transplant care: Psychologist*",100.0
"'G732'","'9/6/09 9/12/09'","Transplant care: Pat Resource Mnger*",100.0
"'G732'","'9/6/09 9/12/09'","Transplant care: Nutritionist*",100.0
"'G732'","'9/6/09 9/12/09'","Transplant care: Pharmacist*",100.0
"'G732'","'9/6/09 9/12/09'","Transplant care: Chaplain*",100.0
"'G732'","'9/6/09 9/12/09'","Transplant team worked together*",100.0
"'G732'","'9/6/09 9/12/09'","Respect caring by transplant team*",100.0
"'G731'","'9/6/09 9/12/09'","Std Transplant Care",-
"'G731'","'9/6/09 9/12/09'","Transplant Care",100.0
"'G731'","'9/6/09 9/12/09'","Transplant care: Clinic reception*",100.0
"'G731'","'9/6/09 9/12/09'","Transplant care: Finance Counselor*",100.0
"'G731'","'9/6/09 9/12/09'","Transplant care: Social Worker*",100.0
"'G731'","'9/6/09 9/12/09'","Transplant care: Trans. Coordinator*",100.0
"'G731'","'9/6/09 9/12/09'","Transplant care: Transplant Surgeon*",100.0
"'G731'","'9/6/09 9/12/09'","Transplant care: Psychologist*",100.0
"'G731'","'9/6/09 9/12/09'","Transplant care: Pat Resource Mnger*",100.0
"'G731'","'9/6/09 9/12/09'","Transplant care: Nutritionist*",100.0
"'G731'","'9/6/09 9/12/09'","Transplant care: Pharmacist*",100.0
"'G731'","'9/6/09 9/12/09'","Transplant care: Chaplain*",100.0
"'G731'","'9/6/09 9/12/09'","Transplant team worked together*",100.0
"'G731'","'9/6/09 9/12/09'","Respect caring by transplant team*",100.0
"'Total'","'9/6/09 9/12/09'","Std Transplant Care",-
"'Total'","'9/6/09 9/12/09'","Transplant Care",100.0
"'Total'","'9/6/09 9/12/09'","Transplant care: Clinic reception*",100.0
"'Total'","'9/6/09 9/12/09'","Transplant care: Finance Counselor*",100.0
"'Total'","'9/6/09 9/12/09'","Transplant care: Social Worker*",100.0
"'Total'","'9/6/09 9/12/09'","Transplant care: Trans. Coordinator*",100.0
"'Total'","'9/6/09 9/12/09'","Transplant care: Trans. Physician*",100.0
"'Total'","'9/6/09 9/12/09'","Transplant care: Transplant Surgeon*",100.0
"'Total'","'9/6/09 9/12/09'","Transplant care: Psychologist*",100.0
"'Total'","'9/6/09 9/12/09'","Transplant care: Pat Resource Mnger*",100.0
"'Total'","'9/6/09 9/12/09'","Transplant care: Nutritionist*",100.0
"'Total'","'9/6/09 9/12/09'","Transplant care: Pharmacist*",100.0
"'Total'","'9/6/09 9/12/09'","Transplant care: Chaplain*",100.0
"'Total'","'9/6/09 9/12/09'","Transplant team worked together*",100.0
"'Total'","'9/6/09 9/12/09'","Respect caring by transplant team*",100.0
"'G758'","'9/20/09 9/26/09'","Std Transplant Care",-
"'G758'","'9/20/09 9/26/09'","Transplant Care",91.7
"'G758'","'9/20/09 9/26/09'","Transplant care: Clinic reception*",100.0
"'G758'","'9/20/09 9/26/09'","Transplant care: Trans. Coordinator*",100.0
"'G758'","'9/20/09 9/26/09'","Transplant care: Trans. Physician*",100.0
"'G758'","'9/20/09 9/26/09'","Transplant care: Transplant Surgeon*",100.0
"'G758'","'9/20/09 9/26/09'","Transplant care: Pat Resource Mnger*",100.0
"'G758'","'9/20/09 9/26/09'","Transplant care: Nutritionist*",50.0
"'G758'","'9/20/09 9/26/09'","Transplant care: Pharmacist*",75.0
"'G758'","'9/20/09 9/26/09'","Transplant team worked together*",100.0
"'G758'","'9/20/09 9/26/09'","Respect caring by transplant team*",100.0
"'G752'","'9/20/09 9/26/09'","Std Transplant Care",-
"'G752'","'9/20/09 9/26/09'","Transplant Care",91.7
"'G752'","'9/20/09 9/26/09'","Transplant care: Clinic reception*",100.0
"'G752'","'9/20/09 9/26/09'","Transplant care: Finance Counselor*",100.0
"'G752'","'9/20/09 9/26/09'","Transplant care: Trans. Coordinator*",75.0
"'G752'","'9/20/09 9/26/09'","Transplant care: Trans. Physician*",100.0
"'G752'","'9/20/09 9/26/09'","Transplant care: Transplant Surgeon*",100.0
"'G752'","'9/20/09 9/26/09'","Transplant care: Psychologist*",50.0
"'G752'","'9/20/09 9/26/09'","Transplant care: Pat Resource Mnger*",100.0
"'G752'","'9/20/09 9/26/09'","Transplant care: Nutritionist*",100.0
"'G752'","'9/20/09 9/26/09'","Transplant care: Pharmacist*",100.0
"'G752'","'9/20/09 9/26/09'","Transplant care: Chaplain*",100.0
"'G752'","'9/20/09 9/26/09'","Transplant team worked together*",100.0
"'G752'","'9/20/09 9/26/09'","Respect caring by transplant team*",75.0
"'Total'","'9/20/09 9/26/09'","Std Transplant Care",-
"'Total'","'9/20/09 9/26/09'","Transplant Care",91.7
"'Total'","'9/20/09 9/26/09'","Transplant care: Clinic reception*",100.0
"'Total'","'9/20/09 9/26/09'","Transplant care: Finance Counselor*",100.0
"'Total'","'9/20/09 9/26/09'","Transplant care: Trans. Coordinator*",87.5
"'Total'","'9/20/09 9/26/09'","Transplant care: Trans. Physician*",100.0
"'Total'","'9/20/09 9/26/09'","Transplant care: Transplant Surgeon*",100.0
"'Total'","'9/20/09 9/26/09'","Transplant care: Psychologist*",50.0
"'Total'","'9/20/09 9/26/09'","Transplant care: Pat Resource Mnger*",100.0
"'Total'","'9/20/09 9/26/09'","Transplant care: Nutritionist*",75.0
"'Total'","'9/20/09 9/26/09'","Transplant care: Pharmacist*",87.5
"'Total'","'9/20/09 9/26/09'","Transplant care: Chaplain*",100.0
"'Total'","'9/20/09 9/26/09'","Transplant team worked together*",100.0
"'Total'","'9/20/09 9/26/09'","Respect caring by transplant team*",87.5
"'G753'","'9/27/09 10/3/09'","Std Transplant Care",-
"'G753'","'9/27/09 10/3/09'","Transplant Care",88.5
"'G753'","'9/27/09 10/3/09'","Transplant care: Clinic reception*",100.0
"'G753'","'9/27/09 10/3/09'","Transplant care: Finance Counselor*",100.0
"'G753'","'9/27/09 10/3/09'","Transplant care: Social Worker*",100.0
"'G753'","'9/27/09 10/3/09'","Transplant care: Trans. Coordinator*",100.0
"'G753'","'9/27/09 10/3/09'","Transplant care: Trans. Physician*",100.0
"'G753'","'9/27/09 10/3/09'","Transplant care: Transplant Surgeon*",100.0
"'G753'","'9/27/09 10/3/09'","Transplant care: Psychologist*",50.0
"'G753'","'9/27/09 10/3/09'","Transplant care: Pat Resource Mnger*",100.0
"'G753'","'9/27/09 10/3/09'","Transplant care: Nutritionist*",50.0
"'G753'","'9/27/09 10/3/09'","Transplant care: Pharmacist*",100.0
"'G753'","'9/27/09 10/3/09'","Transplant care: Chaplain*",100.0
"'G753'","'9/27/09 10/3/09'","Transplant team worked together*",100.0
"'G753'","'9/27/09 10/3/09'","Respect caring by transplant team*",50.0
"'B476'","'9/27/09 10/3/09'","Std Transplant Care",-
"'B476'","'9/27/09 10/3/09'","Transplant Care",96.4
"'B476'","'9/27/09 10/3/09'","Transplant care: Finance Counselor*",100.0
"'B476'","'9/27/09 10/3/09'","Transplant care: Trans. Coordinator*",100.0
"'B476'","'9/27/09 10/3/09'","Transplant care: Trans. Physician*",100.0
"'B476'","'9/27/09 10/3/09'","Transplant care: Transplant Surgeon*",100.0
"'B476'","'9/27/09 10/3/09'","Transplant care: Nutritionist*",75.0
"'B476'","'9/27/09 10/3/09'","Transplant care: Pharmacist*",100.0
"'B476'","'9/27/09 10/3/09'","Transplant team worked together*",100.0
"'G739'","'9/27/09 10/3/09'","Std Transplant Care",-
"'G739'","'9/27/09 10/3/09'","Transplant Care",96.4
"'G739'","'9/27/09 10/3/09'","Transplant care: Clinic reception*",100.0
"'G739'","'9/27/09 10/3/09'","Transplant care: Trans. Coordinator*",100.0
"'G739'","'9/27/09 10/3/09'","Transplant care: Trans. Physician*",100.0
"'G739'","'9/27/09 10/3/09'","Transplant care: Transplant Surgeon*",100.0
"'G739'","'9/27/09 10/3/09'","Transplant care: Pharmacist*",75.0
"'G739'","'9/27/09 10/3/09'","Transplant team worked together*",100.0
"'G739'","'9/27/09 10/3/09'","Respect caring by transplant team*",100.0
"'G751'","'9/27/09 10/3/09'","Std Transplant Care",-
"'G751'","'9/27/09 10/3/09'","Transplant Care",100.0
"'G751'","'9/27/09 10/3/09'","Transplant care: Clinic reception*",100.0
"'G751'","'9/27/09 10/3/09'","Transplant care: Finance Counselor*",100.0
"'G751'","'9/27/09 10/3/09'","Transplant care: Social Worker*",100.0
"'G751'","'9/27/09 10/3/09'","Transplant care: Trans. Coordinator*",100.0
"'G751'","'9/27/09 10/3/09'","Transplant care: Trans. Physician*",100.0
"'G751'","'9/27/09 10/3/09'","Transplant care: Transplant Surgeon*",100.0
"'G751'","'9/27/09 10/3/09'","Transplant care: Pat Resource Mnger*",100.0
"'G751'","'9/27/09 10/3/09'","Transplant care: Nutritionist*",100.0
"'G751'","'9/27/09 10/3/09'","Transplant care: Pharmacist*",100.0
"'G751'","'9/27/09 10/3/09'","Transplant team worked together*",100.0
"'G751'","'9/27/09 10/3/09'","Respect caring by transplant team*",100.0
"'Total'","'9/27/09 10/3/09'","Std Transplant Care",-
"'Total'","'9/27/09 10/3/09'","Transplant Care",95.3
"'Total'","'9/27/09 10/3/09'","Transplant care: Clinic reception*",100.0
"'Total'","'9/27/09 10/3/09'","Transplant care: Finance Counselor*",100.0
"'Total'","'9/27/09 10/3/09'","Transplant care: Social Worker*",100.0
"'Total'","'9/27/09 10/3/09'","Transplant care: Trans. Coordinator*",100.0
"'Total'","'9/27/09 10/3/09'","Transplant care: Trans. Physician*",100.0
"'Total'","'9/27/09 10/3/09'","Transplant care: Transplant Surgeon*",100.0
"'Total'","'9/27/09 10/3/09'","Transplant care: Psychologist*",50.0
"'Total'","'9/27/09 10/3/09'","Transplant care: Pat Resource Mnger*",100.0
"'Total'","'9/27/09 10/3/09'","Transplant care: Nutritionist*",75.0
"'Total'","'9/27/09 10/3/09'","Transplant care: Pharmacist*",93.8
"'Total'","'9/27/09 10/3/09'","Transplant care: Chaplain*",100.0
"'Total'","'9/27/09 10/3/09'","Transplant team worked together*",100.0
"'Total'","'9/27/09 10/3/09'","Respect caring by transplant team*",83.3
"'G763'","'10/4/09 10/10/09'","Std Transplant Care",-
"'G763'","'10/4/09 10/10/09'","Transplant Care",95.0
"'G763'","'10/4/09 10/10/09'","Transplant care: Finance Counselor*",100.0
"'G763'","'10/4/09 10/10/09'","Transplant care: Social Worker*",100.0
"'G763'","'10/4/09 10/10/09'","Transplant care: Trans. Coordinator*",100.0
"'G763'","'10/4/09 10/10/09'","Transplant care: Trans. Physician*",100.0
"'G763'","'10/4/09 10/10/09'","Transplant care: Transplant Surgeon*",100.0
"'G763'","'10/4/09 10/10/09'","Transplant care: Pat Resource Mnger*",100.0
"'G763'","'10/4/09 10/10/09'","Transplant care: Nutritionist*",50.0
"'G763'","'10/4/09 10/10/09'","Transplant care: Pharmacist*",100.0
"'G763'","'10/4/09 10/10/09'","Transplant team worked together*",100.0
"'G763'","'10/4/09 10/10/09'","Respect caring by transplant team*",100.0
"'Total'","'10/4/09 10/10/09'","Std Transplant Care",-
"'Total'","'10/4/09 10/10/09'","Transplant Care",95.0
"'Total'","'10/4/09 10/10/09'","Transplant care: Finance Counselor*",100.0
"'Total'","'10/4/09 10/10/09'","Transplant care: Social Worker*",100.0
"'Total'","'10/4/09 10/10/09'","Transplant care: Trans. Coordinator*",100.0
"'Total'","'10/4/09 10/10/09'","Transplant care: Trans. Physician*",100.0
"'Total'","'10/4/09 10/10/09'","Transplant care: Transplant Surgeon*",100.0
"'Total'","'10/4/09 10/10/09'","Transplant care: Pat Resource Mnger*",100.0
"'Total'","'10/4/09 10/10/09'","Transplant care: Nutritionist*",50.0
"'Total'","'10/4/09 10/10/09'","Transplant care: Pharmacist*",100.0
"'Total'","'10/4/09 10/10/09'","Transplant team worked together*",100.0
"'Total'","'10/4/09 10/10/09'","Respect caring by transplant team*",100.0
"'G756'","'10/11/09 10/17/09'","Std Transplant Care",-
"'G756'","'10/11/09 10/17/09'","Transplant Care",100.0
"'G756'","'10/11/09 10/17/09'","Transplant care: Trans. Coordinator*",100.0
"'G756'","'10/11/09 10/17/09'","Transplant care: Trans. Physician*",100.0
"'G756'","'10/11/09 10/17/09'","Transplant care: Transplant Surgeon*",100.0
"'G756'","'10/11/09 10/17/09'","Transplant care: Pat Resource Mnger*",100.0
"'G756'","'10/11/09 10/17/09'","Transplant care: Nutritionist*",100.0
"'G756'","'10/11/09 10/17/09'","Transplant care: Pharmacist*",100.0
"'G756'","'10/11/09 10/17/09'","Transplant team worked together*",100.0
"'G756'","'10/11/09 10/17/09'","Respect caring by transplant team*",100.0
"'Total'","'10/11/09 10/17/09'","Std Transplant Care",-
"'Total'","'10/11/09 10/17/09'","Transplant Care",100.0
"'Total'","'10/11/09 10/17/09'","Transplant care: Trans. Coordinator*",100.0
"'Total'","'10/11/09 10/17/09'","Transplant care: Trans. Physician*",100.0
"'Total'","'10/11/09 10/17/09'","Transplant care: Transplant Surgeon*",100.0
"'Total'","'10/11/09 10/17/09'","Transplant care: Pat Resource Mnger*",100.0
"'Total'","'10/11/09 10/17/09'","Transplant care: Nutritionist*",100.0
"'Total'","'10/11/09 10/17/09'","Transplant care: Pharmacist*",100.0
"'Total'","'10/11/09 10/17/09'","Transplant team worked together*",100.0
"'Total'","'10/11/09 10/17/09'","Respect caring by transplant team*",100.0
"'G745'","'10/25/09 10/31/09'","Std Transplant Care",-
"'G745'","'10/25/09 10/31/09'","Transplant Care",92.9
"'G745'","'10/25/09 10/31/09'","Transplant care: Trans. Coordinator*",100.0
"'G745'","'10/25/09 10/31/09'","Transplant care: Trans. Physician*",100.0
"'G745'","'10/25/09 10/31/09'","Transplant care: Transplant Surgeon*",100.0
"'G745'","'10/25/09 10/31/09'","Transplant care: Psychologist*",75.0
"'G745'","'10/25/09 10/31/09'","Transplant care: Pharmacist*",75.0
"'G745'","'10/25/09 10/31/09'","Transplant team worked together*",100.0
"'G745'","'10/25/09 10/31/09'","Respect caring by transplant team*",100.0
"'Total'","'10/25/09 10/31/09'","Std Transplant Care",-
"'Total'","'10/25/09 10/31/09'","Transplant Care",92.9
"'Total'","'10/25/09 10/31/09'","Transplant care: Trans. Coordinator*",100.0
"'Total'","'10/25/09 10/31/09'","Transplant care: Trans. Physician*",100.0
"'Total'","'10/25/09 10/31/09'","Transplant care: Transplant Surgeon*",100.0
"'Total'","'10/25/09 10/31/09'","Transplant care: Psychologist*",75.0
"'Total'","'10/25/09 10/31/09'","Transplant care: Pharmacist*",75.0
"'Total'","'10/25/09 10/31/09'","Transplant team worked together*",100.0
"'Total'","'10/25/09 10/31/09'","Respect caring by transplant team*",100.0
"'B584'","'11/1/09 11/7/09'","Std Transplant Care",-
"'B584'","'11/1/09 11/7/09'","Transplant Care",100.0
"'B584'","'11/1/09 11/7/09'","Transplant care: Clinic reception*",100.0
"'B584'","'11/1/09 11/7/09'","Transplant care: Finance Counselor*",100.0
"'B584'","'11/1/09 11/7/09'","Transplant care: Social Worker*",100.0
"'B584'","'11/1/09 11/7/09'","Transplant care: Trans. Coordinator*",100.0
"'B584'","'11/1/09 11/7/09'","Transplant care: Trans. Physician*",100.0
"'B584'","'11/1/09 11/7/09'","Transplant care: Transplant Surgeon*",100.0
"'B584'","'11/1/09 11/7/09'","Transplant care: Pat Resource Mnger*",100.0
"'B584'","'11/1/09 11/7/09'","Transplant care: Nutritionist*",100.0
"'B584'","'11/1/09 11/7/09'","Transplant care: Pharmacist*",100.0
"'B584'","'11/1/09 11/7/09'","Transplant care: Chaplain*",100.0
"'B584'","'11/1/09 11/7/09'","Transplant team worked together*",100.0
"'B584'","'11/1/09 11/7/09'","Respect caring by transplant team*",100.0
"'Total'","'11/1/09 11/7/09'","Std Transplant Care",-
"'Total'","'11/1/09 11/7/09'","Transplant Care",100.0
"'Total'","'11/1/09 11/7/09'","Transplant care: Clinic reception*",100.0
"'Total'","'11/1/09 11/7/09'","Transplant care: Finance Counselor*",100.0
"'Total'","'11/1/09 11/7/09'","Transplant care: Social Worker*",100.0
"'Total'","'11/1/09 11/7/09'","Transplant care: Trans. Coordinator*",100.0
"'Total'","'11/1/09 11/7/09'","Transplant care: Trans. Physician*",100.0
"'Total'","'11/1/09 11/7/09'","Transplant care: Transplant Surgeon*",100.0
"'Total'","'11/1/09 11/7/09'","Transplant care: Pat Resource Mnger*",100.0
"'Total'","'11/1/09 11/7/09'","Transplant care: Nutritionist*",100.0
"'Total'","'11/1/09 11/7/09'","Transplant care: Pharmacist*",100.0
"'Total'","'11/1/09 11/7/09'","Transplant care: Chaplain*",100.0
"'Total'","'11/1/09 11/7/09'","Transplant team worked together*",100.0
"'Total'","'11/1/09 11/7/09'","Respect caring by transplant team*",100.0
"'G748'","'11/8/09 11/14/09'","Std Transplant Care",-
"'G748'","'11/8/09 11/14/09'","Transplant Care",75.0
"'G748'","'11/8/09 11/14/09'","Transplant care: Social Worker*",75.0
"'G748'","'11/8/09 11/14/09'","Transplant care: Trans. Coordinator*",75.0
"'G748'","'11/8/09 11/14/09'","Transplant care: Trans. Physician*",75.0
"'G748'","'11/8/09 11/14/09'","Transplant care: Transplant Surgeon*",75.0
"'G748'","'11/8/09 11/14/09'","Transplant team worked together*",75.0
"'G748'","'11/8/09 11/14/09'","Respect caring by transplant team*",75.0
"'B591'","'11/8/09 11/14/09'","Std Transplant Care",-
"'B591'","'11/8/09 11/14/09'","Transplant Care",56.3
"'B591'","'11/8/09 11/14/09'","Transplant care: Clinic reception*",50.0
"'B591'","'11/8/09 11/14/09'","Transplant care: Finance Counselor*",25.0
"'B591'","'11/8/09 11/14/09'","Transplant care: Social Worker*",25.0
"'B591'","'11/8/09 11/14/09'","Transplant care: Trans. Coordinator*",75.0
"'B591'","'11/8/09 11/14/09'","Transplant care: Trans. Physician*",75.0
"'B591'","'11/8/09 11/14/09'","Transplant care: Transplant Surgeon*",75.0
"'B591'","'11/8/09 11/14/09'","Transplant care: Psychologist*",25.0
"'B591'","'11/8/09 11/14/09'","Transplant care: Pat Resource Mnger*",50.0
"'B591'","'11/8/09 11/14/09'","Transplant care: Nutritionist*",75.0
"'B591'","'11/8/09 11/14/09'","Transplant care: Chaplain*",75.0
"'B591'","'11/8/09 11/14/09'","Transplant team worked together*",75.0
"'B591'","'11/8/09 11/14/09'","Respect caring by transplant team*",50.0
"'Total'","'11/8/09 11/14/09'","Std Transplant Care",-
"'Total'","'11/8/09 11/14/09'","Transplant Care",65.6
"'Total'","'11/8/09 11/14/09'","Transplant care: Clinic reception*",50.0
"'Total'","'11/8/09 11/14/09'","Transplant care: Finance Counselor*",25.0
"'Total'","'11/8/09 11/14/09'","Transplant care: Social Worker*",50.0
"'Total'","'11/8/09 11/14/09'","Transplant care: Trans. Coordinator*",75.0
"'Total'","'11/8/09 11/14/09'","Transplant care: Trans. Physician*",75.0
"'Total'","'11/8/09 11/14/09'","Transplant care: Transplant Surgeon*",75.0
"'Total'","'11/8/09 11/14/09'","Transplant care: Psychologist*",25.0
"'Total'","'11/8/09 11/14/09'","Transplant care: Pat Resource Mnger*",50.0
"'Total'","'11/8/09 11/14/09'","Transplant care: Nutritionist*",75.0
"'Total'","'11/8/09 11/14/09'","Transplant care: Chaplain*",75.0
"'Total'","'11/8/09 11/14/09'","Transplant team worked together*",75.0
"'Total'","'11/8/09 11/14/09'","Respect caring by transplant team*",62.5
"'G733'","'12/6/09 12/12/09'","Std Transplant Care",-
"'G733'","'12/6/09 12/12/09'","Transplant Care",65.9
"'G733'","'12/6/09 12/12/09'","Transplant care: Clinic reception*",50.0
"'G733'","'12/6/09 12/12/09'","Transplant care: Finance Counselor*",25.0
"'G733'","'12/6/09 12/12/09'","Transplant care: Social Worker*",50.0
"'G733'","'12/6/09 12/12/09'","Transplant care: Trans. Coordinator*",25.0
"'G733'","'12/6/09 12/12/09'","Transplant care: Trans. Physician*",100.0
"'G733'","'12/6/09 12/12/09'","Transplant care: Transplant Surgeon*",100.0
"'G733'","'12/6/09 12/12/09'","Transplant care: Psychologist*",50.0
"'G733'","'12/6/09 12/12/09'","Transplant care: Pat Resource Mnger*",100.0
"'G733'","'12/6/09 12/12/09'","Transplant care: Chaplain*",75.0
"'G733'","'12/6/09 12/12/09'","Transplant team worked together*",75.0
"'G733'","'12/6/09 12/12/09'","Respect caring by transplant team*",75.0
"'Total'","'12/6/09 12/12/09'","Std Transplant Care",-
"'Total'","'12/6/09 12/12/09'","Transplant Care",65.9
"'Total'","'12/6/09 12/12/09'","Transplant care: Clinic reception*",50.0
"'Total'","'12/6/09 12/12/09'","Transplant care: Finance Counselor*",25.0
"'Total'","'12/6/09 12/12/09'","Transplant care: Social Worker*",50.0
"'Total'","'12/6/09 12/12/09'","Transplant care: Trans. Coordinator*",25.0
"'Total'","'12/6/09 12/12/09'","Transplant care: Trans. Physician*",100.0
"'Total'","'12/6/09 12/12/09'","Transplant care: Transplant Surgeon*",100.0
"'Total'","'12/6/09 12/12/09'","Transplant care: Psychologist*",50.0
"'Total'","'12/6/09 12/12/09'","Transplant care: Pat Resource Mnger*",100.0
"'Total'","'12/6/09 12/12/09'","Transplant care: Chaplain*",75.0
"'Total'","'12/6/09 12/12/09'","Transplant team worked together*",75.0
"'Total'","'12/6/09 12/12/09'","Respect caring by transplant team*",75.0
"'G755'","'12/13/09 12/19/09'","Std Transplant Care",-
"'G755'","'12/13/09 12/19/09'","Transplant Care",100.0
"'G755'","'12/13/09 12/19/09'","Transplant care: Clinic reception*",100.0
"'G755'","'12/13/09 12/19/09'","Transplant care: Finance Counselor*",100.0
"'G755'","'12/13/09 12/19/09'","Transplant care: Social Worker*",100.0
"'G755'","'12/13/09 12/19/09'","Transplant care: Trans. Coordinator*",100.0
"'G755'","'12/13/09 12/19/09'","Transplant care: Trans. Physician*",100.0
"'G755'","'12/13/09 12/19/09'","Transplant care: Transplant Surgeon*",100.0
"'G755'","'12/13/09 12/19/09'","Transplant care: Psychologist*",100.0
"'G755'","'12/13/09 12/19/09'","Transplant care: Pat Resource Mnger*",100.0
"'G755'","'12/13/09 12/19/09'","Transplant care: Nutritionist*",100.0
"'G755'","'12/13/09 12/19/09'","Transplant care: Pharmacist*",100.0
"'G755'","'12/13/09 12/19/09'","Transplant care: Chaplain*",100.0
"'G755'","'12/13/09 12/19/09'","Transplant team worked together*",100.0
"'G755'","'12/13/09 12/19/09'","Respect caring by transplant team*",100.0
"'B471'","'12/13/09 12/19/09'","Std Transplant Care",-
"'B471'","'12/13/09 12/19/09'","Transplant Care",100.0
"'B471'","'12/13/09 12/19/09'","Transplant care: Clinic reception*",100.0
"'B471'","'12/13/09 12/19/09'","Transplant care: Finance Counselor*",100.0
"'B471'","'12/13/09 12/19/09'","Transplant care: Social Worker*",100.0
"'B471'","'12/13/09 12/19/09'","Transplant care: Trans. Coordinator*",100.0
"'B471'","'12/13/09 12/19/09'","Transplant care: Trans. Physician*",100.0
"'B471'","'12/13/09 12/19/09'","Transplant care: Transplant Surgeon*",100.0
"'B471'","'12/13/09 12/19/09'","Transplant care: Psychologist*",100.0
"'B471'","'12/13/09 12/19/09'","Transplant care: Pat Resource Mnger*",100.0
"'B471'","'12/13/09 12/19/09'","Transplant care: Nutritionist*",100.0
"'B471'","'12/13/09 12/19/09'","Transplant care: Pharmacist*",100.0
"'B471'","'12/13/09 12/19/09'","Transplant care: Chaplain*",100.0
"'B471'","'12/13/09 12/19/09'","Transplant team worked together*",100.0
"'B471'","'12/13/09 12/19/09'","Respect caring by transplant team*",100.0
"'G751'","'12/13/09 12/19/09'","Std Transplant Care",-
"'G751'","'12/13/09 12/19/09'","Transplant Care",100.0
"'G751'","'12/13/09 12/19/09'","Transplant care: Clinic reception*",100.0
"'G751'","'12/13/09 12/19/09'","Transplant care: Finance Counselor*",100.0
"'G751'","'12/13/09 12/19/09'","Transplant care: Social Worker*",100.0
"'G751'","'12/13/09 12/19/09'","Transplant care: Trans. Coordinator*",100.0
"'G751'","'12/13/09 12/19/09'","Transplant care: Trans. Physician*",100.0
"'G751'","'12/13/09 12/19/09'","Transplant care: Transplant Surgeon*",100.0
"'G751'","'12/13/09 12/19/09'","Transplant care: Pat Resource Mnger*",100.0
"'G751'","'12/13/09 12/19/09'","Transplant care: Nutritionist*",100.0
"'G751'","'12/13/09 12/19/09'","Transplant care: Pharmacist*",100.0
"'G751'","'12/13/09 12/19/09'","Transplant team worked together*",100.0
"'G751'","'12/13/09 12/19/09'","Respect caring by transplant team*",100.0
"'Total'","'12/13/09 12/19/09'","Std Transplant Care",-
"'Total'","'12/13/09 12/19/09'","Transplant Care",100.0
"'Total'","'12/13/09 12/19/09'","Transplant care: Clinic reception*",100.0
"'Total'","'12/13/09 12/19/09'","Transplant care: Finance Counselor*",100.0
"'Total'","'12/13/09 12/19/09'","Transplant care: Social Worker*",100.0
"'Total'","'12/13/09 12/19/09'","Transplant care: Trans. Coordinator*",100.0
"'Total'","'12/13/09 12/19/09'","Transplant care: Trans. Physician*",100.0
"'Total'","'12/13/09 12/19/09'","Transplant care: Transplant Surgeon*",100.0
"'Total'","'12/13/09 12/19/09'","Transplant care: Psychologist*",100.0
"'Total'","'12/13/09 12/19/09'","Transplant care: Pat Resource Mnger*",100.0
"'Total'","'12/13/09 12/19/09'","Transplant care: Nutritionist*",100.0
"'Total'","'12/13/09 12/19/09'","Transplant care: Pharmacist*",100.0
"'Total'","'12/13/09 12/19/09'","Transplant care: Chaplain*",100.0
"'Total'","'12/13/09 12/19/09'","Transplant team worked together*",100.0
"'Total'","'12/13/09 12/19/09'","Respect caring by transplant team*",100.0
"'G755'","'Total'","Std Transplant Care",-
"'G755'","'Total'","Transplant Care",100.0
"'G755'","'Total'","Transplant care: Clinic reception*",100.0
"'G755'","'Total'","Transplant care: Finance Counselor*",100.0
"'G755'","'Total'","Transplant care: Social Worker*",100.0
"'G755'","'Total'","Transplant care: Trans. Coordinator*",100.0
"'G755'","'Total'","Transplant care: Trans. Physician*",100.0
"'G755'","'Total'","Transplant care: Transplant Surgeon*",100.0
"'G755'","'Total'","Transplant care: Psychologist*",100.0
"'G755'","'Total'","Transplant care: Pat Resource Mnger*",100.0
"'G755'","'Total'","Transplant care: Nutritionist*",100.0
"'G755'","'Total'","Transplant care: Pharmacist*",100.0
"'G755'","'Total'","Transplant care: Chaplain*",100.0
"'G755'","'Total'","Transplant team worked together*",100.0
"'G755'","'Total'","Respect caring by transplant team*",100.0
"'B584'","'Total'","Std Transplant Care",-
"'B584'","'Total'","Transplant Care",100.0
"'B584'","'Total'","Transplant care: Clinic reception*",100.0
"'B584'","'Total'","Transplant care: Finance Counselor*",100.0
"'B584'","'Total'","Transplant care: Social Worker*",100.0
"'B584'","'Total'","Transplant care: Trans. Coordinator*",100.0
"'B584'","'Total'","Transplant care: Trans. Physician*",100.0
"'B584'","'Total'","Transplant care: Transplant Surgeon*",100.0
"'B584'","'Total'","Transplant care: Pat Resource Mnger*",100.0
"'B584'","'Total'","Transplant care: Nutritionist*",100.0
"'B584'","'Total'","Transplant care: Pharmacist*",100.0
"'B584'","'Total'","Transplant care: Chaplain*",100.0
"'B584'","'Total'","Transplant team worked together*",100.0
"'B584'","'Total'","Respect caring by transplant team*",100.0
"'G756'","'Total'","Std Transplant Care",-
"'G756'","'Total'","Transplant Care",100.0
"'G756'","'Total'","Transplant care: Trans. Coordinator*",100.0
"'G756'","'Total'","Transplant care: Trans. Physician*",100.0
"'G756'","'Total'","Transplant care: Transplant Surgeon*",100.0
"'G756'","'Total'","Transplant care: Pat Resource Mnger*",100.0
"'G756'","'Total'","Transplant care: Nutritionist*",100.0
"'G756'","'Total'","Transplant care: Pharmacist*",100.0
"'G756'","'Total'","Transplant team worked together*",100.0
"'G756'","'Total'","Respect caring by transplant team*",100.0
"'B480'","'Total'","Std Transplant Care",-
"'B480'","'Total'","Transplant Care",100.0
"'B480'","'Total'","Transplant care: Clinic reception*",100.0
"'B480'","'Total'","Transplant care: Finance Counselor*",100.0
"'B480'","'Total'","Transplant care: Social Worker*",100.0
"'B480'","'Total'","Transplant care: Trans. Coordinator*",100.0
"'B480'","'Total'","Transplant care: Trans. Physician*",100.0
"'B480'","'Total'","Transplant care: Transplant Surgeon*",100.0
"'B480'","'Total'","Transplant care: Psychologist*",100.0
"'B480'","'Total'","Transplant care: Pat Resource Mnger*",100.0
"'B480'","'Total'","Transplant care: Nutritionist*",100.0
"'B480'","'Total'","Transplant care: Pharmacist*",100.0
"'B480'","'Total'","Transplant care: Chaplain*",100.0
"'B480'","'Total'","Transplant team worked together*",100.0
"'B480'","'Total'","Respect caring by transplant team*",100.0
"'B495'","'Total'","Std Transplant Care",-
"'B495'","'Total'","Transplant Care",100.0
"'B495'","'Total'","Transplant care: Clinic reception*",100.0
"'B495'","'Total'","Transplant care: Finance Counselor*",100.0
"'B495'","'Total'","Transplant care: Social Worker*",100.0
"'B495'","'Total'","Transplant care: Trans. Coordinator*",100.0
"'B495'","'Total'","Transplant care: Trans. Physician*",100.0
"'B495'","'Total'","Transplant care: Transplant Surgeon*",100.0
"'B495'","'Total'","Transplant care: Psychologist*",100.0
"'B495'","'Total'","Transplant care: Pat Resource Mnger*",100.0
"'B495'","'Total'","Transplant care: Nutritionist*",100.0
"'B495'","'Total'","Transplant care: Pharmacist*",100.0
"'B495'","'Total'","Transplant care: Chaplain*",100.0
"'B495'","'Total'","Transplant team worked together*",100.0
"'B495'","'Total'","Respect caring by transplant team*",100.0
"'B471'","'Total'","Std Transplant Care",-
"'B471'","'Total'","Transplant Care",100.0
"'B471'","'Total'","Transplant care: Clinic reception*",100.0
"'B471'","'Total'","Transplant care: Finance Counselor*",100.0
"'B471'","'Total'","Transplant care: Social Worker*",100.0
"'B471'","'Total'","Transplant care: Trans. Coordinator*",100.0
"'B471'","'Total'","Transplant care: Trans. Physician*",100.0
"'B471'","'Total'","Transplant care: Transplant Surgeon*",100.0
"'B471'","'Total'","Transplant care: Psychologist*",100.0
"'B471'","'Total'","Transplant care: Pat Resource Mnger*",100.0
"'B471'","'Total'","Transplant care: Nutritionist*",100.0
"'B471'","'Total'","Transplant care: Pharmacist*",100.0
"'B471'","'Total'","Transplant care: Chaplain*",100.0
"'B471'","'Total'","Transplant team worked together*",100.0
"'B471'","'Total'","Respect caring by transplant team*",100.0
"'G753'","'Total'","Std Transplant Care",-
"'G753'","'Total'","Transplant Care",88.7
"'G753'","'Total'","Transplant care: Clinic reception*",91.7
"'G753'","'Total'","Transplant care: Finance Counselor*",91.7
"'G753'","'Total'","Transplant care: Social Worker*",83.3
"'G753'","'Total'","Transplant care: Trans. Coordinator*",91.7
"'G753'","'Total'","Transplant care: Trans. Physician*",100.0
"'G753'","'Total'","Transplant care: Transplant Surgeon*",100.0
"'G753'","'Total'","Transplant care: Psychologist*",75.0
"'G753'","'Total'","Transplant care: Pat Resource Mnger*",100.0
"'G753'","'Total'","Transplant care: Nutritionist*",58.3
"'G753'","'Total'","Transplant care: Pharmacist*",91.7
"'G753'","'Total'","Transplant care: Chaplain*",100.0
"'G753'","'Total'","Transplant team worked together*",100.0
"'G753'","'Total'","Respect caring by transplant team*",83.3
"'G741'","'Total'","Std Transplant Care",-
"'G741'","'Total'","Transplant Care",100.0
"'G741'","'Total'","Transplant care: Clinic reception*",100.0
"'G741'","'Total'","Transplant care: Finance Counselor*",100.0
"'G741'","'Total'","Transplant care: Social Worker*",100.0
"'G741'","'Total'","Transplant care: Trans. Coordinator*",100.0
"'G741'","'Total'","Transplant care: Trans. Physician*",100.0
"'G741'","'Total'","Transplant care: Transplant Surgeon*",100.0
"'G741'","'Total'","Transplant care: Pharmacist*",100.0
"'G741'","'Total'","Transplant team worked together*",100.0
"'G741'","'Total'","Respect caring by transplant team*",100.0
"'G732'","'Total'","Std Transplant Care",-
"'G732'","'Total'","Transplant Care",91.7
"'G732'","'Total'","Transplant care: Clinic reception*",91.7
"'G732'","'Total'","Transplant care: Finance Counselor*",81.3
"'G732'","'Total'","Transplant care: Social Worker*",81.3
"'G732'","'Total'","Transplant care: Trans. Coordinator*",85.0
"'G732'","'Total'","Transplant care: Trans. Physician*",95.0
"'G732'","'Total'","Transplant care: Transplant Surgeon*",95.0
"'G732'","'Total'","Transplant care: Psychologist*",91.7
"'G732'","'Total'","Transplant care: Pat Resource Mnger*",100.0
"'G732'","'Total'","Transplant care: Nutritionist*",87.5
"'G732'","'Total'","Transplant care: Pharmacist*",95.0
"'G732'","'Total'","Transplant care: Chaplain*",100.0
"'G732'","'Total'","Transplant team worked together*",95.0
"'G732'","'Total'","Respect caring by transplant team*",93.8
"'G757'","'Total'","Std Transplant Care",-
"'G757'","'Total'","Transplant Care",93.9
"'G757'","'Total'","Transplant care: Finance Counselor*",100.0
"'G757'","'Total'","Transplant care: Social Worker*",91.7
"'G757'","'Total'","Transplant care: Trans. Coordinator*",91.7
"'G757'","'Total'","Transplant care: Trans. Physician*",100.0
"'G757'","'Total'","Transplant care: Transplant Surgeon*",100.0
"'G757'","'Total'","Transplant care: Pat Resource Mnger*",100.0
"'G757'","'Total'","Transplant care: Nutritionist*",75.0
"'G757'","'Total'","Transplant care: Pharmacist*",100.0
"'G757'","'Total'","Transplant care: Chaplain*",75.0
"'G757'","'Total'","Transplant team worked together*",100.0
"'G757'","'Total'","Respect caring by transplant team*",100.0
"'G748'","'Total'","Std Transplant Care",-
"'G748'","'Total'","Transplant Care",81.9
"'G748'","'Total'","Transplant care: Clinic reception*",75.0
"'G748'","'Total'","Transplant care: Finance Counselor*",75.0
"'G748'","'Total'","Transplant care: Social Worker*",75.0
"'G748'","'Total'","Transplant care: Trans. Coordinator*",87.5
"'G748'","'Total'","Transplant care: Trans. Physician*",87.5
"'G748'","'Total'","Transplant care: Transplant Surgeon*",87.5
"'G748'","'Total'","Transplant care: Pharmacist*",75.0
"'G748'","'Total'","Transplant team worked together*",87.5
"'G748'","'Total'","Respect caring by transplant team*",87.5
"'B598'","'Total'","Std Transplant Care",-
"'B598'","'Total'","Transplant Care",97.2
"'B598'","'Total'","Transplant care: Finance Counselor*",100.0
"'B598'","'Total'","Transplant care: Social Worker*",100.0
"'B598'","'Total'","Transplant care: Trans. Coordinator*",100.0
"'B598'","'Total'","Transplant care: Trans. Physician*",100.0
"'B598'","'Total'","Transplant care: Transplant Surgeon*",100.0
"'B598'","'Total'","Transplant care: Pat Resource Mnger*",100.0
"'B598'","'Total'","Transplant care: Nutritionist*",75.0
"'B598'","'Total'","Transplant team worked together*",100.0
"'B598'","'Total'","Respect caring by transplant team*",100.0
"'G743'","'Total'","Std Transplant Care",-
"'G743'","'Total'","Transplant Care",100.0
"'G743'","'Total'","Transplant care: Clinic reception*",100.0
"'G743'","'Total'","Transplant care: Finance Counselor*",100.0
"'G743'","'Total'","Transplant care: Social Worker*",100.0
"'G743'","'Total'","Transplant care: Trans. Coordinator*",100.0
"'G743'","'Total'","Transplant care: Trans. Physician*",100.0
"'G743'","'Total'","Transplant care: Transplant Surgeon*",100.0
"'G743'","'Total'","Transplant care: Pat Resource Mnger*",100.0
"'G743'","'Total'","Transplant care: Nutritionist*",100.0
"'G743'","'Total'","Transplant care: Pharmacist*",100.0
"'G743'","'Total'","Transplant team worked together*",100.0
"'G743'","'Total'","Respect caring by transplant team*",100.0
"'B591'","'Total'","Std Transplant Care",-
"'B591'","'Total'","Transplant Care",56.3
"'B591'","'Total'","Transplant care: Clinic reception*",50.0
"'B591'","'Total'","Transplant care: Finance Counselor*",25.0
"'B591'","'Total'","Transplant care: Social Worker*",25.0
"'B591'","'Total'","Transplant care: Trans. Coordinator*",75.0
"'B591'","'Total'","Transplant care: Trans. Physician*",75.0
"'B591'","'Total'","Transplant care: Transplant Surgeon*",75.0
"'B591'","'Total'","Transplant care: Psychologist*",25.0
"'B591'","'Total'","Transplant care: Pat Resource Mnger*",50.0
"'B591'","'Total'","Transplant care: Nutritionist*",75.0
"'B591'","'Total'","Transplant care: Chaplain*",75.0
"'B591'","'Total'","Transplant team worked together*",75.0
"'B591'","'Total'","Respect caring by transplant team*",50.0
"'G758'","'Total'","Std Transplant Care",-
"'G758'","'Total'","Transplant Care",91.7
"'G758'","'Total'","Transplant care: Clinic reception*",100.0
"'G758'","'Total'","Transplant care: Trans. Coordinator*",100.0
"'G758'","'Total'","Transplant care: Trans. Physician*",100.0
"'G758'","'Total'","Transplant care: Transplant Surgeon*",100.0
"'G758'","'Total'","Transplant care: Pat Resource Mnger*",100.0
"'G758'","'Total'","Transplant care: Nutritionist*",50.0
"'G758'","'Total'","Transplant care: Pharmacist*",75.0
"'G758'","'Total'","Transplant team worked together*",100.0
"'G758'","'Total'","Respect caring by transplant team*",100.0
"'G749'","'Total'","Std Transplant Care",-
"'G749'","'Total'","Transplant Care",100.0
"'G749'","'Total'","Transplant care: Clinic reception*",100.0
"'G749'","'Total'","Transplant care: Finance Counselor*",100.0
"'G749'","'Total'","Transplant care: Social Worker*",100.0
"'G749'","'Total'","Transplant care: Trans. Coordinator*",100.0
"'G749'","'Total'","Transplant care: Trans. Physician*",100.0
"'G749'","'Total'","Transplant care: Transplant Surgeon*",100.0
"'G749'","'Total'","Transplant care: Psychologist*",100.0
"'G749'","'Total'","Transplant care: Pat Resource Mnger*",100.0
"'G749'","'Total'","Transplant care: Nutritionist*",100.0
"'G749'","'Total'","Transplant care: Pharmacist*",100.0
"'G749'","'Total'","Transplant care: Chaplain*",100.0
"'G749'","'Total'","Transplant team worked together*",100.0
"'G749'","'Total'","Respect caring by transplant team*",100.0
"'G736'","'Total'","Std Transplant Care",-
"'G736'","'Total'","Transplant Care",100.0
"'G736'","'Total'","Transplant care: Trans. Coordinator*",100.0
"'G736'","'Total'","Transplant care: Trans. Physician*",100.0
"'G736'","'Total'","Transplant care: Transplant Surgeon*",100.0
"'G736'","'Total'","Transplant care: Pat Resource Mnger*",100.0
"'G736'","'Total'","Transplant care: Pharmacist*",100.0
"'G736'","'Total'","Transplant team worked together*",100.0
"'G736'","'Total'","Respect caring by transplant team*",100.0
"'B463'","'Total'","Std Transplant Care",-
"'B463'","'Total'","Transplant Care",90.6
"'B463'","'Total'","Transplant care: Clinic reception*",75.0
"'B463'","'Total'","Transplant care: Finance Counselor*",75.0
"'B463'","'Total'","Transplant care: Trans. Coordinator*",100.0
"'B463'","'Total'","Transplant care: Trans. Physician*",100.0
"'B463'","'Total'","Transplant care: Transplant Surgeon*",100.0
"'B463'","'Total'","Transplant care: Nutritionist*",75.0
"'B463'","'Total'","Transplant team worked together*",100.0
"'B463'","'Total'","Respect caring by transplant team*",100.0
"'B599'","'Total'","Std Transplant Care",-
"'B599'","'Total'","Transplant Care",72.2
"'B599'","'Total'","Transplant care: Trans. Coordinator*",100.0
"'B599'","'Total'","Transplant care: Trans. Physician*",100.0
"'B599'","'Total'","Transplant care: Psychologist*",50.0
"'B599'","'Total'","Transplant care: Pat Resource Mnger*",50.0
"'B599'","'Total'","Transplant care: Nutritionist*",50.0
"'B599'","'Total'","Transplant care: Pharmacist*",75.0
"'B599'","'Total'","Transplant care: Chaplain*",50.0
"'B599'","'Total'","Transplant team worked together*",75.0
"'B599'","'Total'","Respect caring by transplant team*",100.0
"'G731'","'Total'","Std Transplant Care",-
"'G731'","'Total'","Transplant Care",91.7
"'G731'","'Total'","Transplant care: Clinic reception*",100.0
"'G731'","'Total'","Transplant care: Finance Counselor*",100.0
"'G731'","'Total'","Transplant care: Social Worker*",100.0
"'G731'","'Total'","Transplant care: Trans. Coordinator*",75.0
"'G731'","'Total'","Transplant care: Trans. Physician*",100.0
"'G731'","'Total'","Transplant care: Transplant Surgeon*",100.0
"'G731'","'Total'","Transplant care: Psychologist*",100.0
"'G731'","'Total'","Transplant care: Pat Resource Mnger*",100.0
"'G731'","'Total'","Transplant care: Nutritionist*",100.0
"'G731'","'Total'","Transplant care: Pharmacist*",100.0
"'G731'","'Total'","Transplant care: Chaplain*",100.0
"'G731'","'Total'","Transplant team worked together*",83.3
"'G731'","'Total'","Respect caring by transplant team*",91.7
"'G763'","'Total'","Std Transplant Care",-
"'G763'","'Total'","Transplant Care",96.8
"'G763'","'Total'","Transplant care: Clinic reception*",100.0
"'G763'","'Total'","Transplant care: Finance Counselor*",100.0
"'G763'","'Total'","Transplant care: Social Worker*",100.0
"'G763'","'Total'","Transplant care: Trans. Coordinator*",100.0
"'G763'","'Total'","Transplant care: Trans. Physician*",100.0
"'G763'","'Total'","Transplant care: Transplant Surgeon*",100.0
"'G763'","'Total'","Transplant care: Pat Resource Mnger*",100.0
"'G763'","'Total'","Transplant care: Nutritionist*",62.5
"'G763'","'Total'","Transplant care: Pharmacist*",87.5
"'G763'","'Total'","Transplant team worked together*",100.0
"'G763'","'Total'","Respect caring by transplant team*",100.0
"'B476'","'Total'","Std Transplant Care",-
"'B476'","'Total'","Transplant Care",96.4
"'B476'","'Total'","Transplant care: Finance Counselor*",100.0
"'B476'","'Total'","Transplant care: Trans. Coordinator*",100.0
"'B476'","'Total'","Transplant care: Trans. Physician*",100.0
"'B476'","'Total'","Transplant care: Transplant Surgeon*",100.0
"'B476'","'Total'","Transplant care: Nutritionist*",75.0
"'B476'","'Total'","Transplant care: Pharmacist*",100.0
"'B476'","'Total'","Transplant team worked together*",100.0
"'G745'","'Total'","Std Transplant Care",-
"'G745'","'Total'","Transplant Care",96.7
"'G745'","'Total'","Transplant care: Clinic reception*",100.0
"'G745'","'Total'","Transplant care: Finance Counselor*",87.5
"'G745'","'Total'","Transplant care: Social Worker*",100.0
"'G745'","'Total'","Transplant care: Trans. Coordinator*",100.0
"'G745'","'Total'","Transplant care: Trans. Physician*",100.0
"'G745'","'Total'","Transplant care: Transplant Surgeon*",100.0
"'G745'","'Total'","Transplant care: Psychologist*",87.5
"'G745'","'Total'","Transplant care: Pat Resource Mnger*",100.0
"'G745'","'Total'","Transplant care: Nutritionist*",100.0
"'G745'","'Total'","Transplant care: Pharmacist*",87.5
"'G745'","'Total'","Transplant team worked together*",100.0
"'G745'","'Total'","Respect caring by transplant team*",100.0
"'G739'","'Total'","Std Transplant Care",-
"'G739'","'Total'","Transplant Care",96.4
"'G739'","'Total'","Transplant care: Clinic reception*",100.0
"'G739'","'Total'","Transplant care: Trans. Coordinator*",100.0
"'G739'","'Total'","Transplant care: Trans. Physician*",100.0
"'G739'","'Total'","Transplant care: Transplant Surgeon*",100.0
"'G739'","'Total'","Transplant care: Pharmacist*",75.0
"'G739'","'Total'","Transplant team worked together*",100.0
"'G739'","'Total'","Respect caring by transplant team*",100.0
"'B487'","'Total'","Std Transplant Care",-
"'B487'","'Total'","Transplant Care",100.0
"'B487'","'Total'","Transplant care: Clinic reception*",100.0
"'B487'","'Total'","Transplant care: Finance Counselor*",100.0
"'B487'","'Total'","Transplant care: Trans. Coordinator*",100.0
"'B487'","'Total'","Transplant care: Trans. Physician*",100.0
"'B487'","'Total'","Transplant care: Transplant Surgeon*",100.0
"'B487'","'Total'","Transplant care: Nutritionist*",100.0
"'B487'","'Total'","Transplant care: Pharmacist*",100.0
"'B487'","'Total'","Transplant team worked together*",100.0
"'B487'","'Total'","Respect caring by transplant team*",100.0
"'G752'","'Total'","Std Transplant Care",-
"'G752'","'Total'","Transplant Care",91.7
"'G752'","'Total'","Transplant care: Clinic reception*",100.0
"'G752'","'Total'","Transplant care: Finance Counselor*",100.0
"'G752'","'Total'","Transplant care: Trans. Coordinator*",75.0
"'G752'","'Total'","Transplant care: Trans. Physician*",100.0
"'G752'","'Total'","Transplant care: Transplant Surgeon*",100.0
"'G752'","'Total'","Transplant care: Psychologist*",50.0
"'G752'","'Total'","Transplant care: Pat Resource Mnger*",100.0
"'G752'","'Total'","Transplant care: Nutritionist*",100.0
"'G752'","'Total'","Transplant care: Pharmacist*",100.0
"'G752'","'Total'","Transplant care: Chaplain*",100.0
"'G752'","'Total'","Transplant team worked together*",100.0
"'G752'","'Total'","Respect caring by transplant team*",75.0
"'G747'","'Total'","Std Transplant Care",-
"'G747'","'Total'","Transplant Care",100.0
"'G747'","'Total'","Transplant care: Clinic reception*",100.0
"'G747'","'Total'","Transplant care: Trans. Coordinator*",100.0
"'G747'","'Total'","Transplant care: Trans. Physician*",100.0
"'G747'","'Total'","Transplant care: Transplant Surgeon*",100.0
"'G747'","'Total'","Transplant care: Pat Resource Mnger*",100.0
"'G747'","'Total'","Transplant care: Nutritionist*",100.0
"'G747'","'Total'","Transplant care: Pharmacist*",100.0
"'G747'","'Total'","Transplant team worked together*",100.0
"'G747'","'Total'","Respect caring by transplant team*",100.0
"'G759'","'Total'","Std Transplant Care",-
"'G759'","'Total'","Transplant Care",100.0
"'G759'","'Total'","Transplant care: Clinic reception*",100.0
"'G759'","'Total'","Transplant care: Finance Counselor*",100.0
"'G759'","'Total'","Transplant care: Trans. Coordinator*",100.0
"'G759'","'Total'","Transplant care: Trans. Physician*",100.0
"'G759'","'Total'","Transplant care: Transplant Surgeon*",100.0
"'G759'","'Total'","Transplant care: Pat Resource Mnger*",100.0
"'G759'","'Total'","Transplant care: Nutritionist*",100.0
"'G759'","'Total'","Transplant care: Pharmacist*",100.0
"'G759'","'Total'","Transplant team worked together*",100.0
"'G759'","'Total'","Respect caring by transplant team*",100.0
"'G737'","'Total'","Std Transplant Care",-
"'G737'","'Total'","Transplant Care",85.4
"'G737'","'Total'","Transplant care: Clinic reception*",75.0
"'G737'","'Total'","Transplant care: Finance Counselor*",75.0
"'G737'","'Total'","Transplant care: Social Worker*",75.0
"'G737'","'Total'","Transplant care: Trans. Coordinator*",75.0
"'G737'","'Total'","Transplant care: Trans. Physician*",100.0
"'G737'","'Total'","Transplant care: Transplant Surgeon*",100.0
"'G737'","'Total'","Transplant care: Psychologist*",75.0
"'G737'","'Total'","Transplant care: Pat Resource Mnger*",100.0
"'G737'","'Total'","Transplant care: Nutritionist*",75.0
"'G737'","'Total'","Transplant care: Pharmacist*",75.0
"'G737'","'Total'","Transplant team worked together*",100.0
"'G737'","'Total'","Respect caring by transplant team*",100.0
"'G751'","'Total'","Std Transplant Care",-
"'G751'","'Total'","Transplant Care",100.0
"'G751'","'Total'","Transplant care: Clinic reception*",100.0
"'G751'","'Total'","Transplant care: Finance Counselor*",100.0
"'G751'","'Total'","Transplant care: Social Worker*",100.0
"'G751'","'Total'","Transplant care: Trans. Coordinator*",100.0
"'G751'","'Total'","Transplant care: Trans. Physician*",100.0
"'G751'","'Total'","Transplant care: Transplant Surgeon*",100.0
"'G751'","'Total'","Transplant care: Pat Resource Mnger*",100.0
"'G751'","'Total'","Transplant care: Nutritionist*",100.0
"'G751'","'Total'","Transplant care: Pharmacist*",100.0
"'G751'","'Total'","Transplant team worked together*",100.0
"'G751'","'Total'","Respect caring by transplant team*",100.0
"'B594'","'Total'","Std Transplant Care",-
"'B594'","'Total'","Transplant Care",97.5
"'B594'","'Total'","Transplant care: Clinic reception*",100.0
"'B594'","'Total'","Transplant care: Trans. Coordinator*",100.0
"'B594'","'Total'","Transplant care: Trans. Physician*",100.0
"'B594'","'Total'","Transplant care: Transplant Surgeon*",100.0
"'B594'","'Total'","Transplant care: Pat Resource Mnger*",100.0
"'B594'","'Total'","Transplant care: Nutritionist*",75.0
"'B594'","'Total'","Transplant care: Pharmacist*",100.0
"'B594'","'Total'","Transplant care: Chaplain*",100.0
"'B594'","'Total'","Transplant team worked together*",100.0
"'B594'","'Total'","Respect caring by transplant team*",100.0
"'G733'","'Total'","Std Transplant Care",-
"'G733'","'Total'","Transplant Care",65.9
"'G733'","'Total'","Transplant care: Clinic reception*",50.0
"'G733'","'Total'","Transplant care: Finance Counselor*",25.0
"'G733'","'Total'","Transplant care: Social Worker*",50.0
"'G733'","'Total'","Transplant care: Trans. Coordinator*",25.0
"'G733'","'Total'","Transplant care: Trans. Physician*",100.0
"'G733'","'Total'","Transplant care: Transplant Surgeon*",100.0
"'G733'","'Total'","Transplant care: Psychologist*",50.0
"'G733'","'Total'","Transplant care: Pat Resource Mnger*",100.0
"'G733'","'Total'","Transplant care: Chaplain*",75.0
"'G733'","'Total'","Transplant team worked together*",75.0
"'G733'","'Total'","Respect caring by transplant team*",75.0
"'G754'","'Total'","Std Transplant Care",-
"'G754'","'Total'","Transplant Care",100.0
"'G754'","'Total'","Transplant care: Clinic reception*",100.0
"'G754'","'Total'","Transplant care: Finance Counselor*",100.0
"'G754'","'Total'","Transplant care: Social Worker*",100.0
"'G754'","'Total'","Transplant care: Trans. Coordinator*",100.0
"'G754'","'Total'","Transplant care: Trans. Physician*",100.0
"'G754'","'Total'","Transplant care: Transplant Surgeon*",100.0
"'G754'","'Total'","Transplant care: Pat Resource Mnger*",100.0
"'G754'","'Total'","Transplant care: Nutritionist*",100.0
"'G754'","'Total'","Transplant care: Pharmacist*",100.0
"'G754'","'Total'","Transplant team worked together*",100.0
"'G754'","'Total'","Respect caring by transplant team*",100.0
"'G765'","'Total'","Std Transplant Care",-
"'G765'","'Total'","Transplant Care",97.2
"'G765'","'Total'","Transplant care: Clinic reception*",100.0
"'G765'","'Total'","Transplant care: Finance Counselor*",100.0
"'G765'","'Total'","Transplant care: Social Worker*",75.0
"'G765'","'Total'","Transplant care: Trans. Coordinator*",100.0
"'G765'","'Total'","Transplant care: Trans. Physician*",100.0
"'G765'","'Total'","Transplant care: Transplant Surgeon*",100.0
"'G765'","'Total'","Transplant care: Pharmacist*",100.0
"'G765'","'Total'","Transplant team worked together*",100.0
"'G765'","'Total'","Respect caring by transplant team*",100.0
"'Total'","'Total'","Std Transplant Care",-
"'Total'","'Total'","Transplant Care",93.5
"'Total'","'Total'","Transplant care: Clinic reception*",93.8
"'Total'","'Total'","Transplant care: Finance Counselor*",90.8
"'Total'","'Total'","Transplant care: Social Worker*",89.3
"'Total'","'Total'","Transplant care: Trans. Coordinator*",92.8
"'Total'","'Total'","Transplant care: Trans. Physician*",98.5
"'Total'","'Total'","Transplant care: Transplant Surgeon*",98.5
"'Total'","'Total'","Transplant care: Psychologist*",81.6
"'Total'","'Total'","Transplant care: Pat Resource Mnger*",97.4
"'Total'","'Total'","Transplant care: Nutritionist*",85.9
"'Total'","'Total'","Transplant care: Pharmacist*",94.8
"'Total'","'Total'","Transplant care: Chaplain*",92.9
"'Total'","'Total'","Transplant team worked together*",96.6
"'Total'","'Total'","Respect caring by transplant team*",95.5


