Room Name,Room Type,Angle,Orientation,Area,Window Width,Door Width,Distance To Station,
E11NS,Nurse Station,0,,32.84957177,0,0,0,
E1120,Patient Room,293.168387153497,South,17.75747942,1567.65624980365,1422.39999979509,22741.0071996222,
E1124,Patient Room,287.640228575898,South,18.00274334,2852.73432499707,1295.39999991759,6096.37534190952,
E1122,Patient Room,289.160173121981,South,18.07334962,3355.18124983255,1422.40126305213,12989.5339071846,
E1123,Patient Room,302.927862653164,South,18.54250977,3421.06249965346,1422.40000033091,11026.4907039277,
E1121A,Patient Room,305.08570189976,South,18.35298765,3220.24375039951,1422.43742804871,18124.8511052091,
E1110,Patient Room,164.367502696945,West,17.55309282,1809.74999984528,1422.39855220949,24610.2118800424,
E1112,Patient Room,167.716044558893,West,18.61961926,3433.76257275523,1422.40072765249,20725.9746080044,
E1111,Patient Room,154.041230738439,West,18.64284501,3422.6584859982,1422.40072781588,22685.5821956723,
E1113,Patient Room,155.051331995147,West,18.62147732,3413.12594394546,1422.4007277122,15891.9940148456,
E1114,Patient Room,167.716044558893,West,18.41801975,3413.12594430743,1422.40072768564,13869.9797752559,
E1115,Patient Room,154.653824058053,West,18.6827933,3413.17084546011,1422.40072779165,15375.0575144307,
E1116,Patient Room,167.619243071193,West,18.68093524,3413.1686003564,1422.40072748771,17480.7692740512,
E1117,Patient Room,154.846882861526,West,18.4133746,3405.19637784665,1422.40072741395,26170.2011498165,
E1118,Patient Room,163.183145709815,West,20.24449273,1740.64294997577,1495.42817022349,24136.568957001,
E1119,Patient Room,154.846882861526,West,18.12258821,3443.13697900072,1422.40297275256,19538.4750478507,
E1109,Patient Room,49.8792737830067,North,16.77921083,1822.45000012342,1422.40000009051,25423.9346473871,
E1103,Patient Room,32.7352262721076,East,18.30467809,3413.12499992519,1422.40000000617,2772.72480331301,
E1102,Patient Room,19.1601731219813,East,18.48583894,3401.35209970426,1422.39999996523,5223.39970947274,
E1104,Patient Room,19.5922818910515,East,18.36785213,3413.12499989823,1422.39999996474,7134.06329305671,
E1105,Patient Room,32.9278626531641,East,18.31954257,3413.12499993218,1422.39999996425,9169.21349985402,
E1106,Patient Room,19.8074728705164,East,18.30653615,3413.12499996761,1422.39999996278,14133.0350041539,
E1107,Patient Room,33.5627437810924,East,18.48676797,3402.01249999749,1422.40000000765,16123.1705026713,
E1108,Patient Room,18.1455786594814,East,19.60903621,3419.47500001282,1422.39999987893,21324.1099199158,
E1101,Patient Room,34.5792876032055,East,18.32883287,3417.88749989629,1422.39999991202,10404.7858751304,
