Room Name,Room Type,Angle,Orientation,Area,Window Width,Door Width,Distance To Station,
B4NSS,Nurse Station,0,,23.318653,0,0,0,
B462,Patient Room,0.885946593854241,East,15.24631133,1493.79684902195,926.32262139424,33657.6110144565,
B461,Patient Room,229.195649691781,South,12.23904122,1059.99441845114,926.087909280893,33779.9083273453,
B4NSN,Nurse Station,0,,21.81919858,0,0,0,
B480,Patient Room,16.6992442339936,East,14.13333339,1336.33149768394,910.155380476904,7735.26057243073,
G407,Patient Room,0,,19.21977264,0,1320.79999995159,0,
G440,Patient Room,316.29216688625,East,20.80469782,1014.68828571094,1117.60000001109,27951.7255635179,
G442,Patient Room,277.352379359892,South,20.72294318,1013.1376251042,1422.40000001781,28905.9550918737,
G458,Patient Room,202.299140223931,West,14.69446751,1011.52324983178,1320.79999995208,16484.2557912938,
G457,Patient Room,210.299339274203,West,14.88956381,1016.16192502656,1320.79999995159,11668.2585891552,
G455,Patient Room,210.299339274203,West,14.88956381,1019.68935018255,1320.80000003691,4798.13450786688,
G453,Patient Room,210.555964275508,West,14.88956381,1016.1619251109,1320.79999990917,7354.23926665647,
G451,Patient Room,210.299339274203,West,14.88956381,1019.00354978102,1320.80000003642,14240.1470773552,
G456,Patient Room,202.299140223931,West,14.88956381,1011.7804248815,1320.80000003642,9614.1317099626,
G454,Patient Room,202.299140223931,West,14.88956381,1016.16192511139,1320.80000003592,2712.25952517109,
G452,Patient Room,202.299140223931,West,14.88956381,1014.46012494663,1320.8000000374,9423.41406939703,
G450,Patient Room,202.527340556101,West,14.88956381,1016.00000004084,1320.79999986676,16298.3317679696,
G449,Patient Room,210.001318495506,West,14.88956381,1016.00000004034,1320.79999995208,21092.0302920892,
G448,Patient Room,201.526479832949,West,14.88956381,1020.34022524424,1320.80000003642,23195.2296908997,
G447,Patient Room,211.065164885499,West,14.4649971,1015.99999995601,1324.14010001354,27674.8626406488,
G431,Patient Room,30.6186054089094,East,16.16605103,938.310925045827,1473.19999986455,2729.36398365742,
G432,Patient Room,21.847991410652,East,16.73275933,1044.2575000996,1422.40000017583,7317.45140550936,
G433,Patient Room,30.1672956103844,East,14.28941043,986.61052874678,1524.00000001933,10548.3595216322,
G434,Patient Room,22.4303798033416,East,14.32378454,1043.69234994288,1524.01322916549,15387.7386728286,
G436,Patient Room,21.847991410652,East,16.4902825,1015.99999999793,1320.7999999994,21070.1940087674,
G435,Patient Room,30.6186054089094,East,16.4902825,1026.01907443958,1320.80000003543,16470.5869246381,
G437,Patient Room,30.3642710001603,East,16.4902825,1016.00000033773,1320.80000003642,23273.1508417244,
G438,Patient Room,22.0942303415828,East,15.4869301,1016.16192532346,1524.00000006224,28031.2830578603,
G446,Patient Room,272.614429596595,South,18.4226649,1017.98120009516,1523.99999997692,0,
G444,Patient Room,315.287916066557,East,21.5256251,1013.15519972299,1422.40000000568,28839.5177750556,
G4NS,Nurse Station,0,,57.08517738,0,0,0,
B484,Patient Room,230.309634743454,South,15.42654315,1425.67307785129,1063.37515214228,11779.0605956867,
B482,Patient Room,223.894041247711,West,15.61420721,1394.42135817279,1060.60218210527,6431.03268186828,
B489,Patient Room,25.6768156818382,East,15.61142012,1288.5304765399,1066.80000002596,17049.5513299017,
B499,Patient Room,298.460175998771,South,17.34777719,1396.03265752102,914.399999989684,38709.4706170279,
B498,Patient Room,293.198590513648,South,17.18519694,1432.86541214916,914.399999989684,38667.4117766452,
G401,Nurse Station,0,,86.58838309,0,1422.40101800806,0,
A407,Patient Room,17.7157927063769,East,11.0926182,1064.78911375793,1168.3999999538,0,
A401,Nurse Station,0,,100.14850497,0,914.399999986739,0,
B471,Patient Room,213.503436982414,West,13.71434086,1345.02151195592,906.937792358927,13374.7379195275,
B469,Patient Room,198.327452176983,West,13.79981162,1291.84833980677,910.183683775163,16204.6574345073,
B467,Patient Room,212.938690542956,West,13.84161797,1432.76820082843,910.169405598624,21271.9254403702,
B465,Patient Room,217.405356631409,West,13.81653416,1287.67548860536,910.162449213669,25859.6863225373,
B463,Patient Room,191.30993247402,West,11.39083683,1342.08844599449,910.183683776145,27240.6214839674,
B459,Patient Room,181.997879856477,West,13.73013437,1306.646040121,908.063460970997,35126.2917629337,
B460,Patient Room,49.1956496917806,North,14.69539654,1281.84295534758,929.692265654953,35003.3877067989,
B472,Patient Room,14.5001667665526,East,14.29962976,1356.31697479111,917.759842432343,13033.9121782198,
B476,Patient Room,38.9084862911458,East,14.19372034,1335.33032924986,925.369159655025,3287.38226203178,
B478,Patient Room,25.3929225561429,East,14.25410729,1345.35118832662,924.45670380644,3719.88454389429,
B464,Patient Room,33.2410502332615,East,9.47424794,1323.72726737055,922.006949073114,27144.9195008128,
B468,Patient Room,30.6820686368721,East,13.20058727,1342.08844591015,890.574178156368,19614.6528839821,
B466,Patient Room,2.71198346744494,East,14.61828705,1350.36989450878,930.542147085344,25743.1379880858,
B494,Patient Room,215.690059825014,West,14.21044288,1357.97590644625,1061.41871961989,31374.1942162514,
B492,Patient Room,198.951113052687,West,13.8611276,1347.448071292,1066.77890502622,29316.0095256155,
B490,Patient Room,205.096250462692,West,13.45607052,1296.78652782366,1214.80863771064,22882.3573163218,
B486,Patient Room,201.862362420286,West,13.67717966,1389.01068887293,1063.8004063627,17116.0983971684,
B488,Patient Room,185.895517012369,West,14.02277882,1336.07511362468,1215.19921525654,21367.5119033015,
B483,Patient Room,26.2704739294106,East,13.97075314,1374.59074484761,914.399999986739,8193.34956153831,
B495,Patient Room,34.939310204677,East,15.13947288,1384.04696734155,1062.75026755616,32775.8771795739,
B497,Patient Room,36.9987968198618,East,14.92393792,1357.38889993505,908.738026043868,37352.1208197583,
B485,Patient Room,27.1496816977832,East,13.84905021,1396.48872869822,1066.82559160558,11206.4906882516,
B487,Patient Room,46.7357045889284,North,13.67253451,1332.37024304889,909.639965220347,15771.2170864738,
B491,Patient Room,18.6417918936993,East,15.15619542,1330.79494983671,1066.85337035142,22322.0211718344,
G417,Patient Room,0,,18.11701403,0,1422.40000004957,0,
G415,Patient Room,0,,19.21326943,0,1453.42610002707,0,
G413,Patient Room,0,,16.62220476,0,1422.40101800806,0,
G411,Patient Room,0,,15.7191876,0,1402.62713226227,0,
G409,Patient Room,0,,16.62313379,0,1402.62609997955,0,
G405,Patient Room,0,,18.12351724,0,1320.79999986774,0,
A412,Patient Room,306.027373385104,South,11.41313355,1066.79999991919,914.400000070585,0,
A411,Patient Room,298.300755766006,South,11.23661785,1066.79999992017,914.400000114472,0,
A410,Patient Room,31.5186669924547,East,17.45740273,1066.79999989921,0,0,
A409,Patient Room,34.7431801583036,East,11.0926182,1064.78387499257,1168.40000007171,0,
A408,Patient Room,13.1340223063963,East,11.055457,1064.8623615231,1168.40000003813,0,
A406,Patient Room,31.51957912934,East,17.49270587,1066.80000002547,0,0,
A405,Patient Room,80.36883020754,North,11.44193348,240.978919512045,914.400000155414,0,
A404,Patient Room,106.367845605987,North,11.4363593,1066.80000011079,914.399999986739,0,
