Room Name,Room Type,Angle,Orientation,Area,Window Width,Door Width,Distance To Station
G737,Patient Room,30.364271,East,16.536734,1016.161925,1422.4,23326.00945
G738,Patient Room,21.84799141,East,16.0257675,1016,1422.4,27730.98894
G743,Patient Room,316.0416267,East,21.4791736,1016,1422.400177,28959.71692
G745,Patient Room,213.5627438,West,21.6185281,866.04475,1143.000001,28010.20156
G739,Patient Room,316.923941,East,21.6185281,1016,1117.600001,28043.81201
G741,Patient Room,276.7343694,South,21.4791736,1016,1422.4,29099.51475
G769,Patient Room,178.6360725,West,27.8337388,761.9958981,1219.2,9722.292605
G767,Patient Room,211.7335192,West,21.9715595,1866.9,1174.75,10019.22011
G763,Patient Room,211.5513849,West,23.9596837,1866.9,1174.75,3676.83316
G765,Patient Room,198.5691307,West,21.8879468,1866.9,1196.975,2853.57722
G759,Patient Room,217.3758075,West,26.6724513,1866.9,1219.2,11390.58449
G713,Patient Room,0,,34.188304,0,965.2,18016.12169
G714,Patient Room,0,,11.5478429,0,0,0
G709,Patient Room,91.76239102,North,15.15619542,937.8854038,1422.399603,8877.547105
G708,Patient Room,31.52153481,East,13.04915538,1744.851412,0,0
E7NS,Nurse Station,0,,32.84957177,0,0,0
G7NS,Nurse Station,0,,57.7763757,0,0,0
E722,Patient Room,289.1601731,South,18.07334962,3355.18125,1422.401263,11972.81119
E723,Patient Room,302.9278627,South,18.54250977,3421.0625,1422.4,10009.76798
E703,Patient Room,32.73522627,East,18.30467809,3413.125,1422.4,2640.324243
E702,Patient Room,19.16017312,East,18.48583894,3401.3521,1422.4,5084.692381
E704,Patient Room,19.59228189,East,18.36785213,3413.125,1422.4,6972.572163
E705,Patient Room,32.92786265,East,18.31954257,3413.125,1422.4,9007.72237
E706,Patient Room,19.80747287,East,18.30653615,3413.125,1422.4,13971.54387
E707,Patient Room,33.56274378,East,18.48676797,3402.0125,1422.4,15961.67937
E710,Patient Room,176.9178192,West,17.55309282,1690.272787,1422.398552,33299.40686
E712,Patient Room,167.7160446,West,18.61961926,3433.762573,1422.400728,26069.16816
E711,Patient Room,154.0412307,West,18.64284501,3422.658486,1422.400728,28070.22518
E713,Patient Room,155.051332,West,18.62147732,3413.125944,1422.400728,21130.55872
E714,Patient Room,167.7160446,West,18.41801975,3413.125944,1422.400728,19064.72297
E715,Patient Room,154.6538241,West,18.6827933,3413.170846,1422.400728,22598.01648
E716,Patient Room,167.6192431,West,18.68093524,3413.1686,1422.400727,24660.75405
E717,Patient Room,154.8468829,West,18.4133746,3405.196378,1422.400727,25070.10803
E718,Patient Room,163.1831457,West,20.24449273,1740.64295,1495.42817,23003.55323
E719,Patient Room,154.8468829,West,18.12258821,3443.136979,1422.402973,18486.27001
G732,Patient Room,21.84799141,East,16.5553146,1044.2575,1422.4,7374.792015
G731,Patient Room,30.18368066,East,15.979316,938.310925,1447.8,2952.612648
G735,Patient Room,30.61860541,East,16.536734,1016.161925,1473.2,16525.3728
G736,Patient Room,21.84799141,East,16.536734,1016.161925,1447.8,21123.68344
G752,Patient Room,203.0806172,West,14.8923509,1016,1422.4,9493.099402
G751,Patient Room,211.3730051,West,14.8923509,1016,1397,14275.80781
G754,Patient Room,202.5741381,West,14.8923509,1016,1447.8,2925.115561
G753,Patient Room,211.3730051,West,14.8923509,1016,1422.4,7423.924599
G756,Patient Room,202.2991402,West,14.8923509,1016.161925,1406.525,10011.25611
G755,Patient Room,210.8112393,West,14.8923509,1016.161925,1447.8,5218.293396
G757,Patient Room,211.0651649,West,14.8923509,1016,1447.8,12099.93472
G758,Patient Room,202.5741381,West,14.6972546,1016,1450.975,16892.89744
G750,Patient Room,202.8045405,West,14.8923509,1016,1422.4,16379.00721
G749,Patient Room,210.8112393,West,14.8923509,1016,1422.4,21161.71562
G748,Patient Room,202.2991402,West,14.8923509,1016.161925,1473.2,23264.91502
G747,Patient Room,211.0651649,West,14.4649971,1016.161925,1371.6,27703.29568
G733,Patient Room,32.36663806,East,11.5385526,988.3086017,1458.862428,0
G734,Patient Room,20.47652302,East,11.5757138,1053.538025,1429.332578,0
E721,Patient Room,305.0857019,South,18.35298765,3220.24375,1422.437428,16975.93553
E720,Patient Room,293.1683872,South,17.86803399,1567.65625,1422.4,21594.35174
E709,Patient Room,49.87927378,North,16.77921083,1822.45,1422.4,34986.84793
E708,Patient Room,18.14557866,East,19.60903621,3419.475,1422.4,21162.61879
E701,Patient Room,34.5792876,East,18.32883287,3417.8875,1422.4,10266.07855
G715,Patient Room,0,,11.3527466,0,990.6,22797.56716
G712,Patient Room,0,,11.2877145,0,1272.691574,16178.71388
G711,Patient Room,0,,14.27733304,0,1272.691574,11590.953
G710,Patient Room,31.52148907,North,15.84460665,2570.118928,0,0
G707,Patient Room,122.4466334,North,13.00642,1551.703462,1422.4,4678.280955
G716,Nurse Station,0,,12.49638253,0,0,0
