"FILTER","CHOICE(S)"


"Site","Emory University Hospital Midtown",(Site:1)
"IT Discharge date","From 01/01/2009 To 12/31/2009"

"MEAN REPORT"


"IT Room","IT Discharge date","Question","mean"
"'4025'","'12/28/08 1/3/09'","Std Newborn Nursery",-
"'4025'","'12/28/08 1/3/09'","Newborn Nursery",100.0
"'4025'","'12/28/08 1/3/09'","NN:Involved decisions re:child care*",100.0
"'4016'","'12/28/08 1/3/09'","Std Newborn Nursery",-
"'4016'","'12/28/08 1/3/09'","Newborn Nursery",100.0
"'4016'","'12/28/08 1/3/09'","NN:Involved decisions re:child care*",100.0
"'4021'","'12/28/08 1/3/09'","Std Newborn Nursery",-
"'4021'","'12/28/08 1/3/09'","Newborn Nursery",100.0
"'4021'","'12/28/08 1/3/09'","NN:Involved decisions re:child care*",100.0
"'4012'","'12/28/08 1/3/09'","Std Newborn Nursery",-
"'4012'","'12/28/08 1/3/09'","Newborn Nursery",100.0
"'4012'","'12/28/08 1/3/09'","NN:Involved decisions re:child care*",100.0
"'Total'","'12/28/08 1/3/09'","Std Newborn Nursery",-
"'Total'","'12/28/08 1/3/09'","Newborn Nursery",100.0
"'Total'","'12/28/08 1/3/09'","NN:Involved decisions re:child care*",100.0
"'4012'","'1/4/09 1/10/09'","Std Newborn Nursery",-
"'4012'","'1/4/09 1/10/09'","Newborn Nursery",100.0
"'4012'","'1/4/09 1/10/09'","NN:Involved decisions re:child care*",100.0
"'Total'","'1/4/09 1/10/09'","Std Newborn Nursery",-
"'Total'","'1/4/09 1/10/09'","Newborn Nursery",100.0
"'Total'","'1/4/09 1/10/09'","NN:Involved decisions re:child care*",100.0
"'4015'","'1/11/09 1/17/09'","Std Newborn Nursery",-
"'4015'","'1/11/09 1/17/09'","Newborn Nursery",100.0
"'4015'","'1/11/09 1/17/09'","NN:Involved decisions re:child care*",100.0
"'4017'","'1/11/09 1/17/09'","Std Newborn Nursery",-
"'4017'","'1/11/09 1/17/09'","Newborn Nursery",100.0
"'4017'","'1/11/09 1/17/09'","NN:Involved decisions re:child care*",100.0
"'4002'","'1/11/09 1/17/09'","Std Newborn Nursery",-
"'4002'","'1/11/09 1/17/09'","Newborn Nursery",75.0
"'4002'","'1/11/09 1/17/09'","NN:Involved decisions re:child care*",75.0
"'4007'","'1/11/09 1/17/09'","Std Newborn Nursery",-
"'4007'","'1/11/09 1/17/09'","Newborn Nursery",50.0
"'4007'","'1/11/09 1/17/09'","NN:Involved decisions re:child care*",50.0
"'4019'","'1/11/09 1/17/09'","Std Newborn Nursery",-
"'4019'","'1/11/09 1/17/09'","Newborn Nursery",50.0
"'4019'","'1/11/09 1/17/09'","NN:Involved decisions re:child care*",50.0
"'Total'","'1/11/09 1/17/09'","Std Newborn Nursery",-
"'Total'","'1/11/09 1/17/09'","Newborn Nursery",75.0
"'Total'","'1/11/09 1/17/09'","NN:Involved decisions re:child care*",75.0
"'4006'","'2/1/09 2/7/09'","Std Newborn Nursery",-
"'4006'","'2/1/09 2/7/09'","Newborn Nursery",50.0
"'4006'","'2/1/09 2/7/09'","NN:Involved decisions re:child care*",50.0
"'4023'","'2/1/09 2/7/09'","Std Newborn Nursery",-
"'4023'","'2/1/09 2/7/09'","Newborn Nursery",100.0
"'4023'","'2/1/09 2/7/09'","NN:Involved decisions re:child care*",100.0
"'4008'","'2/1/09 2/7/09'","Std Newborn Nursery",-
"'4008'","'2/1/09 2/7/09'","Newborn Nursery",50.0
"'4008'","'2/1/09 2/7/09'","NN:Involved decisions re:child care*",50.0
"'4003'","'2/1/09 2/7/09'","Std Newborn Nursery",-
"'4003'","'2/1/09 2/7/09'","Newborn Nursery",100.0
"'4003'","'2/1/09 2/7/09'","NN:Involved decisions re:child care*",100.0
"'4002'","'2/1/09 2/7/09'","Std Newborn Nursery",-
"'4002'","'2/1/09 2/7/09'","Newborn Nursery",100.0
"'4002'","'2/1/09 2/7/09'","NN:Involved decisions re:child care*",100.0
"'Total'","'2/1/09 2/7/09'","Std Newborn Nursery",-
"'Total'","'2/1/09 2/7/09'","Newborn Nursery",83.3
"'Total'","'2/1/09 2/7/09'","NN:Involved decisions re:child care*",83.3
"'4022'","'2/15/09 2/21/09'","Std Newborn Nursery",-
"'4022'","'2/15/09 2/21/09'","Newborn Nursery",100.0
"'4022'","'2/15/09 2/21/09'","NN:Involved decisions re:child care*",100.0
"'4014'","'2/15/09 2/21/09'","Std Newborn Nursery",-
"'4014'","'2/15/09 2/21/09'","Newborn Nursery",87.5
"'4014'","'2/15/09 2/21/09'","NN:Involved decisions re:child care*",87.5
"'4027'","'2/15/09 2/21/09'","Std Newborn Nursery",-
"'4027'","'2/15/09 2/21/09'","Newborn Nursery",75.0
"'4027'","'2/15/09 2/21/09'","NN:Involved decisions re:child care*",75.0
"'4009'","'2/15/09 2/21/09'","Std Newborn Nursery",-
"'4009'","'2/15/09 2/21/09'","Newborn Nursery",50.0
"'4009'","'2/15/09 2/21/09'","NN:Involved decisions re:child care*",50.0
"'4021'","'2/15/09 2/21/09'","Std Newborn Nursery",-
"'4021'","'2/15/09 2/21/09'","Newborn Nursery",75.0
"'4021'","'2/15/09 2/21/09'","NN:Involved decisions re:child care*",75.0
"'4007'","'2/15/09 2/21/09'","Std Newborn Nursery",-
"'4007'","'2/15/09 2/21/09'","Newborn Nursery",100.0
"'4007'","'2/15/09 2/21/09'","NN:Involved decisions re:child care*",100.0
"'Total'","'2/15/09 2/21/09'","Std Newborn Nursery",-
"'Total'","'2/15/09 2/21/09'","Newborn Nursery",82.1
"'Total'","'2/15/09 2/21/09'","NN:Involved decisions re:child care*",82.1
"'4022'","'2/22/09 2/28/09'","Std Newborn Nursery",-
"'4022'","'2/22/09 2/28/09'","Newborn Nursery",100.0
"'4022'","'2/22/09 2/28/09'","NN:Involved decisions re:child care*",100.0
"'4029'","'2/22/09 2/28/09'","Std Newborn Nursery",-
"'4029'","'2/22/09 2/28/09'","Newborn Nursery",100.0
"'4029'","'2/22/09 2/28/09'","NN:Involved decisions re:child care*",100.0
"'4003'","'2/22/09 2/28/09'","Std Newborn Nursery",-
"'4003'","'2/22/09 2/28/09'","Newborn Nursery",83.3
"'4003'","'2/22/09 2/28/09'","NN:Involved decisions re:child care*",83.3
"'Total'","'2/22/09 2/28/09'","Std Newborn Nursery",-
"'Total'","'2/22/09 2/28/09'","Newborn Nursery",90.0
"'Total'","'2/22/09 2/28/09'","NN:Involved decisions re:child care*",90.0
"'4018'","'3/1/09 3/7/09'","Std Newborn Nursery",-
"'4018'","'3/1/09 3/7/09'","Newborn Nursery",100.0
"'4018'","'3/1/09 3/7/09'","NN:Involved decisions re:child care*",100.0
"'4023'","'3/1/09 3/7/09'","Std Newborn Nursery",-
"'4023'","'3/1/09 3/7/09'","Newborn Nursery",75.0
"'4023'","'3/1/09 3/7/09'","NN:Involved decisions re:child care*",75.0
"'4027'","'3/1/09 3/7/09'","Std Newborn Nursery",-
"'4027'","'3/1/09 3/7/09'","Newborn Nursery",75.0
"'4027'","'3/1/09 3/7/09'","NN:Involved decisions re:child care*",75.0
"'4026'","'3/1/09 3/7/09'","Std Newborn Nursery",-
"'4026'","'3/1/09 3/7/09'","Newborn Nursery",100.0
"'4026'","'3/1/09 3/7/09'","NN:Involved decisions re:child care*",100.0
"'4005'","'3/1/09 3/7/09'","Std Newborn Nursery",-
"'4005'","'3/1/09 3/7/09'","Newborn Nursery",50.0
"'4005'","'3/1/09 3/7/09'","NN:Involved decisions re:child care*",50.0
"'Total'","'3/1/09 3/7/09'","Std Newborn Nursery",-
"'Total'","'3/1/09 3/7/09'","Newborn Nursery",80.0
"'Total'","'3/1/09 3/7/09'","NN:Involved decisions re:child care*",80.0
"'4004'","'3/22/09 3/28/09'","Std Newborn Nursery",-
"'4004'","'3/22/09 3/28/09'","Newborn Nursery",75.0
"'4004'","'3/22/09 3/28/09'","NN:Involved decisions re:child care*",75.0
"'4022'","'3/22/09 3/28/09'","Std Newborn Nursery",-
"'4022'","'3/22/09 3/28/09'","Newborn Nursery",50.0
"'4022'","'3/22/09 3/28/09'","NN:Involved decisions re:child care*",50.0
"'4015'","'3/22/09 3/28/09'","Std Newborn Nursery",-
"'4015'","'3/22/09 3/28/09'","Newborn Nursery",75.0
"'4015'","'3/22/09 3/28/09'","NN:Involved decisions re:child care*",75.0
"'4009'","'3/22/09 3/28/09'","Std Newborn Nursery",-
"'4009'","'3/22/09 3/28/09'","Newborn Nursery",100.0
"'4009'","'3/22/09 3/28/09'","NN:Involved decisions re:child care*",100.0
"'4002'","'3/22/09 3/28/09'","Std Newborn Nursery",-
"'4002'","'3/22/09 3/28/09'","Newborn Nursery",100.0
"'4002'","'3/22/09 3/28/09'","NN:Involved decisions re:child care*",100.0
"'Total'","'3/22/09 3/28/09'","Std Newborn Nursery",-
"'Total'","'3/22/09 3/28/09'","Newborn Nursery",80.0
"'Total'","'3/22/09 3/28/09'","NN:Involved decisions re:child care*",80.0
"'4027'","'3/29/09 4/4/09'","Std Newborn Nursery",-
"'4027'","'3/29/09 4/4/09'","Newborn Nursery",87.5
"'4027'","'3/29/09 4/4/09'","NN:Involved decisions re:child care*",87.5
"'4009'","'3/29/09 4/4/09'","Std Newborn Nursery",-
"'4009'","'3/29/09 4/4/09'","Newborn Nursery",75.0
"'4009'","'3/29/09 4/4/09'","NN:Involved decisions re:child care*",75.0
"'4005'","'3/29/09 4/4/09'","Std Newborn Nursery",-
"'4005'","'3/29/09 4/4/09'","Newborn Nursery",100.0
"'4005'","'3/29/09 4/4/09'","NN:Involved decisions re:child care*",100.0
"'Total'","'3/29/09 4/4/09'","Std Newborn Nursery",-
"'Total'","'3/29/09 4/4/09'","Newborn Nursery",90.0
"'Total'","'3/29/09 4/4/09'","NN:Involved decisions re:child care*",90.0
"'4020'","'4/5/09 4/11/09'","Std Newborn Nursery",-
"'4020'","'4/5/09 4/11/09'","Newborn Nursery",100.0
"'4020'","'4/5/09 4/11/09'","NN:Involved decisions re:child care*",100.0
"'4023'","'4/5/09 4/11/09'","Std Newborn Nursery",-
"'4023'","'4/5/09 4/11/09'","Newborn Nursery",100.0
"'4023'","'4/5/09 4/11/09'","NN:Involved decisions re:child care*",100.0
"'Total'","'4/5/09 4/11/09'","Std Newborn Nursery",-
"'Total'","'4/5/09 4/11/09'","Newborn Nursery",100.0
"'Total'","'4/5/09 4/11/09'","NN:Involved decisions re:child care*",100.0
"'4006'","'4/19/09 4/25/09'","Std Newborn Nursery",-
"'4006'","'4/19/09 4/25/09'","Newborn Nursery",100.0
"'4006'","'4/19/09 4/25/09'","NN:Involved decisions re:child care*",100.0
"'4020'","'4/19/09 4/25/09'","Std Newborn Nursery",-
"'4020'","'4/19/09 4/25/09'","Newborn Nursery",100.0
"'4020'","'4/19/09 4/25/09'","NN:Involved decisions re:child care*",100.0
"'4029'","'4/19/09 4/25/09'","Std Newborn Nursery",-
"'4029'","'4/19/09 4/25/09'","Newborn Nursery",100.0
"'4029'","'4/19/09 4/25/09'","NN:Involved decisions re:child care*",100.0
"'4008'","'4/19/09 4/25/09'","Std Newborn Nursery",-
"'4008'","'4/19/09 4/25/09'","Newborn Nursery",50.0
"'4008'","'4/19/09 4/25/09'","NN:Involved decisions re:child care*",50.0
"'4003'","'4/19/09 4/25/09'","Std Newborn Nursery",-
"'4003'","'4/19/09 4/25/09'","Newborn Nursery",75.0
"'4003'","'4/19/09 4/25/09'","NN:Involved decisions re:child care*",75.0
"'4002'","'4/19/09 4/25/09'","Std Newborn Nursery",-
"'4002'","'4/19/09 4/25/09'","Newborn Nursery",100.0
"'4002'","'4/19/09 4/25/09'","NN:Involved decisions re:child care*",100.0
"'4005'","'4/19/09 4/25/09'","Std Newborn Nursery",-
"'4005'","'4/19/09 4/25/09'","Newborn Nursery",100.0
"'4005'","'4/19/09 4/25/09'","NN:Involved decisions re:child care*",100.0
"'Total'","'4/19/09 4/25/09'","Std Newborn Nursery",-
"'Total'","'4/19/09 4/25/09'","Newborn Nursery",89.3
"'Total'","'4/19/09 4/25/09'","NN:Involved decisions re:child care*",89.3
"'4018'","'4/26/09 5/2/09'","Std Newborn Nursery",-
"'4018'","'4/26/09 5/2/09'","Newborn Nursery",75.0
"'4018'","'4/26/09 5/2/09'","NN:Involved decisions re:child care*",75.0
"'4015'","'4/26/09 5/2/09'","Std Newborn Nursery",-
"'4015'","'4/26/09 5/2/09'","Newborn Nursery",100.0
"'4015'","'4/26/09 5/2/09'","NN:Involved decisions re:child care*",100.0
"'4014'","'4/26/09 5/2/09'","Std Newborn Nursery",-
"'4014'","'4/26/09 5/2/09'","Newborn Nursery",100.0
"'4014'","'4/26/09 5/2/09'","NN:Involved decisions re:child care*",100.0
"'4016'","'4/26/09 5/2/09'","Std Newborn Nursery",-
"'4016'","'4/26/09 5/2/09'","Newborn Nursery",75.0
"'4016'","'4/26/09 5/2/09'","NN:Involved decisions re:child care*",75.0
"'4017'","'4/26/09 5/2/09'","Std Newborn Nursery",-
"'4017'","'4/26/09 5/2/09'","Newborn Nursery",100.0
"'4017'","'4/26/09 5/2/09'","NN:Involved decisions re:child care*",100.0
"'4007'","'4/26/09 5/2/09'","Std Newborn Nursery",-
"'4007'","'4/26/09 5/2/09'","Newborn Nursery",100.0
"'4007'","'4/26/09 5/2/09'","NN:Involved decisions re:child care*",100.0
"'4028'","'4/26/09 5/2/09'","Std Newborn Nursery",-
"'4028'","'4/26/09 5/2/09'","Newborn Nursery",100.0
"'4028'","'4/26/09 5/2/09'","NN:Involved decisions re:child care*",100.0
"'4005'","'4/26/09 5/2/09'","Std Newborn Nursery",-
"'4005'","'4/26/09 5/2/09'","Newborn Nursery",100.0
"'4005'","'4/26/09 5/2/09'","NN:Involved decisions re:child care*",100.0
"'4012'","'4/26/09 5/2/09'","Std Newborn Nursery",-
"'4012'","'4/26/09 5/2/09'","Newborn Nursery",100.0
"'4012'","'4/26/09 5/2/09'","NN:Involved decisions re:child care*",100.0
"'4019'","'4/26/09 5/2/09'","Std Newborn Nursery",-
"'4019'","'4/26/09 5/2/09'","Newborn Nursery",75.0
"'4019'","'4/26/09 5/2/09'","NN:Involved decisions re:child care*",75.0
"'Total'","'4/26/09 5/2/09'","Std Newborn Nursery",-
"'Total'","'4/26/09 5/2/09'","Newborn Nursery",93.2
"'Total'","'4/26/09 5/2/09'","NN:Involved decisions re:child care*",93.2
"'4006'","'5/3/09 5/9/09'","Std Newborn Nursery",-
"'4006'","'5/3/09 5/9/09'","Newborn Nursery",100.0
"'4006'","'5/3/09 5/9/09'","NN:Involved decisions re:child care*",100.0
"'4008'","'5/3/09 5/9/09'","Std Newborn Nursery",-
"'4008'","'5/3/09 5/9/09'","Newborn Nursery",100.0
"'4008'","'5/3/09 5/9/09'","NN:Involved decisions re:child care*",100.0
"'4007'","'5/3/09 5/9/09'","Std Newborn Nursery",-
"'4007'","'5/3/09 5/9/09'","Newborn Nursery",50.0
"'4007'","'5/3/09 5/9/09'","NN:Involved decisions re:child care*",50.0
"'4012'","'5/3/09 5/9/09'","Std Newborn Nursery",-
"'4012'","'5/3/09 5/9/09'","Newborn Nursery",50.0
"'4012'","'5/3/09 5/9/09'","NN:Involved decisions re:child care*",50.0
"'4019'","'5/3/09 5/9/09'","Std Newborn Nursery",-
"'4019'","'5/3/09 5/9/09'","Newborn Nursery",100.0
"'4019'","'5/3/09 5/9/09'","NN:Involved decisions re:child care*",100.0
"'Total'","'5/3/09 5/9/09'","Std Newborn Nursery",-
"'Total'","'5/3/09 5/9/09'","Newborn Nursery",80.0
"'Total'","'5/3/09 5/9/09'","NN:Involved decisions re:child care*",80.0
"'4022'","'5/17/09 5/23/09'","Std Newborn Nursery",-
"'4022'","'5/17/09 5/23/09'","Newborn Nursery",100.0
"'4022'","'5/17/09 5/23/09'","NN:Involved decisions re:child care*",100.0
"'4018'","'5/17/09 5/23/09'","Std Newborn Nursery",-
"'4018'","'5/17/09 5/23/09'","Newborn Nursery",100.0
"'4018'","'5/17/09 5/23/09'","NN:Involved decisions re:child care*",100.0
"'4023'","'5/17/09 5/23/09'","Std Newborn Nursery",-
"'4023'","'5/17/09 5/23/09'","Newborn Nursery",100.0
"'4023'","'5/17/09 5/23/09'","NN:Involved decisions re:child care*",100.0
"'4014'","'5/17/09 5/23/09'","Std Newborn Nursery",-
"'4014'","'5/17/09 5/23/09'","Newborn Nursery",100.0
"'4014'","'5/17/09 5/23/09'","NN:Involved decisions re:child care*",100.0
"'4026'","'5/17/09 5/23/09'","Std Newborn Nursery",-
"'4026'","'5/17/09 5/23/09'","Newborn Nursery",100.0
"'4026'","'5/17/09 5/23/09'","NN:Involved decisions re:child care*",100.0
"'4021'","'5/17/09 5/23/09'","Std Newborn Nursery",-
"'4021'","'5/17/09 5/23/09'","Newborn Nursery",100.0
"'4021'","'5/17/09 5/23/09'","NN:Involved decisions re:child care*",100.0
"'4002'","'5/17/09 5/23/09'","Std Newborn Nursery",-
"'4002'","'5/17/09 5/23/09'","Newborn Nursery",100.0
"'4002'","'5/17/09 5/23/09'","NN:Involved decisions re:child care*",100.0
"'4010'","'5/17/09 5/23/09'","Std Newborn Nursery",-
"'4010'","'5/17/09 5/23/09'","Newborn Nursery",100.0
"'4010'","'5/17/09 5/23/09'","NN:Involved decisions re:child care*",100.0
"'4028'","'5/17/09 5/23/09'","Std Newborn Nursery",-
"'4028'","'5/17/09 5/23/09'","Newborn Nursery",75.0
"'4028'","'5/17/09 5/23/09'","NN:Involved decisions re:child care*",75.0
"'4005'","'5/17/09 5/23/09'","Std Newborn Nursery",-
"'4005'","'5/17/09 5/23/09'","Newborn Nursery",100.0
"'4005'","'5/17/09 5/23/09'","NN:Involved decisions re:child care*",100.0
"'4024'","'5/17/09 5/23/09'","Std Newborn Nursery",-
"'4024'","'5/17/09 5/23/09'","Newborn Nursery",100.0
"'4024'","'5/17/09 5/23/09'","NN:Involved decisions re:child care*",100.0
"'Total'","'5/17/09 5/23/09'","Std Newborn Nursery",-
"'Total'","'5/17/09 5/23/09'","Newborn Nursery",98.1
"'Total'","'5/17/09 5/23/09'","NN:Involved decisions re:child care*",98.1
"'4022'","'5/24/09 5/30/09'","Std Newborn Nursery",-
"'4022'","'5/24/09 5/30/09'","Newborn Nursery",100.0
"'4022'","'5/24/09 5/30/09'","NN:Involved decisions re:child care*",100.0
"'4023'","'5/24/09 5/30/09'","Std Newborn Nursery",-
"'4023'","'5/24/09 5/30/09'","Newborn Nursery",100.0
"'4023'","'5/24/09 5/30/09'","NN:Involved decisions re:child care*",100.0
"'4014'","'5/24/09 5/30/09'","Std Newborn Nursery",-
"'4014'","'5/24/09 5/30/09'","Newborn Nursery",100.0
"'4014'","'5/24/09 5/30/09'","NN:Involved decisions re:child care*",100.0
"'4025'","'5/24/09 5/30/09'","Std Newborn Nursery",-
"'4025'","'5/24/09 5/30/09'","Newborn Nursery",100.0
"'4025'","'5/24/09 5/30/09'","NN:Involved decisions re:child care*",100.0
"'4016'","'5/24/09 5/30/09'","Std Newborn Nursery",-
"'4016'","'5/24/09 5/30/09'","Newborn Nursery",100.0
"'4016'","'5/24/09 5/30/09'","NN:Involved decisions re:child care*",100.0
"'4009'","'5/24/09 5/30/09'","Std Newborn Nursery",-
"'4009'","'5/24/09 5/30/09'","Newborn Nursery",75.0
"'4009'","'5/24/09 5/30/09'","NN:Involved decisions re:child care*",75.0
"'4021'","'5/24/09 5/30/09'","Std Newborn Nursery",-
"'4021'","'5/24/09 5/30/09'","Newborn Nursery",100.0
"'4021'","'5/24/09 5/30/09'","NN:Involved decisions re:child care*",100.0
"'4002'","'5/24/09 5/30/09'","Std Newborn Nursery",-
"'4002'","'5/24/09 5/30/09'","Newborn Nursery",75.0
"'4002'","'5/24/09 5/30/09'","NN:Involved decisions re:child care*",75.0
"'4010'","'5/24/09 5/30/09'","Std Newborn Nursery",-
"'4010'","'5/24/09 5/30/09'","Newborn Nursery",100.0
"'4010'","'5/24/09 5/30/09'","NN:Involved decisions re:child care*",100.0
"'4013'","'5/24/09 5/30/09'","Std Newborn Nursery",-
"'4013'","'5/24/09 5/30/09'","Newborn Nursery",100.0
"'4013'","'5/24/09 5/30/09'","NN:Involved decisions re:child care*",100.0
"'Total'","'5/24/09 5/30/09'","Std Newborn Nursery",-
"'Total'","'5/24/09 5/30/09'","Newborn Nursery",94.2
"'Total'","'5/24/09 5/30/09'","NN:Involved decisions re:child care*",94.2
"'4006'","'5/31/09 6/6/09'","Std Newborn Nursery",-
"'4006'","'5/31/09 6/6/09'","Newborn Nursery",75.0
"'4006'","'5/31/09 6/6/09'","NN:Involved decisions re:child care*",75.0
"'4018'","'5/31/09 6/6/09'","Std Newborn Nursery",-
"'4018'","'5/31/09 6/6/09'","Newborn Nursery",100.0
"'4018'","'5/31/09 6/6/09'","NN:Involved decisions re:child care*",100.0
"'4008'","'5/31/09 6/6/09'","Std Newborn Nursery",-
"'4008'","'5/31/09 6/6/09'","Newborn Nursery",75.0
"'4008'","'5/31/09 6/6/09'","NN:Involved decisions re:child care*",75.0
"'4014'","'5/31/09 6/6/09'","Std Newborn Nursery",-
"'4014'","'5/31/09 6/6/09'","Newborn Nursery",100.0
"'4014'","'5/31/09 6/6/09'","NN:Involved decisions re:child care*",100.0
"'4027'","'5/31/09 6/6/09'","Std Newborn Nursery",-
"'4027'","'5/31/09 6/6/09'","Newborn Nursery",100.0
"'4027'","'5/31/09 6/6/09'","NN:Involved decisions re:child care*",100.0
"'4001'","'5/31/09 6/6/09'","Std Newborn Nursery",-
"'4001'","'5/31/09 6/6/09'","Newborn Nursery",100.0
"'4001'","'5/31/09 6/6/09'","NN:Involved decisions re:child care*",100.0
"'Total'","'5/31/09 6/6/09'","Std Newborn Nursery",-
"'Total'","'5/31/09 6/6/09'","Newborn Nursery",91.7
"'Total'","'5/31/09 6/6/09'","NN:Involved decisions re:child care*",91.7
"'4006'","'6/21/09 6/27/09'","Std Newborn Nursery",-
"'4006'","'6/21/09 6/27/09'","Newborn Nursery",100.0
"'4006'","'6/21/09 6/27/09'","NN:Involved decisions re:child care*",100.0
"'4004'","'6/21/09 6/27/09'","Std Newborn Nursery",-
"'4004'","'6/21/09 6/27/09'","Newborn Nursery",75.0
"'4004'","'6/21/09 6/27/09'","NN:Involved decisions re:child care*",75.0
"'4018'","'6/21/09 6/27/09'","Std Newborn Nursery",-
"'4018'","'6/21/09 6/27/09'","Newborn Nursery",100.0
"'4018'","'6/21/09 6/27/09'","NN:Involved decisions re:child care*",100.0
"'4015'","'6/21/09 6/27/09'","Std Newborn Nursery",-
"'4015'","'6/21/09 6/27/09'","Newborn Nursery",100.0
"'4015'","'6/21/09 6/27/09'","NN:Involved decisions re:child care*",100.0
"'4008'","'6/21/09 6/27/09'","Std Newborn Nursery",-
"'4008'","'6/21/09 6/27/09'","Newborn Nursery",100.0
"'4008'","'6/21/09 6/27/09'","NN:Involved decisions re:child care*",100.0
"'4003'","'6/21/09 6/27/09'","Std Newborn Nursery",-
"'4003'","'6/21/09 6/27/09'","Newborn Nursery",100.0
"'4003'","'6/21/09 6/27/09'","NN:Involved decisions re:child care*",100.0
"'4016'","'6/21/09 6/27/09'","Std Newborn Nursery",-
"'4016'","'6/21/09 6/27/09'","Newborn Nursery",100.0
"'4016'","'6/21/09 6/27/09'","NN:Involved decisions re:child care*",100.0
"'4009'","'6/21/09 6/27/09'","Std Newborn Nursery",-
"'4009'","'6/21/09 6/27/09'","Newborn Nursery",100.0
"'4009'","'6/21/09 6/27/09'","NN:Involved decisions re:child care*",100.0
"'4021'","'6/21/09 6/27/09'","Std Newborn Nursery",-
"'4021'","'6/21/09 6/27/09'","Newborn Nursery",75.0
"'4021'","'6/21/09 6/27/09'","NN:Involved decisions re:child care*",75.0
"'4011'","'6/21/09 6/27/09'","Std Newborn Nursery",-
"'4011'","'6/21/09 6/27/09'","Newborn Nursery",50.0
"'4011'","'6/21/09 6/27/09'","NN:Involved decisions re:child care*",50.0
"'4013'","'6/21/09 6/27/09'","Std Newborn Nursery",-
"'4013'","'6/21/09 6/27/09'","Newborn Nursery",100.0
"'4013'","'6/21/09 6/27/09'","NN:Involved decisions re:child care*",100.0
"'Total'","'6/21/09 6/27/09'","Std Newborn Nursery",-
"'Total'","'6/21/09 6/27/09'","Newborn Nursery",91.7
"'Total'","'6/21/09 6/27/09'","NN:Involved decisions re:child care*",91.7
"'4015'","'6/28/09 7/4/09'","Std Newborn Nursery",-
"'4015'","'6/28/09 7/4/09'","Newborn Nursery",100.0
"'4015'","'6/28/09 7/4/09'","NN:Involved decisions re:child care*",100.0
"'4014'","'6/28/09 7/4/09'","Std Newborn Nursery",-
"'4014'","'6/28/09 7/4/09'","Newborn Nursery",100.0
"'4014'","'6/28/09 7/4/09'","NN:Involved decisions re:child care*",100.0
"'4026'","'6/28/09 7/4/09'","Std Newborn Nursery",-
"'4026'","'6/28/09 7/4/09'","Newborn Nursery",100.0
"'4026'","'6/28/09 7/4/09'","NN:Involved decisions re:child care*",100.0
"'4016'","'6/28/09 7/4/09'","Std Newborn Nursery",-
"'4016'","'6/28/09 7/4/09'","Newborn Nursery",100.0
"'4016'","'6/28/09 7/4/09'","NN:Involved decisions re:child care*",100.0
"'4009'","'6/28/09 7/4/09'","Std Newborn Nursery",-
"'4009'","'6/28/09 7/4/09'","Newborn Nursery",100.0
"'4009'","'6/28/09 7/4/09'","NN:Involved decisions re:child care*",100.0
"'4007'","'6/28/09 7/4/09'","Std Newborn Nursery",-
"'4007'","'6/28/09 7/4/09'","Newborn Nursery",100.0
"'4007'","'6/28/09 7/4/09'","NN:Involved decisions re:child care*",100.0
"'4013'","'6/28/09 7/4/09'","Std Newborn Nursery",-
"'4013'","'6/28/09 7/4/09'","Newborn Nursery",75.0
"'4013'","'6/28/09 7/4/09'","NN:Involved decisions re:child care*",75.0
"'4001'","'6/28/09 7/4/09'","Std Newborn Nursery",-
"'4001'","'6/28/09 7/4/09'","Newborn Nursery",75.0
"'4001'","'6/28/09 7/4/09'","NN:Involved decisions re:child care*",75.0
"'Total'","'6/28/09 7/4/09'","Std Newborn Nursery",-
"'Total'","'6/28/09 7/4/09'","Newborn Nursery",93.8
"'Total'","'6/28/09 7/4/09'","NN:Involved decisions re:child care*",93.8
"'4006'","'7/5/09 7/11/09'","Std Newborn Nursery",-
"'4006'","'7/5/09 7/11/09'","Newborn Nursery",75.0
"'4006'","'7/5/09 7/11/09'","NN:Involved decisions re:child care*",75.0
"'4016'","'7/5/09 7/11/09'","Std Newborn Nursery",-
"'4016'","'7/5/09 7/11/09'","Newborn Nursery",100.0
"'4016'","'7/5/09 7/11/09'","NN:Involved decisions re:child care*",100.0
"'4009'","'7/5/09 7/11/09'","Std Newborn Nursery",-
"'4009'","'7/5/09 7/11/09'","Newborn Nursery",75.0
"'4009'","'7/5/09 7/11/09'","NN:Involved decisions re:child care*",75.0
"'4002'","'7/5/09 7/11/09'","Std Newborn Nursery",-
"'4002'","'7/5/09 7/11/09'","Newborn Nursery",100.0
"'4002'","'7/5/09 7/11/09'","NN:Involved decisions re:child care*",100.0
"'4005'","'7/5/09 7/11/09'","Std Newborn Nursery",-
"'4005'","'7/5/09 7/11/09'","Newborn Nursery",100.0
"'4005'","'7/5/09 7/11/09'","NN:Involved decisions re:child care*",100.0
"'Total'","'7/5/09 7/11/09'","Std Newborn Nursery",-
"'Total'","'7/5/09 7/11/09'","Newborn Nursery",90.0
"'Total'","'7/5/09 7/11/09'","NN:Involved decisions re:child care*",90.0
"'4006'","'7/19/09 7/25/09'","Std Newborn Nursery",-
"'4006'","'7/19/09 7/25/09'","Newborn Nursery",100.0
"'4006'","'7/19/09 7/25/09'","NN:Involved decisions re:child care*",100.0
"'4023'","'7/19/09 7/25/09'","Std Newborn Nursery",-
"'4023'","'7/19/09 7/25/09'","Newborn Nursery",100.0
"'4023'","'7/19/09 7/25/09'","NN:Involved decisions re:child care*",100.0
"'4008'","'7/19/09 7/25/09'","Std Newborn Nursery",-
"'4008'","'7/19/09 7/25/09'","Newborn Nursery",75.0
"'4008'","'7/19/09 7/25/09'","NN:Involved decisions re:child care*",75.0
"'4010'","'7/19/09 7/25/09'","Std Newborn Nursery",-
"'4010'","'7/19/09 7/25/09'","Newborn Nursery",75.0
"'4010'","'7/19/09 7/25/09'","NN:Involved decisions re:child care*",75.0
"'4013'","'7/19/09 7/25/09'","Std Newborn Nursery",-
"'4013'","'7/19/09 7/25/09'","Newborn Nursery",87.5
"'4013'","'7/19/09 7/25/09'","NN:Involved decisions re:child care*",87.5
"'4005'","'7/19/09 7/25/09'","Std Newborn Nursery",-
"'4005'","'7/19/09 7/25/09'","Newborn Nursery",50.0
"'4005'","'7/19/09 7/25/09'","NN:Involved decisions re:child care*",50.0
"'Total'","'7/19/09 7/25/09'","Std Newborn Nursery",-
"'Total'","'7/19/09 7/25/09'","Newborn Nursery",82.1
"'Total'","'7/19/09 7/25/09'","NN:Involved decisions re:child care*",82.1
"'4023'","'7/26/09 8/1/09'","Std Newborn Nursery",-
"'4023'","'7/26/09 8/1/09'","Newborn Nursery",75.0
"'4023'","'7/26/09 8/1/09'","NN:Involved decisions re:child care*",75.0
"'4025'","'7/26/09 8/1/09'","Std Newborn Nursery",-
"'4025'","'7/26/09 8/1/09'","Newborn Nursery",100.0
"'4025'","'7/26/09 8/1/09'","NN:Involved decisions re:child care*",100.0
"'4027'","'7/26/09 8/1/09'","Std Newborn Nursery",-
"'4027'","'7/26/09 8/1/09'","Newborn Nursery",100.0
"'4027'","'7/26/09 8/1/09'","NN:Involved decisions re:child care*",100.0
"'4016'","'7/26/09 8/1/09'","Std Newborn Nursery",-
"'4016'","'7/26/09 8/1/09'","Newborn Nursery",75.0
"'4016'","'7/26/09 8/1/09'","NN:Involved decisions re:child care*",75.0
"'4009'","'7/26/09 8/1/09'","Std Newborn Nursery",-
"'4009'","'7/26/09 8/1/09'","Newborn Nursery",75.0
"'4009'","'7/26/09 8/1/09'","NN:Involved decisions re:child care*",75.0
"'4013'","'7/26/09 8/1/09'","Std Newborn Nursery",-
"'4013'","'7/26/09 8/1/09'","Newborn Nursery",100.0
"'4013'","'7/26/09 8/1/09'","NN:Involved decisions re:child care*",100.0
"'Total'","'7/26/09 8/1/09'","Std Newborn Nursery",-
"'Total'","'7/26/09 8/1/09'","Newborn Nursery",90.6
"'Total'","'7/26/09 8/1/09'","NN:Involved decisions re:child care*",90.6
"'4023'","'8/2/09 8/8/09'","Std Newborn Nursery",-
"'4023'","'8/2/09 8/8/09'","Newborn Nursery",100.0
"'4023'","'8/2/09 8/8/09'","NN:Involved decisions re:child care*",100.0
"'4025'","'8/2/09 8/8/09'","Std Newborn Nursery",-
"'4025'","'8/2/09 8/8/09'","Newborn Nursery",87.5
"'4025'","'8/2/09 8/8/09'","NN:Involved decisions re:child care*",87.5
"'4016'","'8/2/09 8/8/09'","Std Newborn Nursery",-
"'4016'","'8/2/09 8/8/09'","Newborn Nursery",100.0
"'4016'","'8/2/09 8/8/09'","NN:Involved decisions re:child care*",100.0
"'4011'","'8/2/09 8/8/09'","Std Newborn Nursery",-
"'4011'","'8/2/09 8/8/09'","Newborn Nursery",100.0
"'4011'","'8/2/09 8/8/09'","NN:Involved decisions re:child care*",100.0
"'4010'","'8/2/09 8/8/09'","Std Newborn Nursery",-
"'4010'","'8/2/09 8/8/09'","Newborn Nursery",50.0
"'4010'","'8/2/09 8/8/09'","NN:Involved decisions re:child care*",50.0
"'4013'","'8/2/09 8/8/09'","Std Newborn Nursery",-
"'4013'","'8/2/09 8/8/09'","Newborn Nursery",75.0
"'4013'","'8/2/09 8/8/09'","NN:Involved decisions re:child care*",75.0
"'4001'","'8/2/09 8/8/09'","Std Newborn Nursery",-
"'4001'","'8/2/09 8/8/09'","Newborn Nursery",75.0
"'4001'","'8/2/09 8/8/09'","NN:Involved decisions re:child care*",75.0
"'4024'","'8/2/09 8/8/09'","Std Newborn Nursery",-
"'4024'","'8/2/09 8/8/09'","Newborn Nursery",0.0
"'4024'","'8/2/09 8/8/09'","NN:Involved decisions re:child care*",0.0
"'Total'","'8/2/09 8/8/09'","Std Newborn Nursery",-
"'Total'","'8/2/09 8/8/09'","Newborn Nursery",75.0
"'Total'","'8/2/09 8/8/09'","NN:Involved decisions re:child care*",75.0
"'4023'","'8/23/09 8/29/09'","Std Newborn Nursery",-
"'4023'","'8/23/09 8/29/09'","Newborn Nursery",100.0
"'4023'","'8/23/09 8/29/09'","NN:Involved decisions re:child care*",100.0
"'4008'","'8/23/09 8/29/09'","Std Newborn Nursery",-
"'4008'","'8/23/09 8/29/09'","Newborn Nursery",100.0
"'4008'","'8/23/09 8/29/09'","NN:Involved decisions re:child care*",100.0
"'4009'","'8/23/09 8/29/09'","Std Newborn Nursery",-
"'4009'","'8/23/09 8/29/09'","Newborn Nursery",100.0
"'4009'","'8/23/09 8/29/09'","NN:Involved decisions re:child care*",100.0
"'4011'","'8/23/09 8/29/09'","Std Newborn Nursery",-
"'4011'","'8/23/09 8/29/09'","Newborn Nursery",50.0
"'4011'","'8/23/09 8/29/09'","NN:Involved decisions re:child care*",50.0
"'4019'","'8/23/09 8/29/09'","Std Newborn Nursery",-
"'4019'","'8/23/09 8/29/09'","Newborn Nursery",100.0
"'4019'","'8/23/09 8/29/09'","NN:Involved decisions re:child care*",100.0
"'Total'","'8/23/09 8/29/09'","Std Newborn Nursery",-
"'Total'","'8/23/09 8/29/09'","Newborn Nursery",94.4
"'Total'","'8/23/09 8/29/09'","NN:Involved decisions re:child care*",94.4
"'4006'","'8/30/09 9/5/09'","Std Newborn Nursery",-
"'4006'","'8/30/09 9/5/09'","Newborn Nursery",75.0
"'4006'","'8/30/09 9/5/09'","NN:Involved decisions re:child care*",75.0
"'4022'","'8/30/09 9/5/09'","Std Newborn Nursery",-
"'4022'","'8/30/09 9/5/09'","Newborn Nursery",75.0
"'4022'","'8/30/09 9/5/09'","NN:Involved decisions re:child care*",75.0
"'4015'","'8/30/09 9/5/09'","Std Newborn Nursery",-
"'4015'","'8/30/09 9/5/09'","Newborn Nursery",75.0
"'4015'","'8/30/09 9/5/09'","NN:Involved decisions re:child care*",75.0
"'4008'","'8/30/09 9/5/09'","Std Newborn Nursery",-
"'4008'","'8/30/09 9/5/09'","Newborn Nursery",100.0
"'4008'","'8/30/09 9/5/09'","NN:Involved decisions re:child care*",100.0
"'4009'","'8/30/09 9/5/09'","Std Newborn Nursery",-
"'4009'","'8/30/09 9/5/09'","Newborn Nursery",75.0
"'4009'","'8/30/09 9/5/09'","NN:Involved decisions re:child care*",75.0
"'4021'","'8/30/09 9/5/09'","Std Newborn Nursery",-
"'4021'","'8/30/09 9/5/09'","Newborn Nursery",0.0
"'4021'","'8/30/09 9/5/09'","NN:Involved decisions re:child care*",0.0
"'Total'","'8/30/09 9/5/09'","Std Newborn Nursery",-
"'Total'","'8/30/09 9/5/09'","Newborn Nursery",75.0
"'Total'","'8/30/09 9/5/09'","NN:Involved decisions re:child care*",75.0
"'4018'","'9/6/09 9/12/09'","Std Newborn Nursery",-
"'4018'","'9/6/09 9/12/09'","Newborn Nursery",50.0
"'4018'","'9/6/09 9/12/09'","NN:Involved decisions re:child care*",50.0
"'4029'","'9/6/09 9/12/09'","Std Newborn Nursery",-
"'4029'","'9/6/09 9/12/09'","Newborn Nursery",75.0
"'4029'","'9/6/09 9/12/09'","NN:Involved decisions re:child care*",75.0
"'4015'","'9/6/09 9/12/09'","Std Newborn Nursery",-
"'4015'","'9/6/09 9/12/09'","Newborn Nursery",75.0
"'4015'","'9/6/09 9/12/09'","NN:Involved decisions re:child care*",75.0
"'4025'","'9/6/09 9/12/09'","Std Newborn Nursery",-
"'4025'","'9/6/09 9/12/09'","Newborn Nursery",100.0
"'4025'","'9/6/09 9/12/09'","NN:Involved decisions re:child care*",100.0
"'4017'","'9/6/09 9/12/09'","Std Newborn Nursery",-
"'4017'","'9/6/09 9/12/09'","Newborn Nursery",100.0
"'4017'","'9/6/09 9/12/09'","NN:Involved decisions re:child care*",100.0
"'4011'","'9/6/09 9/12/09'","Std Newborn Nursery",-
"'4011'","'9/6/09 9/12/09'","Newborn Nursery",100.0
"'4011'","'9/6/09 9/12/09'","NN:Involved decisions re:child care*",100.0
"'4013'","'9/6/09 9/12/09'","Std Newborn Nursery",-
"'4013'","'9/6/09 9/12/09'","Newborn Nursery",100.0
"'4013'","'9/6/09 9/12/09'","NN:Involved decisions re:child care*",100.0
"'Total'","'9/6/09 9/12/09'","Std Newborn Nursery",-
"'Total'","'9/6/09 9/12/09'","Newborn Nursery",87.5
"'Total'","'9/6/09 9/12/09'","NN:Involved decisions re:child care*",87.5
"'4022'","'9/20/09 9/26/09'","Std Newborn Nursery",-
"'4022'","'9/20/09 9/26/09'","Newborn Nursery",75.0
"'4022'","'9/20/09 9/26/09'","NN:Involved decisions re:child care*",75.0
"'4023'","'9/20/09 9/26/09'","Std Newborn Nursery",-
"'4023'","'9/20/09 9/26/09'","Newborn Nursery",0.0
"'4023'","'9/20/09 9/26/09'","NN:Involved decisions re:child care*",0.0
"'4008'","'9/20/09 9/26/09'","Std Newborn Nursery",-
"'4008'","'9/20/09 9/26/09'","Newborn Nursery",75.0
"'4008'","'9/20/09 9/26/09'","NN:Involved decisions re:child care*",75.0
"'4026'","'9/20/09 9/26/09'","Std Newborn Nursery",-
"'4026'","'9/20/09 9/26/09'","Newborn Nursery",100.0
"'4026'","'9/20/09 9/26/09'","NN:Involved decisions re:child care*",100.0
"'4011'","'9/20/09 9/26/09'","Std Newborn Nursery",-
"'4011'","'9/20/09 9/26/09'","Newborn Nursery",100.0
"'4011'","'9/20/09 9/26/09'","NN:Involved decisions re:child care*",100.0
"'Total'","'9/20/09 9/26/09'","Std Newborn Nursery",-
"'Total'","'9/20/09 9/26/09'","Newborn Nursery",70.8
"'Total'","'9/20/09 9/26/09'","NN:Involved decisions re:child care*",70.8
"'4022'","'9/27/09 10/3/09'","Std Newborn Nursery",-
"'4022'","'9/27/09 10/3/09'","Newborn Nursery",50.0
"'4022'","'9/27/09 10/3/09'","NN:Involved decisions re:child care*",50.0
"'4003'","'9/27/09 10/3/09'","Std Newborn Nursery",-
"'4003'","'9/27/09 10/3/09'","Newborn Nursery",100.0
"'4003'","'9/27/09 10/3/09'","NN:Involved decisions re:child care*",100.0
"'4016'","'9/27/09 10/3/09'","Std Newborn Nursery",-
"'4016'","'9/27/09 10/3/09'","Newborn Nursery",100.0
"'4016'","'9/27/09 10/3/09'","NN:Involved decisions re:child care*",100.0
"'4009'","'9/27/09 10/3/09'","Std Newborn Nursery",-
"'4009'","'9/27/09 10/3/09'","Newborn Nursery",100.0
"'4009'","'9/27/09 10/3/09'","NN:Involved decisions re:child care*",100.0
"'4002'","'9/27/09 10/3/09'","Std Newborn Nursery",-
"'4002'","'9/27/09 10/3/09'","Newborn Nursery",100.0
"'4002'","'9/27/09 10/3/09'","NN:Involved decisions re:child care*",100.0
"'4028'","'9/27/09 10/3/09'","Std Newborn Nursery",-
"'4028'","'9/27/09 10/3/09'","Newborn Nursery",100.0
"'4028'","'9/27/09 10/3/09'","NN:Involved decisions re:child care*",100.0
"'4005'","'9/27/09 10/3/09'","Std Newborn Nursery",-
"'4005'","'9/27/09 10/3/09'","Newborn Nursery",100.0
"'4005'","'9/27/09 10/3/09'","NN:Involved decisions re:child care*",100.0
"'Total'","'9/27/09 10/3/09'","Std Newborn Nursery",-
"'Total'","'9/27/09 10/3/09'","Newborn Nursery",87.5
"'Total'","'9/27/09 10/3/09'","NN:Involved decisions re:child care*",87.5
"'4020'","'10/4/09 10/10/09'","Std Newborn Nursery",-
"'4020'","'10/4/09 10/10/09'","Newborn Nursery",75.0
"'4020'","'10/4/09 10/10/09'","NN:Involved decisions re:child care*",75.0
"'4021'","'10/4/09 10/10/09'","Std Newborn Nursery",-
"'4021'","'10/4/09 10/10/09'","Newborn Nursery",100.0
"'4021'","'10/4/09 10/10/09'","NN:Involved decisions re:child care*",100.0
"'4010'","'10/4/09 10/10/09'","Std Newborn Nursery",-
"'4010'","'10/4/09 10/10/09'","Newborn Nursery",100.0
"'4010'","'10/4/09 10/10/09'","NN:Involved decisions re:child care*",100.0
"'Total'","'10/4/09 10/10/09'","Std Newborn Nursery",-
"'Total'","'10/4/09 10/10/09'","Newborn Nursery",91.7
"'Total'","'10/4/09 10/10/09'","NN:Involved decisions re:child care*",91.7
"'4004'","'10/18/09 10/24/09'","Std Newborn Nursery",-
"'4004'","'10/18/09 10/24/09'","Newborn Nursery",100.0
"'4004'","'10/18/09 10/24/09'","NN:Involved decisions re:child care*",100.0
"'4020'","'10/18/09 10/24/09'","Std Newborn Nursery",-
"'4020'","'10/18/09 10/24/09'","Newborn Nursery",100.0
"'4020'","'10/18/09 10/24/09'","NN:Involved decisions re:child care*",100.0
"'4015'","'10/18/09 10/24/09'","Std Newborn Nursery",-
"'4015'","'10/18/09 10/24/09'","Newborn Nursery",75.0
"'4015'","'10/18/09 10/24/09'","NN:Involved decisions re:child care*",75.0
"'4003'","'10/18/09 10/24/09'","Std Newborn Nursery",-
"'4003'","'10/18/09 10/24/09'","Newborn Nursery",100.0
"'4003'","'10/18/09 10/24/09'","NN:Involved decisions re:child care*",100.0
"'4024'","'10/18/09 10/24/09'","Std Newborn Nursery",-
"'4024'","'10/18/09 10/24/09'","Newborn Nursery",100.0
"'4024'","'10/18/09 10/24/09'","NN:Involved decisions re:child care*",100.0
"'Total'","'10/18/09 10/24/09'","Std Newborn Nursery",-
"'Total'","'10/18/09 10/24/09'","Newborn Nursery",96.4
"'Total'","'10/18/09 10/24/09'","NN:Involved decisions re:child care*",96.4
"'4006'","'10/25/09 10/31/09'","Std Newborn Nursery",-
"'4006'","'10/25/09 10/31/09'","Newborn Nursery",75.0
"'4006'","'10/25/09 10/31/09'","NN:Involved decisions re:child care*",75.0
"'4011'","'10/25/09 10/31/09'","Std Newborn Nursery",-
"'4011'","'10/25/09 10/31/09'","Newborn Nursery",100.0
"'4011'","'10/25/09 10/31/09'","NN:Involved decisions re:child care*",100.0
"'4013'","'10/25/09 10/31/09'","Std Newborn Nursery",-
"'4013'","'10/25/09 10/31/09'","Newborn Nursery",100.0
"'4013'","'10/25/09 10/31/09'","NN:Involved decisions re:child care*",100.0
"'4028'","'10/25/09 10/31/09'","Std Newborn Nursery",-
"'4028'","'10/25/09 10/31/09'","Newborn Nursery",100.0
"'4028'","'10/25/09 10/31/09'","NN:Involved decisions re:child care*",100.0
"'4001'","'10/25/09 10/31/09'","Std Newborn Nursery",-
"'4001'","'10/25/09 10/31/09'","Newborn Nursery",100.0
"'4001'","'10/25/09 10/31/09'","NN:Involved decisions re:child care*",100.0
"'4024'","'10/25/09 10/31/09'","Std Newborn Nursery",-
"'4024'","'10/25/09 10/31/09'","Newborn Nursery",100.0
"'4024'","'10/25/09 10/31/09'","NN:Involved decisions re:child care*",100.0
"'NURS'","'10/25/09 10/31/09'","Std Newborn Nursery",-
"'NURS'","'10/25/09 10/31/09'","Newborn Nursery",100.0
"'NURS'","'10/25/09 10/31/09'","NN:Involved decisions re:child care*",100.0
"'Total'","'10/25/09 10/31/09'","Std Newborn Nursery",-
"'Total'","'10/25/09 10/31/09'","Newborn Nursery",96.9
"'Total'","'10/25/09 10/31/09'","NN:Involved decisions re:child care*",96.9
"'4003'","'11/1/09 11/7/09'","Std Newborn Nursery",-
"'4003'","'11/1/09 11/7/09'","Newborn Nursery",100.0
"'4003'","'11/1/09 11/7/09'","NN:Involved decisions re:child care*",100.0
"'4026'","'11/1/09 11/7/09'","Std Newborn Nursery",-
"'4026'","'11/1/09 11/7/09'","Newborn Nursery",100.0
"'4026'","'11/1/09 11/7/09'","NN:Involved decisions re:child care*",100.0
"'4017'","'11/1/09 11/7/09'","Std Newborn Nursery",-
"'4017'","'11/1/09 11/7/09'","Newborn Nursery",100.0
"'4017'","'11/1/09 11/7/09'","NN:Involved decisions re:child care*",100.0
"'4010'","'11/1/09 11/7/09'","Std Newborn Nursery",-
"'4010'","'11/1/09 11/7/09'","Newborn Nursery",100.0
"'4010'","'11/1/09 11/7/09'","NN:Involved decisions re:child care*",100.0
"'4028'","'11/1/09 11/7/09'","Std Newborn Nursery",-
"'4028'","'11/1/09 11/7/09'","Newborn Nursery",75.0
"'4028'","'11/1/09 11/7/09'","NN:Involved decisions re:child care*",75.0
"'4001'","'11/1/09 11/7/09'","Std Newborn Nursery",-
"'4001'","'11/1/09 11/7/09'","Newborn Nursery",100.0
"'4001'","'11/1/09 11/7/09'","NN:Involved decisions re:child care*",100.0
"'4005'","'11/1/09 11/7/09'","Std Newborn Nursery",-
"'4005'","'11/1/09 11/7/09'","Newborn Nursery",100.0
"'4005'","'11/1/09 11/7/09'","NN:Involved decisions re:child care*",100.0
"'4024'","'11/1/09 11/7/09'","Std Newborn Nursery",-
"'4024'","'11/1/09 11/7/09'","Newborn Nursery",75.0
"'4024'","'11/1/09 11/7/09'","NN:Involved decisions re:child care*",75.0
"'4019'","'11/1/09 11/7/09'","Std Newborn Nursery",-
"'4019'","'11/1/09 11/7/09'","Newborn Nursery",100.0
"'4019'","'11/1/09 11/7/09'","NN:Involved decisions re:child care*",100.0
"'Total'","'11/1/09 11/7/09'","Std Newborn Nursery",-
"'Total'","'11/1/09 11/7/09'","Newborn Nursery",95.0
"'Total'","'11/1/09 11/7/09'","NN:Involved decisions re:child care*",95.0
"'4025'","'11/8/09 11/14/09'","Std Newborn Nursery",-
"'4025'","'11/8/09 11/14/09'","Newborn Nursery",100.0
"'4025'","'11/8/09 11/14/09'","NN:Involved decisions re:child care*",100.0
"'Total'","'11/8/09 11/14/09'","Std Newborn Nursery",-
"'Total'","'11/8/09 11/14/09'","Newborn Nursery",100.0
"'Total'","'11/8/09 11/14/09'","NN:Involved decisions re:child care*",100.0
"'4004'","'11/22/09 11/28/09'","Std Newborn Nursery",-
"'4004'","'11/22/09 11/28/09'","Newborn Nursery",100.0
"'4004'","'11/22/09 11/28/09'","NN:Involved decisions re:child care*",100.0
"'4018'","'11/22/09 11/28/09'","Std Newborn Nursery",-
"'4018'","'11/22/09 11/28/09'","Newborn Nursery",100.0
"'4018'","'11/22/09 11/28/09'","NN:Involved decisions re:child care*",100.0
"'4023'","'11/22/09 11/28/09'","Std Newborn Nursery",-
"'4023'","'11/22/09 11/28/09'","Newborn Nursery",100.0
"'4023'","'11/22/09 11/28/09'","NN:Involved decisions re:child care*",100.0
"'4008'","'11/22/09 11/28/09'","Std Newborn Nursery",-
"'4008'","'11/22/09 11/28/09'","Newborn Nursery",75.0
"'4008'","'11/22/09 11/28/09'","NN:Involved decisions re:child care*",75.0
"'4026'","'11/22/09 11/28/09'","Std Newborn Nursery",-
"'4026'","'11/22/09 11/28/09'","Newborn Nursery",100.0
"'4026'","'11/22/09 11/28/09'","NN:Involved decisions re:child care*",100.0
"'4016'","'11/22/09 11/28/09'","Std Newborn Nursery",-
"'4016'","'11/22/09 11/28/09'","Newborn Nursery",100.0
"'4016'","'11/22/09 11/28/09'","NN:Involved decisions re:child care*",100.0
"'4013'","'11/22/09 11/28/09'","Std Newborn Nursery",-
"'4013'","'11/22/09 11/28/09'","Newborn Nursery",100.0
"'4013'","'11/22/09 11/28/09'","NN:Involved decisions re:child care*",100.0
"'4019'","'11/22/09 11/28/09'","Std Newborn Nursery",-
"'4019'","'11/22/09 11/28/09'","Newborn Nursery",75.0
"'4019'","'11/22/09 11/28/09'","NN:Involved decisions re:child care*",75.0
"'Total'","'11/22/09 11/28/09'","Std Newborn Nursery",-
"'Total'","'11/22/09 11/28/09'","Newborn Nursery",94.4
"'Total'","'11/22/09 11/28/09'","NN:Involved decisions re:child care*",94.4
"'4006'","'11/29/09 12/5/09'","Std Newborn Nursery",-
"'4006'","'11/29/09 12/5/09'","Newborn Nursery",100.0
"'4006'","'11/29/09 12/5/09'","NN:Involved decisions re:child care*",100.0
"'4023'","'11/29/09 12/5/09'","Std Newborn Nursery",-
"'4023'","'11/29/09 12/5/09'","Newborn Nursery",100.0
"'4023'","'11/29/09 12/5/09'","NN:Involved decisions re:child care*",100.0
"'4025'","'11/29/09 12/5/09'","Std Newborn Nursery",-
"'4025'","'11/29/09 12/5/09'","Newborn Nursery",75.0
"'4025'","'11/29/09 12/5/09'","NN:Involved decisions re:child care*",75.0
"'4016'","'11/29/09 12/5/09'","Std Newborn Nursery",-
"'4016'","'11/29/09 12/5/09'","Newborn Nursery",100.0
"'4016'","'11/29/09 12/5/09'","NN:Involved decisions re:child care*",100.0
"'4017'","'11/29/09 12/5/09'","Std Newborn Nursery",-
"'4017'","'11/29/09 12/5/09'","Newborn Nursery",100.0
"'4017'","'11/29/09 12/5/09'","NN:Involved decisions re:child care*",100.0
"'4028'","'11/29/09 12/5/09'","Std Newborn Nursery",-
"'4028'","'11/29/09 12/5/09'","Newborn Nursery",25.0
"'4028'","'11/29/09 12/5/09'","NN:Involved decisions re:child care*",25.0
"'4005'","'11/29/09 12/5/09'","Std Newborn Nursery",-
"'4005'","'11/29/09 12/5/09'","Newborn Nursery",75.0
"'4005'","'11/29/09 12/5/09'","NN:Involved decisions re:child care*",75.0
"'4024'","'11/29/09 12/5/09'","Std Newborn Nursery",-
"'4024'","'11/29/09 12/5/09'","Newborn Nursery",100.0
"'4024'","'11/29/09 12/5/09'","NN:Involved decisions re:child care*",100.0
"'Total'","'11/29/09 12/5/09'","Std Newborn Nursery",-
"'Total'","'11/29/09 12/5/09'","Newborn Nursery",84.4
"'Total'","'11/29/09 12/5/09'","NN:Involved decisions re:child care*",84.4
"'4002'","'12/6/09 12/12/09'","Std Newborn Nursery",-
"'4002'","'12/6/09 12/12/09'","Newborn Nursery",100.0
"'4002'","'12/6/09 12/12/09'","NN:Involved decisions re:child care*",100.0
"'4019'","'12/6/09 12/12/09'","Std Newborn Nursery",-
"'4019'","'12/6/09 12/12/09'","Newborn Nursery",100.0
"'4019'","'12/6/09 12/12/09'","NN:Involved decisions re:child care*",100.0
"'NURS'","'12/6/09 12/12/09'","Std Newborn Nursery",-
"'NURS'","'12/6/09 12/12/09'","Newborn Nursery",100.0
"'NURS'","'12/6/09 12/12/09'","NN:Involved decisions re:child care*",100.0
"'Total'","'12/6/09 12/12/09'","Std Newborn Nursery",-
"'Total'","'12/6/09 12/12/09'","Newborn Nursery",100.0
"'Total'","'12/6/09 12/12/09'","NN:Involved decisions re:child care*",100.0
"'4029'","'12/20/09 12/26/09'","Std Newborn Nursery",-
"'4029'","'12/20/09 12/26/09'","Newborn Nursery",100.0
"'4029'","'12/20/09 12/26/09'","NN:Involved decisions re:child care*",100.0
"'4025'","'12/20/09 12/26/09'","Std Newborn Nursery",-
"'4025'","'12/20/09 12/26/09'","Newborn Nursery",100.0
"'4025'","'12/20/09 12/26/09'","NN:Involved decisions re:child care*",100.0
"'4016'","'12/20/09 12/26/09'","Std Newborn Nursery",-
"'4016'","'12/20/09 12/26/09'","Newborn Nursery",100.0
"'4016'","'12/20/09 12/26/09'","NN:Involved decisions re:child care*",100.0
"'4021'","'12/20/09 12/26/09'","Std Newborn Nursery",-
"'4021'","'12/20/09 12/26/09'","Newborn Nursery",100.0
"'4021'","'12/20/09 12/26/09'","NN:Involved decisions re:child care*",100.0
"'4011'","'12/20/09 12/26/09'","Std Newborn Nursery",-
"'4011'","'12/20/09 12/26/09'","Newborn Nursery",75.0
"'4011'","'12/20/09 12/26/09'","NN:Involved decisions re:child care*",75.0
"'4002'","'12/20/09 12/26/09'","Std Newborn Nursery",-
"'4002'","'12/20/09 12/26/09'","Newborn Nursery",75.0
"'4002'","'12/20/09 12/26/09'","NN:Involved decisions re:child care*",75.0
"'4010'","'12/20/09 12/26/09'","Std Newborn Nursery",-
"'4010'","'12/20/09 12/26/09'","Newborn Nursery",100.0
"'4010'","'12/20/09 12/26/09'","NN:Involved decisions re:child care*",100.0
"'4007'","'12/20/09 12/26/09'","Std Newborn Nursery",-
"'4007'","'12/20/09 12/26/09'","Newborn Nursery",75.0
"'4007'","'12/20/09 12/26/09'","NN:Involved decisions re:child care*",75.0
"'Total'","'12/20/09 12/26/09'","Std Newborn Nursery",-
"'Total'","'12/20/09 12/26/09'","Newborn Nursery",90.6
"'Total'","'12/20/09 12/26/09'","NN:Involved decisions re:child care*",90.6
"'4018'","'12/27/09 1/2/10'","Std Newborn Nursery",-
"'4018'","'12/27/09 1/2/10'","Newborn Nursery",100.0
"'4018'","'12/27/09 1/2/10'","NN:Involved decisions re:child care*",100.0
"'4020'","'12/27/09 1/2/10'","Std Newborn Nursery",-
"'4020'","'12/27/09 1/2/10'","Newborn Nursery",100.0
"'4020'","'12/27/09 1/2/10'","NN:Involved decisions re:child care*",100.0
"'Total'","'12/27/09 1/2/10'","Std Newborn Nursery",-
"'Total'","'12/27/09 1/2/10'","Newborn Nursery",100.0
"'Total'","'12/27/09 1/2/10'","NN:Involved decisions re:child care*",100.0
"'4006'","'Total'","Std Newborn Nursery",-
"'4006'","'Total'","Newborn Nursery",85.0
"'4006'","'Total'","NN:Involved decisions re:child care*",85.0
"'4004'","'Total'","Std Newborn Nursery",-
"'4004'","'Total'","Newborn Nursery",87.5
"'4004'","'Total'","NN:Involved decisions re:child care*",87.5
"'4022'","'Total'","Std Newborn Nursery",-
"'4022'","'Total'","Newborn Nursery",79.6
"'4022'","'Total'","NN:Involved decisions re:child care*",79.6
"'4018'","'Total'","Std Newborn Nursery",-
"'4018'","'Total'","Newborn Nursery",90.6
"'4018'","'Total'","NN:Involved decisions re:child care*",90.6
"'4020'","'Total'","Std Newborn Nursery",-
"'4020'","'Total'","Newborn Nursery",95.8
"'4020'","'Total'","NN:Involved decisions re:child care*",95.8
"'4029'","'Total'","Std Newborn Nursery",-
"'4029'","'Total'","Newborn Nursery",93.8
"'4029'","'Total'","NN:Involved decisions re:child care*",93.8
"'4015'","'Total'","Std Newborn Nursery",-
"'4015'","'Total'","Newborn Nursery",87.5
"'4015'","'Total'","NN:Involved decisions re:child care*",87.5
"'4023'","'Total'","Std Newborn Nursery",-
"'4023'","'Total'","Newborn Nursery",89.3
"'4023'","'Total'","NN:Involved decisions re:child care*",89.3
"'4008'","'Total'","Std Newborn Nursery",-
"'4008'","'Total'","Newborn Nursery",85.7
"'4008'","'Total'","NN:Involved decisions re:child care*",85.7
"'4014'","'Total'","Std Newborn Nursery",-
"'4014'","'Total'","Newborn Nursery",96.9
"'4014'","'Total'","NN:Involved decisions re:child care*",96.9
"'4003'","'Total'","Std Newborn Nursery",-
"'4003'","'Total'","Newborn Nursery",92.5
"'4003'","'Total'","NN:Involved decisions re:child care*",92.5
"'4025'","'Total'","Std Newborn Nursery",-
"'4025'","'Total'","Newborn Nursery",94.4
"'4025'","'Total'","NN:Involved decisions re:child care*",94.4
"'4027'","'Total'","Std Newborn Nursery",-
"'4027'","'Total'","Newborn Nursery",89.3
"'4027'","'Total'","NN:Involved decisions re:child care*",89.3
"'4026'","'Total'","Std Newborn Nursery",-
"'4026'","'Total'","Newborn Nursery",100.0
"'4026'","'Total'","NN:Involved decisions re:child care*",100.0
"'4016'","'Total'","Std Newborn Nursery",-
"'4016'","'Total'","Newborn Nursery",96.2
"'4016'","'Total'","NN:Involved decisions re:child care*",96.2
"'4017'","'Total'","Std Newborn Nursery",-
"'4017'","'Total'","Newborn Nursery",100.0
"'4017'","'Total'","NN:Involved decisions re:child care*",100.0
"'4009'","'Total'","Std Newborn Nursery",-
"'4009'","'Total'","Newborn Nursery",85.7
"'4009'","'Total'","NN:Involved decisions re:child care*",85.7
"'4021'","'Total'","Std Newborn Nursery",-
"'4021'","'Total'","Newborn Nursery",81.3
"'4021'","'Total'","NN:Involved decisions re:child care*",81.3
"'4011'","'Total'","Std Newborn Nursery",-
"'4011'","'Total'","Newborn Nursery",84.4
"'4011'","'Total'","NN:Involved decisions re:child care*",84.4
"'4002'","'Total'","Std Newborn Nursery",-
"'4002'","'Total'","Newborn Nursery",93.2
"'4002'","'Total'","NN:Involved decisions re:child care*",93.2
"'4010'","'Total'","Std Newborn Nursery",-
"'4010'","'Total'","Newborn Nursery",89.3
"'4010'","'Total'","NN:Involved decisions re:child care*",89.3
"'4007'","'Total'","Std Newborn Nursery",-
"'4007'","'Total'","Newborn Nursery",79.2
"'4007'","'Total'","NN:Involved decisions re:child care*",79.2
"'4013'","'Total'","Std Newborn Nursery",-
"'4013'","'Total'","Newborn Nursery",94.2
"'4013'","'Total'","NN:Involved decisions re:child care*",94.2
"'4028'","'Total'","Std Newborn Nursery",-
"'4028'","'Total'","Newborn Nursery",79.2
"'4028'","'Total'","NN:Involved decisions re:child care*",79.2
"'4001'","'Total'","Std Newborn Nursery",-
"'4001'","'Total'","Newborn Nursery",89.3
"'4001'","'Total'","NN:Involved decisions re:child care*",89.3
"'4005'","'Total'","Std Newborn Nursery",-
"'4005'","'Total'","Newborn Nursery",88.6
"'4005'","'Total'","NN:Involved decisions re:child care*",88.6
"'4024'","'Total'","Std Newborn Nursery",-
"'4024'","'Total'","Newborn Nursery",79.2
"'4024'","'Total'","NN:Involved decisions re:child care*",79.2
"'4012'","'Total'","Std Newborn Nursery",-
"'4012'","'Total'","Newborn Nursery",90.0
"'4012'","'Total'","NN:Involved decisions re:child care*",90.0
"'4019'","'Total'","Std Newborn Nursery",-
"'4019'","'Total'","Newborn Nursery",87.5
"'4019'","'Total'","NN:Involved decisions re:child care*",87.5
"'NURS'","'Total'","Std Newborn Nursery",-
"'NURS'","'Total'","Newborn Nursery",100.0
"'NURS'","'Total'","NN:Involved decisions re:child care*",100.0
"'Total'","'Total'","Std Newborn Nursery",-
"'Total'","'Total'","Newborn Nursery",89.2
"'Total'","'Total'","NN:Involved decisions re:child care*",89.2


