"FILTER","CHOICE(S)"


"Site","Emory University Hospital Midtown",(Site:1)
"IT Discharge date","From 01/01/2001 To 12/31/2001"

"MEAN REPORT"


"IT Room","IT Discharge date","Question","mean"
"'611001'","'12/31/00 1/6/01'","Std Newborn Nursery",-
"'611001'","'12/31/00 1/6/01'","Newborn Nursery",67.9
"'611001'","'12/31/00 1/6/01'","Friendliness/courtesy NN nurses*",75.0
"'611001'","'12/31/00 1/6/01'","NN:Involved decisions re:child care*",25.0
"'611001'","'12/31/00 1/6/01'","NN:Instructions re: care for child*",75.0
"'611001'","'12/31/00 1/6/01'","Explain equip on/near child in NN*",75.0
"'611001'","'12/31/00 1/6/01'","NN:Attention paid to childs needs*",75.0
"'611001'","'12/31/00 1/6/01'","NN nurses kept you informed*",75.0
"'611001'","'12/31/00 1/6/01'","Skill of Newborn Nursery nurses*",75.0
"'Total'","'12/31/00 1/6/01'","Std Newborn Nursery",-
"'Total'","'12/31/00 1/6/01'","Newborn Nursery",67.9
"'Total'","'12/31/00 1/6/01'","Friendliness/courtesy NN nurses*",75.0
"'Total'","'12/31/00 1/6/01'","NN:Involved decisions re:child care*",25.0
"'Total'","'12/31/00 1/6/01'","NN:Instructions re: care for child*",75.0
"'Total'","'12/31/00 1/6/01'","Explain equip on/near child in NN*",75.0
"'Total'","'12/31/00 1/6/01'","NN:Attention paid to childs needs*",75.0
"'Total'","'12/31/00 1/6/01'","NN nurses kept you informed*",75.0
"'Total'","'12/31/00 1/6/01'","Skill of Newborn Nursery nurses*",75.0
"'610401'","'1/7/01 1/13/01'","Std Newborn Nursery",-
"'610401'","'1/7/01 1/13/01'","Newborn Nursery",100.0
"'610401'","'1/7/01 1/13/01'","Friendliness/courtesy NN nurses*",100.0
"'610401'","'1/7/01 1/13/01'","NN:Involved decisions re:child care*",100.0
"'610401'","'1/7/01 1/13/01'","NN:Instructions re: care for child*",100.0
"'610401'","'1/7/01 1/13/01'","Explain equip on/near child in NN*",100.0
"'610401'","'1/7/01 1/13/01'","NN:Attention paid to childs needs*",100.0
"'610401'","'1/7/01 1/13/01'","NN nurses kept you informed*",100.0
"'610401'","'1/7/01 1/13/01'","Skill of Newborn Nursery nurses*",100.0
"'Total'","'1/7/01 1/13/01'","Std Newborn Nursery",-
"'Total'","'1/7/01 1/13/01'","Newborn Nursery",100.0
"'Total'","'1/7/01 1/13/01'","Friendliness/courtesy NN nurses*",100.0
"'Total'","'1/7/01 1/13/01'","NN:Involved decisions re:child care*",100.0
"'Total'","'1/7/01 1/13/01'","NN:Instructions re: care for child*",100.0
"'Total'","'1/7/01 1/13/01'","Explain equip on/near child in NN*",100.0
"'Total'","'1/7/01 1/13/01'","NN:Attention paid to childs needs*",100.0
"'Total'","'1/7/01 1/13/01'","NN nurses kept you informed*",100.0
"'Total'","'1/7/01 1/13/01'","Skill of Newborn Nursery nurses*",100.0
"'611901'","'1/14/01 1/20/01'","Std Newborn Nursery",-
"'611901'","'1/14/01 1/20/01'","Newborn Nursery",75.0
"'611901'","'1/14/01 1/20/01'","Friendliness/courtesy NN nurses*",75.0
"'611901'","'1/14/01 1/20/01'","NN:Involved decisions re:child care*",75.0
"'611901'","'1/14/01 1/20/01'","NN:Instructions re: care for child*",75.0
"'611901'","'1/14/01 1/20/01'","Explain equip on/near child in NN*",75.0
"'611901'","'1/14/01 1/20/01'","NN:Attention paid to childs needs*",75.0
"'611901'","'1/14/01 1/20/01'","NN nurses kept you informed*",75.0
"'611901'","'1/14/01 1/20/01'","Skill of Newborn Nursery nurses*",75.0
"'611001'","'1/14/01 1/20/01'","Std Newborn Nursery",-
"'611001'","'1/14/01 1/20/01'","Newborn Nursery",100.0
"'611001'","'1/14/01 1/20/01'","Friendliness/courtesy NN nurses*",100.0
"'611001'","'1/14/01 1/20/01'","NN:Involved decisions re:child care*",100.0
"'611001'","'1/14/01 1/20/01'","NN:Instructions re: care for child*",100.0
"'611001'","'1/14/01 1/20/01'","Explain equip on/near child in NN*",100.0
"'611001'","'1/14/01 1/20/01'","NN:Attention paid to childs needs*",100.0
"'611001'","'1/14/01 1/20/01'","NN nurses kept you informed*",100.0
"'611001'","'1/14/01 1/20/01'","Skill of Newborn Nursery nurses*",100.0
"'Total'","'1/14/01 1/20/01'","Std Newborn Nursery",-
"'Total'","'1/14/01 1/20/01'","Newborn Nursery",87.5
"'Total'","'1/14/01 1/20/01'","Friendliness/courtesy NN nurses*",87.5
"'Total'","'1/14/01 1/20/01'","NN:Involved decisions re:child care*",87.5
"'Total'","'1/14/01 1/20/01'","NN:Instructions re: care for child*",87.5
"'Total'","'1/14/01 1/20/01'","Explain equip on/near child in NN*",87.5
"'Total'","'1/14/01 1/20/01'","NN:Attention paid to childs needs*",87.5
"'Total'","'1/14/01 1/20/01'","NN nurses kept you informed*",87.5
"'Total'","'1/14/01 1/20/01'","Skill of Newborn Nursery nurses*",87.5
"'611901'","'1/21/01 1/27/01'","Std Newborn Nursery",-
"'611901'","'1/21/01 1/27/01'","Newborn Nursery",100.0
"'611901'","'1/21/01 1/27/01'","Friendliness/courtesy NN nurses*",100.0
"'611901'","'1/21/01 1/27/01'","NN:Involved decisions re:child care*",100.0
"'611901'","'1/21/01 1/27/01'","NN:Instructions re: care for child*",100.0
"'611901'","'1/21/01 1/27/01'","Explain equip on/near child in NN*",100.0
"'611901'","'1/21/01 1/27/01'","NN:Attention paid to childs needs*",100.0
"'611901'","'1/21/01 1/27/01'","NN nurses kept you informed*",100.0
"'611901'","'1/21/01 1/27/01'","Skill of Newborn Nursery nurses*",100.0
"'612001'","'1/21/01 1/27/01'","Std Newborn Nursery",-
"'612001'","'1/21/01 1/27/01'","Newborn Nursery",78.6
"'612001'","'1/21/01 1/27/01'","Friendliness/courtesy NN nurses*",100.0
"'612001'","'1/21/01 1/27/01'","NN:Involved decisions re:child care*",100.0
"'612001'","'1/21/01 1/27/01'","NN:Instructions re: care for child*",25.0
"'612001'","'1/21/01 1/27/01'","Explain equip on/near child in NN*",100.0
"'612001'","'1/21/01 1/27/01'","NN:Attention paid to childs needs*",100.0
"'612001'","'1/21/01 1/27/01'","NN nurses kept you informed*",25.0
"'612001'","'1/21/01 1/27/01'","Skill of Newborn Nursery nurses*",100.0
"'Total'","'1/21/01 1/27/01'","Std Newborn Nursery",-
"'Total'","'1/21/01 1/27/01'","Newborn Nursery",89.3
"'Total'","'1/21/01 1/27/01'","Friendliness/courtesy NN nurses*",100.0
"'Total'","'1/21/01 1/27/01'","NN:Involved decisions re:child care*",100.0
"'Total'","'1/21/01 1/27/01'","NN:Instructions re: care for child*",62.5
"'Total'","'1/21/01 1/27/01'","Explain equip on/near child in NN*",100.0
"'Total'","'1/21/01 1/27/01'","NN:Attention paid to childs needs*",100.0
"'Total'","'1/21/01 1/27/01'","NN nurses kept you informed*",62.5
"'Total'","'1/21/01 1/27/01'","Skill of Newborn Nursery nurses*",100.0
"'610901'","'1/28/01 2/3/01'","Std Newborn Nursery",-
"'610901'","'1/28/01 2/3/01'","Newborn Nursery",95.0
"'610901'","'1/28/01 2/3/01'","Friendliness/courtesy NN nurses*",100.0
"'610901'","'1/28/01 2/3/01'","NN:Involved decisions re:child care*",100.0
"'610901'","'1/28/01 2/3/01'","NN:Instructions re: care for child*",75.0
"'610901'","'1/28/01 2/3/01'","Explain equip on/near child in NN*",100.0
"'610901'","'1/28/01 2/3/01'","NN:Attention paid to childs needs*",100.0
"'610901'","'1/28/01 2/3/01'","NN nurses kept you informed*",100.0
"'610901'","'1/28/01 2/3/01'","Skill of Newborn Nursery nurses*",100.0
"'Total'","'1/28/01 2/3/01'","Std Newborn Nursery",-
"'Total'","'1/28/01 2/3/01'","Newborn Nursery",95.0
"'Total'","'1/28/01 2/3/01'","Friendliness/courtesy NN nurses*",100.0
"'Total'","'1/28/01 2/3/01'","NN:Involved decisions re:child care*",100.0
"'Total'","'1/28/01 2/3/01'","NN:Instructions re: care for child*",75.0
"'Total'","'1/28/01 2/3/01'","Explain equip on/near child in NN*",100.0
"'Total'","'1/28/01 2/3/01'","NN:Attention paid to childs needs*",100.0
"'Total'","'1/28/01 2/3/01'","NN nurses kept you informed*",100.0
"'Total'","'1/28/01 2/3/01'","Skill of Newborn Nursery nurses*",100.0
"'612101'","'2/11/01 2/17/01'","Std Newborn Nursery",-
"'612101'","'2/11/01 2/17/01'","Newborn Nursery",75.0
"'612101'","'2/11/01 2/17/01'","Friendliness/courtesy NN nurses*",75.0
"'612101'","'2/11/01 2/17/01'","NN:Involved decisions re:child care*",75.0
"'612101'","'2/11/01 2/17/01'","Explain equip on/near child in NN*",100.0
"'612101'","'2/11/01 2/17/01'","NN:Attention paid to childs needs*",75.0
"'612101'","'2/11/01 2/17/01'","NN nurses kept you informed*",50.0
"'612101'","'2/11/01 2/17/01'","Skill of Newborn Nursery nurses*",75.0
"'Total'","'2/11/01 2/17/01'","Std Newborn Nursery",-
"'Total'","'2/11/01 2/17/01'","Newborn Nursery",75.0
"'Total'","'2/11/01 2/17/01'","Friendliness/courtesy NN nurses*",75.0
"'Total'","'2/11/01 2/17/01'","NN:Involved decisions re:child care*",75.0
"'Total'","'2/11/01 2/17/01'","Explain equip on/near child in NN*",100.0
"'Total'","'2/11/01 2/17/01'","NN:Attention paid to childs needs*",75.0
"'Total'","'2/11/01 2/17/01'","NN nurses kept you informed*",50.0
"'Total'","'2/11/01 2/17/01'","Skill of Newborn Nursery nurses*",75.0
"'610701'","'2/18/01 2/24/01'","Std Newborn Nursery",-
"'610701'","'2/18/01 2/24/01'","Newborn Nursery",60.7
"'610701'","'2/18/01 2/24/01'","Friendliness/courtesy NN nurses*",50.0
"'610701'","'2/18/01 2/24/01'","NN:Involved decisions re:child care*",25.0
"'610701'","'2/18/01 2/24/01'","NN:Instructions re: care for child*",100.0
"'610701'","'2/18/01 2/24/01'","Explain equip on/near child in NN*",50.0
"'610701'","'2/18/01 2/24/01'","NN:Attention paid to childs needs*",50.0
"'610701'","'2/18/01 2/24/01'","NN nurses kept you informed*",75.0
"'610701'","'2/18/01 2/24/01'","Skill of Newborn Nursery nurses*",75.0
"'Total'","'2/18/01 2/24/01'","Std Newborn Nursery",-
"'Total'","'2/18/01 2/24/01'","Newborn Nursery",60.7
"'Total'","'2/18/01 2/24/01'","Friendliness/courtesy NN nurses*",50.0
"'Total'","'2/18/01 2/24/01'","NN:Involved decisions re:child care*",25.0
"'Total'","'2/18/01 2/24/01'","NN:Instructions re: care for child*",100.0
"'Total'","'2/18/01 2/24/01'","Explain equip on/near child in NN*",50.0
"'Total'","'2/18/01 2/24/01'","NN:Attention paid to childs needs*",50.0
"'Total'","'2/18/01 2/24/01'","NN nurses kept you informed*",75.0
"'Total'","'2/18/01 2/24/01'","Skill of Newborn Nursery nurses*",75.0
"'611101'","'2/25/01 3/3/01'","Std Newborn Nursery",-
"'611101'","'2/25/01 3/3/01'","Newborn Nursery",100.0
"'611101'","'2/25/01 3/3/01'","Friendliness/courtesy NN nurses*",100.0
"'611101'","'2/25/01 3/3/01'","NN:Involved decisions re:child care*",100.0
"'611101'","'2/25/01 3/3/01'","NN:Instructions re: care for child*",100.0
"'611101'","'2/25/01 3/3/01'","Explain equip on/near child in NN*",100.0
"'611101'","'2/25/01 3/3/01'","NN:Attention paid to childs needs*",100.0
"'611101'","'2/25/01 3/3/01'","NN nurses kept you informed*",100.0
"'611101'","'2/25/01 3/3/01'","Skill of Newborn Nursery nurses*",100.0
"'610501'","'2/25/01 3/3/01'","Std Newborn Nursery",-
"'610501'","'2/25/01 3/3/01'","Newborn Nursery",96.4
"'610501'","'2/25/01 3/3/01'","Friendliness/courtesy NN nurses*",100.0
"'610501'","'2/25/01 3/3/01'","NN:Involved decisions re:child care*",100.0
"'610501'","'2/25/01 3/3/01'","NN:Instructions re: care for child*",100.0
"'610501'","'2/25/01 3/3/01'","Explain equip on/near child in NN*",75.0
"'610501'","'2/25/01 3/3/01'","NN:Attention paid to childs needs*",100.0
"'610501'","'2/25/01 3/3/01'","NN nurses kept you informed*",100.0
"'610501'","'2/25/01 3/3/01'","Skill of Newborn Nursery nurses*",100.0
"'Total'","'2/25/01 3/3/01'","Std Newborn Nursery",-
"'Total'","'2/25/01 3/3/01'","Newborn Nursery",98.2
"'Total'","'2/25/01 3/3/01'","Friendliness/courtesy NN nurses*",100.0
"'Total'","'2/25/01 3/3/01'","NN:Involved decisions re:child care*",100.0
"'Total'","'2/25/01 3/3/01'","NN:Instructions re: care for child*",100.0
"'Total'","'2/25/01 3/3/01'","Explain equip on/near child in NN*",87.5
"'Total'","'2/25/01 3/3/01'","NN:Attention paid to childs needs*",100.0
"'Total'","'2/25/01 3/3/01'","NN nurses kept you informed*",100.0
"'Total'","'2/25/01 3/3/01'","Skill of Newborn Nursery nurses*",100.0
"'611901'","'3/4/01 3/10/01'","Std Newborn Nursery",-
"'611901'","'3/4/01 3/10/01'","Newborn Nursery",71.4
"'611901'","'3/4/01 3/10/01'","Friendliness/courtesy NN nurses*",75.0
"'611901'","'3/4/01 3/10/01'","NN:Involved decisions re:child care*",75.0
"'611901'","'3/4/01 3/10/01'","NN:Instructions re: care for child*",75.0
"'611901'","'3/4/01 3/10/01'","Explain equip on/near child in NN*",75.0
"'611901'","'3/4/01 3/10/01'","NN:Attention paid to childs needs*",75.0
"'611901'","'3/4/01 3/10/01'","NN nurses kept you informed*",75.0
"'611901'","'3/4/01 3/10/01'","Skill of Newborn Nursery nurses*",50.0
"'Total'","'3/4/01 3/10/01'","Std Newborn Nursery",-
"'Total'","'3/4/01 3/10/01'","Newborn Nursery",71.4
"'Total'","'3/4/01 3/10/01'","Friendliness/courtesy NN nurses*",75.0
"'Total'","'3/4/01 3/10/01'","NN:Involved decisions re:child care*",75.0
"'Total'","'3/4/01 3/10/01'","NN:Instructions re: care for child*",75.0
"'Total'","'3/4/01 3/10/01'","Explain equip on/near child in NN*",75.0
"'Total'","'3/4/01 3/10/01'","NN:Attention paid to childs needs*",75.0
"'Total'","'3/4/01 3/10/01'","NN nurses kept you informed*",75.0
"'Total'","'3/4/01 3/10/01'","Skill of Newborn Nursery nurses*",50.0
"'611001'","'3/11/01 3/17/01'","Std Newborn Nursery",-
"'611001'","'3/11/01 3/17/01'","Newborn Nursery",60.7
"'611001'","'3/11/01 3/17/01'","Friendliness/courtesy NN nurses*",50.0
"'611001'","'3/11/01 3/17/01'","NN:Involved decisions re:child care*",75.0
"'611001'","'3/11/01 3/17/01'","NN:Instructions re: care for child*",50.0
"'611001'","'3/11/01 3/17/01'","Explain equip on/near child in NN*",75.0
"'611001'","'3/11/01 3/17/01'","NN:Attention paid to childs needs*",75.0
"'611001'","'3/11/01 3/17/01'","NN nurses kept you informed*",50.0
"'611001'","'3/11/01 3/17/01'","Skill of Newborn Nursery nurses*",50.0
"'610601'","'3/11/01 3/17/01'","Std Newborn Nursery",-
"'610601'","'3/11/01 3/17/01'","Newborn Nursery",83.3
"'610601'","'3/11/01 3/17/01'","Friendliness/courtesy NN nurses*",75.0
"'610601'","'3/11/01 3/17/01'","NN:Instructions re: care for child*",100.0
"'610601'","'3/11/01 3/17/01'","Explain equip on/near child in NN*",75.0
"'Total'","'3/11/01 3/17/01'","Std Newborn Nursery",-
"'Total'","'3/11/01 3/17/01'","Newborn Nursery",72.0
"'Total'","'3/11/01 3/17/01'","Friendliness/courtesy NN nurses*",62.5
"'Total'","'3/11/01 3/17/01'","NN:Involved decisions re:child care*",75.0
"'Total'","'3/11/01 3/17/01'","NN:Instructions re: care for child*",75.0
"'Total'","'3/11/01 3/17/01'","Explain equip on/near child in NN*",75.0
"'Total'","'3/11/01 3/17/01'","NN:Attention paid to childs needs*",75.0
"'Total'","'3/11/01 3/17/01'","NN nurses kept you informed*",50.0
"'Total'","'3/11/01 3/17/01'","Skill of Newborn Nursery nurses*",50.0
"'610401'","'3/18/01 3/24/01'","Std Newborn Nursery",-
"'610401'","'3/18/01 3/24/01'","Newborn Nursery",96.4
"'610401'","'3/18/01 3/24/01'","Friendliness/courtesy NN nurses*",75.0
"'610401'","'3/18/01 3/24/01'","NN:Involved decisions re:child care*",100.0
"'610401'","'3/18/01 3/24/01'","NN:Instructions re: care for child*",100.0
"'610401'","'3/18/01 3/24/01'","Explain equip on/near child in NN*",100.0
"'610401'","'3/18/01 3/24/01'","NN:Attention paid to childs needs*",100.0
"'610401'","'3/18/01 3/24/01'","NN nurses kept you informed*",100.0
"'610401'","'3/18/01 3/24/01'","Skill of Newborn Nursery nurses*",100.0
"'Total'","'3/18/01 3/24/01'","Std Newborn Nursery",-
"'Total'","'3/18/01 3/24/01'","Newborn Nursery",96.4
"'Total'","'3/18/01 3/24/01'","Friendliness/courtesy NN nurses*",75.0
"'Total'","'3/18/01 3/24/01'","NN:Involved decisions re:child care*",100.0
"'Total'","'3/18/01 3/24/01'","NN:Instructions re: care for child*",100.0
"'Total'","'3/18/01 3/24/01'","Explain equip on/near child in NN*",100.0
"'Total'","'3/18/01 3/24/01'","NN:Attention paid to childs needs*",100.0
"'Total'","'3/18/01 3/24/01'","NN nurses kept you informed*",100.0
"'Total'","'3/18/01 3/24/01'","Skill of Newborn Nursery nurses*",100.0
"'611901'","'3/25/01 3/31/01'","Std Newborn Nursery",-
"'611901'","'3/25/01 3/31/01'","Newborn Nursery",100.0
"'611901'","'3/25/01 3/31/01'","Friendliness/courtesy NN nurses*",100.0
"'611901'","'3/25/01 3/31/01'","NN:Involved decisions re:child care*",100.0
"'611901'","'3/25/01 3/31/01'","NN:Instructions re: care for child*",100.0
"'611901'","'3/25/01 3/31/01'","Explain equip on/near child in NN*",100.0
"'611901'","'3/25/01 3/31/01'","NN:Attention paid to childs needs*",100.0
"'611901'","'3/25/01 3/31/01'","NN nurses kept you informed*",100.0
"'611901'","'3/25/01 3/31/01'","Skill of Newborn Nursery nurses*",100.0
"'610701'","'3/25/01 3/31/01'","Std Newborn Nursery",-
"'610701'","'3/25/01 3/31/01'","Newborn Nursery",75.0
"'610701'","'3/25/01 3/31/01'","Friendliness/courtesy NN nurses*",75.0
"'610701'","'3/25/01 3/31/01'","NN:Involved decisions re:child care*",75.0
"'610701'","'3/25/01 3/31/01'","NN:Instructions re: care for child*",75.0
"'610701'","'3/25/01 3/31/01'","Explain equip on/near child in NN*",75.0
"'610701'","'3/25/01 3/31/01'","NN:Attention paid to childs needs*",75.0
"'610701'","'3/25/01 3/31/01'","NN nurses kept you informed*",75.0
"'610701'","'3/25/01 3/31/01'","Skill of Newborn Nursery nurses*",75.0
"'611701'","'3/25/01 3/31/01'","Std Newborn Nursery",-
"'611701'","'3/25/01 3/31/01'","Newborn Nursery",100.0
"'611701'","'3/25/01 3/31/01'","Friendliness/courtesy NN nurses*",100.0
"'611701'","'3/25/01 3/31/01'","NN:Involved decisions re:child care*",100.0
"'611701'","'3/25/01 3/31/01'","NN:Instructions re: care for child*",100.0
"'611701'","'3/25/01 3/31/01'","Explain equip on/near child in NN*",100.0
"'611701'","'3/25/01 3/31/01'","NN:Attention paid to childs needs*",100.0
"'611701'","'3/25/01 3/31/01'","NN nurses kept you informed*",100.0
"'611701'","'3/25/01 3/31/01'","Skill of Newborn Nursery nurses*",100.0
"'Total'","'3/25/01 3/31/01'","Std Newborn Nursery",-
"'Total'","'3/25/01 3/31/01'","Newborn Nursery",91.7
"'Total'","'3/25/01 3/31/01'","Friendliness/courtesy NN nurses*",91.7
"'Total'","'3/25/01 3/31/01'","NN:Involved decisions re:child care*",91.7
"'Total'","'3/25/01 3/31/01'","NN:Instructions re: care for child*",91.7
"'Total'","'3/25/01 3/31/01'","Explain equip on/near child in NN*",91.7
"'Total'","'3/25/01 3/31/01'","NN:Attention paid to childs needs*",91.7
"'Total'","'3/25/01 3/31/01'","NN nurses kept you informed*",91.7
"'Total'","'3/25/01 3/31/01'","Skill of Newborn Nursery nurses*",91.7
"'610301'","'4/1/01 4/7/01'","Std Newborn Nursery",-
"'610301'","'4/1/01 4/7/01'","Newborn Nursery",50.0
"'610301'","'4/1/01 4/7/01'","Friendliness/courtesy NN nurses*",100.0
"'610301'","'4/1/01 4/7/01'","NN:Involved decisions re:child care*",25.0
"'610301'","'4/1/01 4/7/01'","NN:Instructions re: care for child*",25.0
"'610301'","'4/1/01 4/7/01'","Explain equip on/near child in NN*",75.0
"'610301'","'4/1/01 4/7/01'","NN:Attention paid to childs needs*",25.0
"'Total'","'4/1/01 4/7/01'","Std Newborn Nursery",-
"'Total'","'4/1/01 4/7/01'","Newborn Nursery",50.0
"'Total'","'4/1/01 4/7/01'","Friendliness/courtesy NN nurses*",100.0
"'Total'","'4/1/01 4/7/01'","NN:Involved decisions re:child care*",25.0
"'Total'","'4/1/01 4/7/01'","NN:Instructions re: care for child*",25.0
"'Total'","'4/1/01 4/7/01'","Explain equip on/near child in NN*",75.0
"'Total'","'4/1/01 4/7/01'","NN:Attention paid to childs needs*",25.0
"'611101'","'4/8/01 4/14/01'","Std Newborn Nursery",-
"'611101'","'4/8/01 4/14/01'","Newborn Nursery",75.0
"'611101'","'4/8/01 4/14/01'","Friendliness/courtesy NN nurses*",75.0
"'611101'","'4/8/01 4/14/01'","NN:Involved decisions re:child care*",75.0
"'611101'","'4/8/01 4/14/01'","NN:Instructions re: care for child*",75.0
"'611101'","'4/8/01 4/14/01'","Explain equip on/near child in NN*",75.0
"'611101'","'4/8/01 4/14/01'","NN:Attention paid to childs needs*",75.0
"'611101'","'4/8/01 4/14/01'","NN nurses kept you informed*",75.0
"'611101'","'4/8/01 4/14/01'","Skill of Newborn Nursery nurses*",75.0
"'610901'","'4/8/01 4/14/01'","Std Newborn Nursery",-
"'610901'","'4/8/01 4/14/01'","Newborn Nursery",78.6
"'610901'","'4/8/01 4/14/01'","Friendliness/courtesy NN nurses*",100.0
"'610901'","'4/8/01 4/14/01'","NN:Involved decisions re:child care*",75.0
"'610901'","'4/8/01 4/14/01'","NN:Instructions re: care for child*",75.0
"'610901'","'4/8/01 4/14/01'","Explain equip on/near child in NN*",75.0
"'610901'","'4/8/01 4/14/01'","NN:Attention paid to childs needs*",75.0
"'610901'","'4/8/01 4/14/01'","NN nurses kept you informed*",75.0
"'610901'","'4/8/01 4/14/01'","Skill of Newborn Nursery nurses*",75.0
"'Total'","'4/8/01 4/14/01'","Std Newborn Nursery",-
"'Total'","'4/8/01 4/14/01'","Newborn Nursery",76.8
"'Total'","'4/8/01 4/14/01'","Friendliness/courtesy NN nurses*",87.5
"'Total'","'4/8/01 4/14/01'","NN:Involved decisions re:child care*",75.0
"'Total'","'4/8/01 4/14/01'","NN:Instructions re: care for child*",75.0
"'Total'","'4/8/01 4/14/01'","Explain equip on/near child in NN*",75.0
"'Total'","'4/8/01 4/14/01'","NN:Attention paid to childs needs*",75.0
"'Total'","'4/8/01 4/14/01'","NN nurses kept you informed*",75.0
"'Total'","'4/8/01 4/14/01'","Skill of Newborn Nursery nurses*",75.0
"'612101'","'4/15/01 4/21/01'","Std Newborn Nursery",-
"'612101'","'4/15/01 4/21/01'","Newborn Nursery",75.0
"'612101'","'4/15/01 4/21/01'","Friendliness/courtesy NN nurses*",75.0
"'612101'","'4/15/01 4/21/01'","NN:Involved decisions re:child care*",75.0
"'612101'","'4/15/01 4/21/01'","NN:Instructions re: care for child*",75.0
"'612101'","'4/15/01 4/21/01'","Explain equip on/near child in NN*",75.0
"'612101'","'4/15/01 4/21/01'","NN:Attention paid to childs needs*",75.0
"'612101'","'4/15/01 4/21/01'","NN nurses kept you informed*",75.0
"'612101'","'4/15/01 4/21/01'","Skill of Newborn Nursery nurses*",75.0
"'610801'","'4/15/01 4/21/01'","Std Newborn Nursery",-
"'610801'","'4/15/01 4/21/01'","Newborn Nursery",100.0
"'610801'","'4/15/01 4/21/01'","Friendliness/courtesy NN nurses*",100.0
"'610801'","'4/15/01 4/21/01'","NN:Involved decisions re:child care*",100.0
"'610801'","'4/15/01 4/21/01'","NN:Instructions re: care for child*",100.0
"'610801'","'4/15/01 4/21/01'","Explain equip on/near child in NN*",100.0
"'610801'","'4/15/01 4/21/01'","NN:Attention paid to childs needs*",100.0
"'610801'","'4/15/01 4/21/01'","NN nurses kept you informed*",100.0
"'610801'","'4/15/01 4/21/01'","Skill of Newborn Nursery nurses*",100.0
"'Total'","'4/15/01 4/21/01'","Std Newborn Nursery",-
"'Total'","'4/15/01 4/21/01'","Newborn Nursery",87.5
"'Total'","'4/15/01 4/21/01'","Friendliness/courtesy NN nurses*",87.5
"'Total'","'4/15/01 4/21/01'","NN:Involved decisions re:child care*",87.5
"'Total'","'4/15/01 4/21/01'","NN:Instructions re: care for child*",87.5
"'Total'","'4/15/01 4/21/01'","Explain equip on/near child in NN*",87.5
"'Total'","'4/15/01 4/21/01'","NN:Attention paid to childs needs*",87.5
"'Total'","'4/15/01 4/21/01'","NN nurses kept you informed*",87.5
"'Total'","'4/15/01 4/21/01'","Skill of Newborn Nursery nurses*",87.5
"'612301'","'4/22/01 4/28/01'","Std Newborn Nursery",-
"'612301'","'4/22/01 4/28/01'","Newborn Nursery",100.0
"'612301'","'4/22/01 4/28/01'","Friendliness/courtesy NN nurses*",100.0
"'612301'","'4/22/01 4/28/01'","NN:Involved decisions re:child care*",100.0
"'612301'","'4/22/01 4/28/01'","NN:Instructions re: care for child*",100.0
"'612301'","'4/22/01 4/28/01'","NN:Attention paid to childs needs*",100.0
"'612301'","'4/22/01 4/28/01'","NN nurses kept you informed*",100.0
"'612301'","'4/22/01 4/28/01'","Skill of Newborn Nursery nurses*",100.0
"'610501'","'4/22/01 4/28/01'","Std Newborn Nursery",-
"'610501'","'4/22/01 4/28/01'","Newborn Nursery",100.0
"'610501'","'4/22/01 4/28/01'","Friendliness/courtesy NN nurses*",100.0
"'610501'","'4/22/01 4/28/01'","NN:Involved decisions re:child care*",100.0
"'610501'","'4/22/01 4/28/01'","NN:Instructions re: care for child*",100.0
"'610501'","'4/22/01 4/28/01'","Explain equip on/near child in NN*",100.0
"'610501'","'4/22/01 4/28/01'","NN:Attention paid to childs needs*",100.0
"'610501'","'4/22/01 4/28/01'","NN nurses kept you informed*",100.0
"'610501'","'4/22/01 4/28/01'","Skill of Newborn Nursery nurses*",100.0
"'Total'","'4/22/01 4/28/01'","Std Newborn Nursery",-
"'Total'","'4/22/01 4/28/01'","Newborn Nursery",100.0
"'Total'","'4/22/01 4/28/01'","Friendliness/courtesy NN nurses*",100.0
"'Total'","'4/22/01 4/28/01'","NN:Involved decisions re:child care*",100.0
"'Total'","'4/22/01 4/28/01'","NN:Instructions re: care for child*",100.0
"'Total'","'4/22/01 4/28/01'","Explain equip on/near child in NN*",100.0
"'Total'","'4/22/01 4/28/01'","NN:Attention paid to childs needs*",100.0
"'Total'","'4/22/01 4/28/01'","NN nurses kept you informed*",100.0
"'Total'","'4/22/01 4/28/01'","Skill of Newborn Nursery nurses*",100.0
"'611101'","'5/13/01 5/19/01'","Std Newborn Nursery",-
"'611101'","'5/13/01 5/19/01'","Newborn Nursery",79.2
"'611101'","'5/13/01 5/19/01'","Friendliness/courtesy NN nurses*",100.0
"'611101'","'5/13/01 5/19/01'","NN:Involved decisions re:child care*",100.0
"'611101'","'5/13/01 5/19/01'","NN:Instructions re: care for child*",100.0
"'611101'","'5/13/01 5/19/01'","Explain equip on/near child in NN*",50.0
"'611101'","'5/13/01 5/19/01'","NN nurses kept you informed*",75.0
"'611101'","'5/13/01 5/19/01'","Skill of Newborn Nursery nurses*",50.0
"'611001'","'5/13/01 5/19/01'","Std Newborn Nursery",-
"'611001'","'5/13/01 5/19/01'","Newborn Nursery",96.4
"'611001'","'5/13/01 5/19/01'","Friendliness/courtesy NN nurses*",100.0
"'611001'","'5/13/01 5/19/01'","NN:Involved decisions re:child care*",100.0
"'611001'","'5/13/01 5/19/01'","NN:Instructions re: care for child*",100.0
"'611001'","'5/13/01 5/19/01'","Explain equip on/near child in NN*",100.0
"'611001'","'5/13/01 5/19/01'","NN:Attention paid to childs needs*",100.0
"'611001'","'5/13/01 5/19/01'","NN nurses kept you informed*",75.0
"'611001'","'5/13/01 5/19/01'","Skill of Newborn Nursery nurses*",100.0
"'610501'","'5/13/01 5/19/01'","Std Newborn Nursery",-
"'610501'","'5/13/01 5/19/01'","Newborn Nursery",89.3
"'610501'","'5/13/01 5/19/01'","Friendliness/courtesy NN nurses*",100.0
"'610501'","'5/13/01 5/19/01'","NN:Involved decisions re:child care*",100.0
"'610501'","'5/13/01 5/19/01'","NN:Instructions re: care for child*",75.0
"'610501'","'5/13/01 5/19/01'","Explain equip on/near child in NN*",50.0
"'610501'","'5/13/01 5/19/01'","NN:Attention paid to childs needs*",100.0
"'610501'","'5/13/01 5/19/01'","NN nurses kept you informed*",100.0
"'610501'","'5/13/01 5/19/01'","Skill of Newborn Nursery nurses*",100.0
"'Total'","'5/13/01 5/19/01'","Std Newborn Nursery",-
"'Total'","'5/13/01 5/19/01'","Newborn Nursery",88.3
"'Total'","'5/13/01 5/19/01'","Friendliness/courtesy NN nurses*",100.0
"'Total'","'5/13/01 5/19/01'","NN:Involved decisions re:child care*",100.0
"'Total'","'5/13/01 5/19/01'","NN:Instructions re: care for child*",91.7
"'Total'","'5/13/01 5/19/01'","Explain equip on/near child in NN*",66.7
"'Total'","'5/13/01 5/19/01'","NN:Attention paid to childs needs*",100.0
"'Total'","'5/13/01 5/19/01'","NN nurses kept you informed*",83.3
"'Total'","'5/13/01 5/19/01'","Skill of Newborn Nursery nurses*",83.3
"'610601'","'5/20/01 5/26/01'","Std Newborn Nursery",-
"'610601'","'5/20/01 5/26/01'","Newborn Nursery",89.3
"'610601'","'5/20/01 5/26/01'","Friendliness/courtesy NN nurses*",75.0
"'610601'","'5/20/01 5/26/01'","NN:Involved decisions re:child care*",100.0
"'610601'","'5/20/01 5/26/01'","NN:Instructions re: care for child*",100.0
"'610601'","'5/20/01 5/26/01'","Explain equip on/near child in NN*",75.0
"'610601'","'5/20/01 5/26/01'","NN:Attention paid to childs needs*",75.0
"'610601'","'5/20/01 5/26/01'","NN nurses kept you informed*",100.0
"'610601'","'5/20/01 5/26/01'","Skill of Newborn Nursery nurses*",100.0
"'Total'","'5/20/01 5/26/01'","Std Newborn Nursery",-
"'Total'","'5/20/01 5/26/01'","Newborn Nursery",89.3
"'Total'","'5/20/01 5/26/01'","Friendliness/courtesy NN nurses*",75.0
"'Total'","'5/20/01 5/26/01'","NN:Involved decisions re:child care*",100.0
"'Total'","'5/20/01 5/26/01'","NN:Instructions re: care for child*",100.0
"'Total'","'5/20/01 5/26/01'","Explain equip on/near child in NN*",75.0
"'Total'","'5/20/01 5/26/01'","NN:Attention paid to childs needs*",75.0
"'Total'","'5/20/01 5/26/01'","NN nurses kept you informed*",100.0
"'Total'","'5/20/01 5/26/01'","Skill of Newborn Nursery nurses*",100.0
"'612301'","'5/27/01 6/2/01'","Std Newborn Nursery",-
"'612301'","'5/27/01 6/2/01'","Newborn Nursery",68.8
"'612301'","'5/27/01 6/2/01'","Friendliness/courtesy NN nurses*",75.0
"'612301'","'5/27/01 6/2/01'","NN:Involved decisions re:child care*",50.0
"'612301'","'5/27/01 6/2/01'","NN nurses kept you informed*",75.0
"'612301'","'5/27/01 6/2/01'","Skill of Newborn Nursery nurses*",75.0
"'610501'","'5/27/01 6/2/01'","Std Newborn Nursery",-
"'610501'","'5/27/01 6/2/01'","Newborn Nursery",100.0
"'610501'","'5/27/01 6/2/01'","Friendliness/courtesy NN nurses*",100.0
"'610501'","'5/27/01 6/2/01'","NN:Involved decisions re:child care*",100.0
"'610501'","'5/27/01 6/2/01'","NN:Instructions re: care for child*",100.0
"'610501'","'5/27/01 6/2/01'","Explain equip on/near child in NN*",100.0
"'610501'","'5/27/01 6/2/01'","NN:Attention paid to childs needs*",100.0
"'610501'","'5/27/01 6/2/01'","NN nurses kept you informed*",100.0
"'610501'","'5/27/01 6/2/01'","Skill of Newborn Nursery nurses*",100.0
"'612201'","'5/27/01 6/2/01'","Std Newborn Nursery",-
"'612201'","'5/27/01 6/2/01'","Newborn Nursery",75.0
"'612201'","'5/27/01 6/2/01'","Friendliness/courtesy NN nurses*",75.0
"'612201'","'5/27/01 6/2/01'","NN:Involved decisions re:child care*",75.0
"'612201'","'5/27/01 6/2/01'","NN:Instructions re: care for child*",75.0
"'612201'","'5/27/01 6/2/01'","Explain equip on/near child in NN*",75.0
"'612201'","'5/27/01 6/2/01'","NN:Attention paid to childs needs*",75.0
"'612201'","'5/27/01 6/2/01'","NN nurses kept you informed*",75.0
"'612201'","'5/27/01 6/2/01'","Skill of Newborn Nursery nurses*",75.0
"'610901'","'5/27/01 6/2/01'","Std Newborn Nursery",-
"'610901'","'5/27/01 6/2/01'","Newborn Nursery",100.0
"'610901'","'5/27/01 6/2/01'","Friendliness/courtesy NN nurses*",100.0
"'610901'","'5/27/01 6/2/01'","NN:Involved decisions re:child care*",100.0
"'610901'","'5/27/01 6/2/01'","NN:Instructions re: care for child*",100.0
"'610901'","'5/27/01 6/2/01'","Explain equip on/near child in NN*",100.0
"'610901'","'5/27/01 6/2/01'","NN:Attention paid to childs needs*",100.0
"'610901'","'5/27/01 6/2/01'","NN nurses kept you informed*",100.0
"'610901'","'5/27/01 6/2/01'","Skill of Newborn Nursery nurses*",100.0
"'Total'","'5/27/01 6/2/01'","Std Newborn Nursery",-
"'Total'","'5/27/01 6/2/01'","Newborn Nursery",85.9
"'Total'","'5/27/01 6/2/01'","Friendliness/courtesy NN nurses*",87.5
"'Total'","'5/27/01 6/2/01'","NN:Involved decisions re:child care*",81.3
"'Total'","'5/27/01 6/2/01'","NN:Instructions re: care for child*",91.7
"'Total'","'5/27/01 6/2/01'","Explain equip on/near child in NN*",91.7
"'Total'","'5/27/01 6/2/01'","NN:Attention paid to childs needs*",91.7
"'Total'","'5/27/01 6/2/01'","NN nurses kept you informed*",87.5
"'Total'","'5/27/01 6/2/01'","Skill of Newborn Nursery nurses*",87.5
"'611101'","'6/10/01 6/16/01'","Std Newborn Nursery",-
"'611101'","'6/10/01 6/16/01'","Newborn Nursery",75.0
"'611101'","'6/10/01 6/16/01'","Friendliness/courtesy NN nurses*",75.0
"'611101'","'6/10/01 6/16/01'","NN:Involved decisions re:child care*",75.0
"'611101'","'6/10/01 6/16/01'","NN:Instructions re: care for child*",75.0
"'611101'","'6/10/01 6/16/01'","Explain equip on/near child in NN*",75.0
"'611101'","'6/10/01 6/16/01'","NN:Attention paid to childs needs*",75.0
"'611101'","'6/10/01 6/16/01'","NN nurses kept you informed*",75.0
"'611101'","'6/10/01 6/16/01'","Skill of Newborn Nursery nurses*",75.0
"'610701'","'6/10/01 6/16/01'","Std Newborn Nursery",-
"'610701'","'6/10/01 6/16/01'","Newborn Nursery",100.0
"'610701'","'6/10/01 6/16/01'","Friendliness/courtesy NN nurses*",100.0
"'610701'","'6/10/01 6/16/01'","NN nurses kept you informed*",100.0
"'610701'","'6/10/01 6/16/01'","Skill of Newborn Nursery nurses*",100.0
"'Total'","'6/10/01 6/16/01'","Std Newborn Nursery",-
"'Total'","'6/10/01 6/16/01'","Newborn Nursery",87.5
"'Total'","'6/10/01 6/16/01'","Friendliness/courtesy NN nurses*",87.5
"'Total'","'6/10/01 6/16/01'","NN:Involved decisions re:child care*",75.0
"'Total'","'6/10/01 6/16/01'","NN:Instructions re: care for child*",75.0
"'Total'","'6/10/01 6/16/01'","Explain equip on/near child in NN*",75.0
"'Total'","'6/10/01 6/16/01'","NN:Attention paid to childs needs*",75.0
"'Total'","'6/10/01 6/16/01'","NN nurses kept you informed*",87.5
"'Total'","'6/10/01 6/16/01'","Skill of Newborn Nursery nurses*",87.5
"'611601'","'6/17/01 6/23/01'","Std Newborn Nursery",-
"'611601'","'6/17/01 6/23/01'","Newborn Nursery",78.6
"'611601'","'6/17/01 6/23/01'","Friendliness/courtesy NN nurses*",75.0
"'611601'","'6/17/01 6/23/01'","NN:Involved decisions re:child care*",50.0
"'611601'","'6/17/01 6/23/01'","NN:Instructions re: care for child*",100.0
"'611601'","'6/17/01 6/23/01'","Explain equip on/near child in NN*",100.0
"'611601'","'6/17/01 6/23/01'","NN:Attention paid to childs needs*",100.0
"'611601'","'6/17/01 6/23/01'","NN nurses kept you informed*",50.0
"'611601'","'6/17/01 6/23/01'","Skill of Newborn Nursery nurses*",75.0
"'Total'","'6/17/01 6/23/01'","Std Newborn Nursery",-
"'Total'","'6/17/01 6/23/01'","Newborn Nursery",78.6
"'Total'","'6/17/01 6/23/01'","Friendliness/courtesy NN nurses*",75.0
"'Total'","'6/17/01 6/23/01'","NN:Involved decisions re:child care*",50.0
"'Total'","'6/17/01 6/23/01'","NN:Instructions re: care for child*",100.0
"'Total'","'6/17/01 6/23/01'","Explain equip on/near child in NN*",100.0
"'Total'","'6/17/01 6/23/01'","NN:Attention paid to childs needs*",100.0
"'Total'","'6/17/01 6/23/01'","NN nurses kept you informed*",50.0
"'Total'","'6/17/01 6/23/01'","Skill of Newborn Nursery nurses*",75.0
"'610701'","'6/24/01 6/30/01'","Std Newborn Nursery",-
"'610701'","'6/24/01 6/30/01'","Newborn Nursery",89.3
"'610701'","'6/24/01 6/30/01'","Friendliness/courtesy NN nurses*",75.0
"'610701'","'6/24/01 6/30/01'","NN:Involved decisions re:child care*",50.0
"'610701'","'6/24/01 6/30/01'","NN:Instructions re: care for child*",100.0
"'610701'","'6/24/01 6/30/01'","Explain equip on/near child in NN*",100.0
"'610701'","'6/24/01 6/30/01'","NN:Attention paid to childs needs*",100.0
"'610701'","'6/24/01 6/30/01'","NN nurses kept you informed*",100.0
"'610701'","'6/24/01 6/30/01'","Skill of Newborn Nursery nurses*",100.0
"'610501'","'6/24/01 6/30/01'","Std Newborn Nursery",-
"'610501'","'6/24/01 6/30/01'","Newborn Nursery",67.9
"'610501'","'6/24/01 6/30/01'","Friendliness/courtesy NN nurses*",75.0
"'610501'","'6/24/01 6/30/01'","NN:Involved decisions re:child care*",50.0
"'610501'","'6/24/01 6/30/01'","NN:Instructions re: care for child*",75.0
"'610501'","'6/24/01 6/30/01'","Explain equip on/near child in NN*",50.0
"'610501'","'6/24/01 6/30/01'","NN:Attention paid to childs needs*",75.0
"'610501'","'6/24/01 6/30/01'","NN nurses kept you informed*",75.0
"'610501'","'6/24/01 6/30/01'","Skill of Newborn Nursery nurses*",75.0
"'611701'","'6/24/01 6/30/01'","Std Newborn Nursery",-
"'611701'","'6/24/01 6/30/01'","Newborn Nursery",100.0
"'611701'","'6/24/01 6/30/01'","Friendliness/courtesy NN nurses*",100.0
"'611701'","'6/24/01 6/30/01'","NN:Involved decisions re:child care*",100.0
"'611701'","'6/24/01 6/30/01'","NN:Instructions re: care for child*",100.0
"'611701'","'6/24/01 6/30/01'","Explain equip on/near child in NN*",100.0
"'611701'","'6/24/01 6/30/01'","NN:Attention paid to childs needs*",100.0
"'611701'","'6/24/01 6/30/01'","NN nurses kept you informed*",100.0
"'611701'","'6/24/01 6/30/01'","Skill of Newborn Nursery nurses*",100.0
"'Total'","'6/24/01 6/30/01'","Std Newborn Nursery",-
"'Total'","'6/24/01 6/30/01'","Newborn Nursery",85.7
"'Total'","'6/24/01 6/30/01'","Friendliness/courtesy NN nurses*",83.3
"'Total'","'6/24/01 6/30/01'","NN:Involved decisions re:child care*",66.7
"'Total'","'6/24/01 6/30/01'","NN:Instructions re: care for child*",91.7
"'Total'","'6/24/01 6/30/01'","Explain equip on/near child in NN*",83.3
"'Total'","'6/24/01 6/30/01'","NN:Attention paid to childs needs*",91.7
"'Total'","'6/24/01 6/30/01'","NN nurses kept you informed*",91.7
"'Total'","'6/24/01 6/30/01'","Skill of Newborn Nursery nurses*",91.7
"'612101'","'7/1/01 7/7/01'","Std Newborn Nursery",-
"'612101'","'7/1/01 7/7/01'","Newborn Nursery",53.6
"'612101'","'7/1/01 7/7/01'","Friendliness/courtesy NN nurses*",75.0
"'612101'","'7/1/01 7/7/01'","NN:Involved decisions re:child care*",50.0
"'612101'","'7/1/01 7/7/01'","NN:Instructions re: care for child*",75.0
"'612101'","'7/1/01 7/7/01'","Explain equip on/near child in NN*",25.0
"'612101'","'7/1/01 7/7/01'","NN:Attention paid to childs needs*",25.0
"'612101'","'7/1/01 7/7/01'","NN nurses kept you informed*",50.0
"'612101'","'7/1/01 7/7/01'","Skill of Newborn Nursery nurses*",75.0
"'Total'","'7/1/01 7/7/01'","Std Newborn Nursery",-
"'Total'","'7/1/01 7/7/01'","Newborn Nursery",53.6
"'Total'","'7/1/01 7/7/01'","Friendliness/courtesy NN nurses*",75.0
"'Total'","'7/1/01 7/7/01'","NN:Involved decisions re:child care*",50.0
"'Total'","'7/1/01 7/7/01'","NN:Instructions re: care for child*",75.0
"'Total'","'7/1/01 7/7/01'","Explain equip on/near child in NN*",25.0
"'Total'","'7/1/01 7/7/01'","NN:Attention paid to childs needs*",25.0
"'Total'","'7/1/01 7/7/01'","NN nurses kept you informed*",50.0
"'Total'","'7/1/01 7/7/01'","Skill of Newborn Nursery nurses*",75.0
"'610801'","'7/8/01 7/14/01'","Std Newborn Nursery",-
"'610801'","'7/8/01 7/14/01'","Newborn Nursery",100.0
"'610801'","'7/8/01 7/14/01'","Friendliness/courtesy NN nurses*",100.0
"'610801'","'7/8/01 7/14/01'","NN:Involved decisions re:child care*",100.0
"'610801'","'7/8/01 7/14/01'","NN:Instructions re: care for child*",100.0
"'610801'","'7/8/01 7/14/01'","Explain equip on/near child in NN*",100.0
"'610801'","'7/8/01 7/14/01'","NN:Attention paid to childs needs*",100.0
"'610801'","'7/8/01 7/14/01'","NN nurses kept you informed*",100.0
"'610801'","'7/8/01 7/14/01'","Skill of Newborn Nursery nurses*",100.0
"'Total'","'7/8/01 7/14/01'","Std Newborn Nursery",-
"'Total'","'7/8/01 7/14/01'","Newborn Nursery",100.0
"'Total'","'7/8/01 7/14/01'","Friendliness/courtesy NN nurses*",100.0
"'Total'","'7/8/01 7/14/01'","NN:Involved decisions re:child care*",100.0
"'Total'","'7/8/01 7/14/01'","NN:Instructions re: care for child*",100.0
"'Total'","'7/8/01 7/14/01'","Explain equip on/near child in NN*",100.0
"'Total'","'7/8/01 7/14/01'","NN:Attention paid to childs needs*",100.0
"'Total'","'7/8/01 7/14/01'","NN nurses kept you informed*",100.0
"'Total'","'7/8/01 7/14/01'","Skill of Newborn Nursery nurses*",100.0
"'611901'","'7/15/01 7/21/01'","Std Newborn Nursery",-
"'611901'","'7/15/01 7/21/01'","Newborn Nursery",96.4
"'611901'","'7/15/01 7/21/01'","Friendliness/courtesy NN nurses*",75.0
"'611901'","'7/15/01 7/21/01'","NN:Involved decisions re:child care*",100.0
"'611901'","'7/15/01 7/21/01'","NN:Instructions re: care for child*",100.0
"'611901'","'7/15/01 7/21/01'","Explain equip on/near child in NN*",100.0
"'611901'","'7/15/01 7/21/01'","NN:Attention paid to childs needs*",100.0
"'611901'","'7/15/01 7/21/01'","NN nurses kept you informed*",100.0
"'611901'","'7/15/01 7/21/01'","Skill of Newborn Nursery nurses*",100.0
"'610501'","'7/15/01 7/21/01'","Std Newborn Nursery",-
"'610501'","'7/15/01 7/21/01'","Newborn Nursery",100.0
"'610501'","'7/15/01 7/21/01'","Friendliness/courtesy NN nurses*",100.0
"'610501'","'7/15/01 7/21/01'","NN:Involved decisions re:child care*",100.0
"'610501'","'7/15/01 7/21/01'","NN:Instructions re: care for child*",100.0
"'610501'","'7/15/01 7/21/01'","Explain equip on/near child in NN*",100.0
"'610501'","'7/15/01 7/21/01'","NN:Attention paid to childs needs*",100.0
"'610501'","'7/15/01 7/21/01'","NN nurses kept you informed*",100.0
"'610501'","'7/15/01 7/21/01'","Skill of Newborn Nursery nurses*",100.0
"'610401'","'7/15/01 7/21/01'","Std Newborn Nursery",-
"'610401'","'7/15/01 7/21/01'","Newborn Nursery",71.4
"'610401'","'7/15/01 7/21/01'","Friendliness/courtesy NN nurses*",75.0
"'610401'","'7/15/01 7/21/01'","NN:Involved decisions re:child care*",75.0
"'610401'","'7/15/01 7/21/01'","NN:Instructions re: care for child*",75.0
"'610401'","'7/15/01 7/21/01'","Explain equip on/near child in NN*",75.0
"'610401'","'7/15/01 7/21/01'","NN:Attention paid to childs needs*",50.0
"'610401'","'7/15/01 7/21/01'","NN nurses kept you informed*",75.0
"'610401'","'7/15/01 7/21/01'","Skill of Newborn Nursery nurses*",75.0
"'610801'","'7/15/01 7/21/01'","Std Newborn Nursery",-
"'610801'","'7/15/01 7/21/01'","Newborn Nursery",75.0
"'610801'","'7/15/01 7/21/01'","Friendliness/courtesy NN nurses*",75.0
"'610801'","'7/15/01 7/21/01'","NN:Involved decisions re:child care*",100.0
"'610801'","'7/15/01 7/21/01'","NN:Instructions re: care for child*",50.0
"'610801'","'7/15/01 7/21/01'","Explain equip on/near child in NN*",75.0
"'610801'","'7/15/01 7/21/01'","NN:Attention paid to childs needs*",75.0
"'610801'","'7/15/01 7/21/01'","NN nurses kept you informed*",75.0
"'610801'","'7/15/01 7/21/01'","Skill of Newborn Nursery nurses*",75.0
"'Total'","'7/15/01 7/21/01'","Std Newborn Nursery",-
"'Total'","'7/15/01 7/21/01'","Newborn Nursery",85.7
"'Total'","'7/15/01 7/21/01'","Friendliness/courtesy NN nurses*",81.3
"'Total'","'7/15/01 7/21/01'","NN:Involved decisions re:child care*",93.8
"'Total'","'7/15/01 7/21/01'","NN:Instructions re: care for child*",81.3
"'Total'","'7/15/01 7/21/01'","Explain equip on/near child in NN*",87.5
"'Total'","'7/15/01 7/21/01'","NN:Attention paid to childs needs*",81.3
"'Total'","'7/15/01 7/21/01'","NN nurses kept you informed*",87.5
"'Total'","'7/15/01 7/21/01'","Skill of Newborn Nursery nurses*",87.5
"'611701'","'7/22/01 7/28/01'","Std Newborn Nursery",-
"'611701'","'7/22/01 7/28/01'","Newborn Nursery",89.3
"'611701'","'7/22/01 7/28/01'","Friendliness/courtesy NN nurses*",100.0
"'611701'","'7/22/01 7/28/01'","NN:Involved decisions re:child care*",100.0
"'611701'","'7/22/01 7/28/01'","NN:Instructions re: care for child*",100.0
"'611701'","'7/22/01 7/28/01'","Explain equip on/near child in NN*",75.0
"'611701'","'7/22/01 7/28/01'","NN:Attention paid to childs needs*",75.0
"'611701'","'7/22/01 7/28/01'","NN nurses kept you informed*",75.0
"'611701'","'7/22/01 7/28/01'","Skill of Newborn Nursery nurses*",100.0
"'Total'","'7/22/01 7/28/01'","Std Newborn Nursery",-
"'Total'","'7/22/01 7/28/01'","Newborn Nursery",89.3
"'Total'","'7/22/01 7/28/01'","Friendliness/courtesy NN nurses*",100.0
"'Total'","'7/22/01 7/28/01'","NN:Involved decisions re:child care*",100.0
"'Total'","'7/22/01 7/28/01'","NN:Instructions re: care for child*",100.0
"'Total'","'7/22/01 7/28/01'","Explain equip on/near child in NN*",75.0
"'Total'","'7/22/01 7/28/01'","NN:Attention paid to childs needs*",75.0
"'Total'","'7/22/01 7/28/01'","NN nurses kept you informed*",75.0
"'Total'","'7/22/01 7/28/01'","Skill of Newborn Nursery nurses*",100.0
"'612001'","'7/29/01 8/4/01'","Std Newborn Nursery",-
"'612001'","'7/29/01 8/4/01'","Newborn Nursery",75.0
"'612001'","'7/29/01 8/4/01'","NN:Involved decisions re:child care*",75.0
"'612001'","'7/29/01 8/4/01'","NN:Instructions re: care for child*",75.0
"'612001'","'7/29/01 8/4/01'","Explain equip on/near child in NN*",75.0
"'612001'","'7/29/01 8/4/01'","NN:Attention paid to childs needs*",75.0
"'612001'","'7/29/01 8/4/01'","NN nurses kept you informed*",75.0
"'612001'","'7/29/01 8/4/01'","Skill of Newborn Nursery nurses*",75.0
"'610901'","'7/29/01 8/4/01'","Std Newborn Nursery",-
"'610901'","'7/29/01 8/4/01'","Newborn Nursery",100.0
"'610901'","'7/29/01 8/4/01'","Friendliness/courtesy NN nurses*",100.0
"'610901'","'7/29/01 8/4/01'","NN:Involved decisions re:child care*",100.0
"'610901'","'7/29/01 8/4/01'","NN:Instructions re: care for child*",100.0
"'610901'","'7/29/01 8/4/01'","Explain equip on/near child in NN*",100.0
"'610901'","'7/29/01 8/4/01'","NN:Attention paid to childs needs*",100.0
"'610901'","'7/29/01 8/4/01'","NN nurses kept you informed*",100.0
"'610901'","'7/29/01 8/4/01'","Skill of Newborn Nursery nurses*",100.0
"'Total'","'7/29/01 8/4/01'","Std Newborn Nursery",-
"'Total'","'7/29/01 8/4/01'","Newborn Nursery",87.5
"'Total'","'7/29/01 8/4/01'","Friendliness/courtesy NN nurses*",100.0
"'Total'","'7/29/01 8/4/01'","NN:Involved decisions re:child care*",87.5
"'Total'","'7/29/01 8/4/01'","NN:Instructions re: care for child*",87.5
"'Total'","'7/29/01 8/4/01'","Explain equip on/near child in NN*",87.5
"'Total'","'7/29/01 8/4/01'","NN:Attention paid to childs needs*",87.5
"'Total'","'7/29/01 8/4/01'","NN nurses kept you informed*",87.5
"'Total'","'7/29/01 8/4/01'","Skill of Newborn Nursery nurses*",87.5
"'610501'","'8/5/01 8/11/01'","Std Newborn Nursery",-
"'610501'","'8/5/01 8/11/01'","Newborn Nursery",75.0
"'610501'","'8/5/01 8/11/01'","Friendliness/courtesy NN nurses*",75.0
"'610501'","'8/5/01 8/11/01'","NN:Involved decisions re:child care*",75.0
"'610501'","'8/5/01 8/11/01'","NN:Instructions re: care for child*",75.0
"'610501'","'8/5/01 8/11/01'","Explain equip on/near child in NN*",75.0
"'610501'","'8/5/01 8/11/01'","NN:Attention paid to childs needs*",75.0
"'610501'","'8/5/01 8/11/01'","NN nurses kept you informed*",75.0
"'610501'","'8/5/01 8/11/01'","Skill of Newborn Nursery nurses*",75.0
"'611301'","'8/5/01 8/11/01'","Std Newborn Nursery",-
"'611301'","'8/5/01 8/11/01'","Newborn Nursery",100.0
"'611301'","'8/5/01 8/11/01'","Friendliness/courtesy NN nurses*",100.0
"'611301'","'8/5/01 8/11/01'","NN:Involved decisions re:child care*",100.0
"'611301'","'8/5/01 8/11/01'","NN:Instructions re: care for child*",100.0
"'611301'","'8/5/01 8/11/01'","Explain equip on/near child in NN*",100.0
"'611301'","'8/5/01 8/11/01'","NN:Attention paid to childs needs*",100.0
"'611301'","'8/5/01 8/11/01'","NN nurses kept you informed*",100.0
"'611301'","'8/5/01 8/11/01'","Skill of Newborn Nursery nurses*",100.0
"'612101'","'8/5/01 8/11/01'","Std Newborn Nursery",-
"'612101'","'8/5/01 8/11/01'","Newborn Nursery",14.3
"'612101'","'8/5/01 8/11/01'","Friendliness/courtesy NN nurses*",0.0
"'612101'","'8/5/01 8/11/01'","NN:Involved decisions re:child care*",50.0
"'612101'","'8/5/01 8/11/01'","NN:Instructions re: care for child*",25.0
"'612101'","'8/5/01 8/11/01'","Explain equip on/near child in NN*",25.0
"'612101'","'8/5/01 8/11/01'","NN:Attention paid to childs needs*",0.0
"'612101'","'8/5/01 8/11/01'","NN nurses kept you informed*",0.0
"'612101'","'8/5/01 8/11/01'","Skill of Newborn Nursery nurses*",0.0
"'610301'","'8/5/01 8/11/01'","Std Newborn Nursery",-
"'610301'","'8/5/01 8/11/01'","Newborn Nursery",100.0
"'610301'","'8/5/01 8/11/01'","Friendliness/courtesy NN nurses*",100.0
"'610301'","'8/5/01 8/11/01'","Explain equip on/near child in NN*",100.0
"'610301'","'8/5/01 8/11/01'","NN nurses kept you informed*",100.0
"'610301'","'8/5/01 8/11/01'","Skill of Newborn Nursery nurses*",100.0
"'Total'","'8/5/01 8/11/01'","Std Newborn Nursery",-
"'Total'","'8/5/01 8/11/01'","Newborn Nursery",72.3
"'Total'","'8/5/01 8/11/01'","Friendliness/courtesy NN nurses*",68.8
"'Total'","'8/5/01 8/11/01'","NN:Involved decisions re:child care*",75.0
"'Total'","'8/5/01 8/11/01'","NN:Instructions re: care for child*",66.7
"'Total'","'8/5/01 8/11/01'","Explain equip on/near child in NN*",75.0
"'Total'","'8/5/01 8/11/01'","NN:Attention paid to childs needs*",58.3
"'Total'","'8/5/01 8/11/01'","NN nurses kept you informed*",68.8
"'Total'","'8/5/01 8/11/01'","Skill of Newborn Nursery nurses*",68.8
"'611301'","'8/12/01 8/18/01'","Std Newborn Nursery",-
"'611301'","'8/12/01 8/18/01'","Newborn Nursery",89.3
"'611301'","'8/12/01 8/18/01'","Friendliness/courtesy NN nurses*",100.0
"'611301'","'8/12/01 8/18/01'","NN:Involved decisions re:child care*",75.0
"'611301'","'8/12/01 8/18/01'","NN:Instructions re: care for child*",75.0
"'611301'","'8/12/01 8/18/01'","Explain equip on/near child in NN*",100.0
"'611301'","'8/12/01 8/18/01'","NN:Attention paid to childs needs*",75.0
"'611301'","'8/12/01 8/18/01'","NN nurses kept you informed*",100.0
"'611301'","'8/12/01 8/18/01'","Skill of Newborn Nursery nurses*",100.0
"'610901'","'8/12/01 8/18/01'","Std Newborn Nursery",-
"'610901'","'8/12/01 8/18/01'","Newborn Nursery",100.0
"'610901'","'8/12/01 8/18/01'","Friendliness/courtesy NN nurses*",100.0
"'610901'","'8/12/01 8/18/01'","NN:Involved decisions re:child care*",100.0
"'610901'","'8/12/01 8/18/01'","NN:Instructions re: care for child*",100.0
"'610901'","'8/12/01 8/18/01'","Explain equip on/near child in NN*",100.0
"'610901'","'8/12/01 8/18/01'","NN:Attention paid to childs needs*",100.0
"'610901'","'8/12/01 8/18/01'","NN nurses kept you informed*",100.0
"'610901'","'8/12/01 8/18/01'","Skill of Newborn Nursery nurses*",100.0
"'Total'","'8/12/01 8/18/01'","Std Newborn Nursery",-
"'Total'","'8/12/01 8/18/01'","Newborn Nursery",94.6
"'Total'","'8/12/01 8/18/01'","Friendliness/courtesy NN nurses*",100.0
"'Total'","'8/12/01 8/18/01'","NN:Involved decisions re:child care*",87.5
"'Total'","'8/12/01 8/18/01'","NN:Instructions re: care for child*",87.5
"'Total'","'8/12/01 8/18/01'","Explain equip on/near child in NN*",100.0
"'Total'","'8/12/01 8/18/01'","NN:Attention paid to childs needs*",87.5
"'Total'","'8/12/01 8/18/01'","NN nurses kept you informed*",100.0
"'Total'","'8/12/01 8/18/01'","Skill of Newborn Nursery nurses*",100.0
"'611201'","'8/19/01 8/25/01'","Std Newborn Nursery",-
"'611201'","'8/19/01 8/25/01'","Newborn Nursery",100.0
"'611201'","'8/19/01 8/25/01'","Friendliness/courtesy NN nurses*",100.0
"'611201'","'8/19/01 8/25/01'","NN:Involved decisions re:child care*",100.0
"'611201'","'8/19/01 8/25/01'","NN:Instructions re: care for child*",100.0
"'611201'","'8/19/01 8/25/01'","Explain equip on/near child in NN*",100.0
"'611201'","'8/19/01 8/25/01'","NN:Attention paid to childs needs*",100.0
"'611201'","'8/19/01 8/25/01'","NN nurses kept you informed*",100.0
"'611201'","'8/19/01 8/25/01'","Skill of Newborn Nursery nurses*",100.0
"'Total'","'8/19/01 8/25/01'","Std Newborn Nursery",-
"'Total'","'8/19/01 8/25/01'","Newborn Nursery",100.0
"'Total'","'8/19/01 8/25/01'","Friendliness/courtesy NN nurses*",100.0
"'Total'","'8/19/01 8/25/01'","NN:Involved decisions re:child care*",100.0
"'Total'","'8/19/01 8/25/01'","NN:Instructions re: care for child*",100.0
"'Total'","'8/19/01 8/25/01'","Explain equip on/near child in NN*",100.0
"'Total'","'8/19/01 8/25/01'","NN:Attention paid to childs needs*",100.0
"'Total'","'8/19/01 8/25/01'","NN nurses kept you informed*",100.0
"'Total'","'8/19/01 8/25/01'","Skill of Newborn Nursery nurses*",100.0
"'610701'","'9/9/01 9/15/01'","Std Newborn Nursery",-
"'610701'","'9/9/01 9/15/01'","Newborn Nursery",96.4
"'610701'","'9/9/01 9/15/01'","Friendliness/courtesy NN nurses*",75.0
"'610701'","'9/9/01 9/15/01'","NN:Involved decisions re:child care*",100.0
"'610701'","'9/9/01 9/15/01'","NN:Instructions re: care for child*",100.0
"'610701'","'9/9/01 9/15/01'","Explain equip on/near child in NN*",100.0
"'610701'","'9/9/01 9/15/01'","NN:Attention paid to childs needs*",100.0
"'610701'","'9/9/01 9/15/01'","NN nurses kept you informed*",100.0
"'610701'","'9/9/01 9/15/01'","Skill of Newborn Nursery nurses*",100.0
"'611001'","'9/9/01 9/15/01'","Std Newborn Nursery",-
"'611001'","'9/9/01 9/15/01'","Newborn Nursery",67.9
"'611001'","'9/9/01 9/15/01'","Friendliness/courtesy NN nurses*",75.0
"'611001'","'9/9/01 9/15/01'","NN:Involved decisions re:child care*",75.0
"'611001'","'9/9/01 9/15/01'","NN:Instructions re: care for child*",75.0
"'611001'","'9/9/01 9/15/01'","Explain equip on/near child in NN*",25.0
"'611001'","'9/9/01 9/15/01'","NN:Attention paid to childs needs*",75.0
"'611001'","'9/9/01 9/15/01'","NN nurses kept you informed*",75.0
"'611001'","'9/9/01 9/15/01'","Skill of Newborn Nursery nurses*",75.0
"'612001'","'9/9/01 9/15/01'","Std Newborn Nursery",-
"'612001'","'9/9/01 9/15/01'","Newborn Nursery",100.0
"'612001'","'9/9/01 9/15/01'","Friendliness/courtesy NN nurses*",100.0
"'612001'","'9/9/01 9/15/01'","NN:Involved decisions re:child care*",100.0
"'612001'","'9/9/01 9/15/01'","NN:Instructions re: care for child*",100.0
"'612001'","'9/9/01 9/15/01'","Explain equip on/near child in NN*",100.0
"'612001'","'9/9/01 9/15/01'","NN:Attention paid to childs needs*",100.0
"'612001'","'9/9/01 9/15/01'","NN nurses kept you informed*",100.0
"'612001'","'9/9/01 9/15/01'","Skill of Newborn Nursery nurses*",100.0
"'611301'","'9/9/01 9/15/01'","Std Newborn Nursery",-
"'611301'","'9/9/01 9/15/01'","Newborn Nursery",68.8
"'611301'","'9/9/01 9/15/01'","Friendliness/courtesy NN nurses*",75.0
"'611301'","'9/9/01 9/15/01'","NN:Involved decisions re:child care*",75.0
"'611301'","'9/9/01 9/15/01'","NN:Instructions re: care for child*",62.5
"'611301'","'9/9/01 9/15/01'","Explain equip on/near child in NN*",62.5
"'611301'","'9/9/01 9/15/01'","NN:Attention paid to childs needs*",75.0
"'611301'","'9/9/01 9/15/01'","NN nurses kept you informed*",62.5
"'611301'","'9/9/01 9/15/01'","Skill of Newborn Nursery nurses*",100.0
"'Total'","'9/9/01 9/15/01'","Std Newborn Nursery",-
"'Total'","'9/9/01 9/15/01'","Newborn Nursery",80.4
"'Total'","'9/9/01 9/15/01'","Friendliness/courtesy NN nurses*",80.0
"'Total'","'9/9/01 9/15/01'","NN:Involved decisions re:child care*",85.0
"'Total'","'9/9/01 9/15/01'","NN:Instructions re: care for child*",80.0
"'Total'","'9/9/01 9/15/01'","Explain equip on/near child in NN*",70.0
"'Total'","'9/9/01 9/15/01'","NN:Attention paid to childs needs*",85.0
"'Total'","'9/9/01 9/15/01'","NN nurses kept you informed*",80.0
"'Total'","'9/9/01 9/15/01'","Skill of Newborn Nursery nurses*",93.8
"'612101'","'9/23/01 9/29/01'","Std Newborn Nursery",-
"'612101'","'9/23/01 9/29/01'","Newborn Nursery",67.9
"'612101'","'9/23/01 9/29/01'","Friendliness/courtesy NN nurses*",50.0
"'612101'","'9/23/01 9/29/01'","NN:Involved decisions re:child care*",75.0
"'612101'","'9/23/01 9/29/01'","NN:Instructions re: care for child*",50.0
"'612101'","'9/23/01 9/29/01'","Explain equip on/near child in NN*",50.0
"'612101'","'9/23/01 9/29/01'","NN:Attention paid to childs needs*",100.0
"'612101'","'9/23/01 9/29/01'","NN nurses kept you informed*",75.0
"'612101'","'9/23/01 9/29/01'","Skill of Newborn Nursery nurses*",75.0
"'Total'","'9/23/01 9/29/01'","Std Newborn Nursery",-
"'Total'","'9/23/01 9/29/01'","Newborn Nursery",67.9
"'Total'","'9/23/01 9/29/01'","Friendliness/courtesy NN nurses*",50.0
"'Total'","'9/23/01 9/29/01'","NN:Involved decisions re:child care*",75.0
"'Total'","'9/23/01 9/29/01'","NN:Instructions re: care for child*",50.0
"'Total'","'9/23/01 9/29/01'","Explain equip on/near child in NN*",50.0
"'Total'","'9/23/01 9/29/01'","NN:Attention paid to childs needs*",100.0
"'Total'","'9/23/01 9/29/01'","NN nurses kept you informed*",75.0
"'Total'","'9/23/01 9/29/01'","Skill of Newborn Nursery nurses*",75.0
"'610601'","'9/30/01 10/6/01'","Std Newborn Nursery",-
"'610601'","'9/30/01 10/6/01'","Newborn Nursery",75.0
"'610601'","'9/30/01 10/6/01'","Friendliness/courtesy NN nurses*",100.0
"'610601'","'9/30/01 10/6/01'","NN:Involved decisions re:child care*",50.0
"'610601'","'9/30/01 10/6/01'","NN:Instructions re: care for child*",75.0
"'610601'","'9/30/01 10/6/01'","NN nurses kept you informed*",50.0
"'610601'","'9/30/01 10/6/01'","Skill of Newborn Nursery nurses*",100.0
"'Total'","'9/30/01 10/6/01'","Std Newborn Nursery",-
"'Total'","'9/30/01 10/6/01'","Newborn Nursery",75.0
"'Total'","'9/30/01 10/6/01'","Friendliness/courtesy NN nurses*",100.0
"'Total'","'9/30/01 10/6/01'","NN:Involved decisions re:child care*",50.0
"'Total'","'9/30/01 10/6/01'","NN:Instructions re: care for child*",75.0
"'Total'","'9/30/01 10/6/01'","NN nurses kept you informed*",50.0
"'Total'","'9/30/01 10/6/01'","Skill of Newborn Nursery nurses*",100.0
"'611301'","'10/7/01 10/13/01'","Std Newborn Nursery",-
"'611301'","'10/7/01 10/13/01'","Newborn Nursery",92.9
"'611301'","'10/7/01 10/13/01'","Friendliness/courtesy NN nurses*",100.0
"'611301'","'10/7/01 10/13/01'","NN:Involved decisions re:child care*",100.0
"'611301'","'10/7/01 10/13/01'","NN:Instructions re: care for child*",100.0
"'611301'","'10/7/01 10/13/01'","Explain equip on/near child in NN*",100.0
"'611301'","'10/7/01 10/13/01'","NN:Attention paid to childs needs*",100.0
"'611301'","'10/7/01 10/13/01'","NN nurses kept you informed*",75.0
"'611301'","'10/7/01 10/13/01'","Skill of Newborn Nursery nurses*",75.0
"'610301'","'10/7/01 10/13/01'","Std Newborn Nursery",-
"'610301'","'10/7/01 10/13/01'","Newborn Nursery",100.0
"'610301'","'10/7/01 10/13/01'","Friendliness/courtesy NN nurses*",100.0
"'610301'","'10/7/01 10/13/01'","NN:Involved decisions re:child care*",100.0
"'610301'","'10/7/01 10/13/01'","NN:Instructions re: care for child*",100.0
"'610301'","'10/7/01 10/13/01'","Explain equip on/near child in NN*",100.0
"'610301'","'10/7/01 10/13/01'","NN:Attention paid to childs needs*",100.0
"'610301'","'10/7/01 10/13/01'","NN nurses kept you informed*",100.0
"'610301'","'10/7/01 10/13/01'","Skill of Newborn Nursery nurses*",100.0
"'610801'","'10/7/01 10/13/01'","Std Newborn Nursery",-
"'610801'","'10/7/01 10/13/01'","Newborn Nursery",100.0
"'610801'","'10/7/01 10/13/01'","Friendliness/courtesy NN nurses*",100.0
"'610801'","'10/7/01 10/13/01'","NN:Involved decisions re:child care*",100.0
"'610801'","'10/7/01 10/13/01'","NN:Instructions re: care for child*",100.0
"'610801'","'10/7/01 10/13/01'","Explain equip on/near child in NN*",100.0
"'610801'","'10/7/01 10/13/01'","NN:Attention paid to childs needs*",100.0
"'610801'","'10/7/01 10/13/01'","NN nurses kept you informed*",100.0
"'610801'","'10/7/01 10/13/01'","Skill of Newborn Nursery nurses*",100.0
"'Total'","'10/7/01 10/13/01'","Std Newborn Nursery",-
"'Total'","'10/7/01 10/13/01'","Newborn Nursery",97.6
"'Total'","'10/7/01 10/13/01'","Friendliness/courtesy NN nurses*",100.0
"'Total'","'10/7/01 10/13/01'","NN:Involved decisions re:child care*",100.0
"'Total'","'10/7/01 10/13/01'","NN:Instructions re: care for child*",100.0
"'Total'","'10/7/01 10/13/01'","Explain equip on/near child in NN*",100.0
"'Total'","'10/7/01 10/13/01'","NN:Attention paid to childs needs*",100.0
"'Total'","'10/7/01 10/13/01'","NN nurses kept you informed*",91.7
"'Total'","'10/7/01 10/13/01'","Skill of Newborn Nursery nurses*",91.7
"'612001'","'10/14/01 10/20/01'","Std Newborn Nursery",-
"'612001'","'10/14/01 10/20/01'","Newborn Nursery",100.0
"'612001'","'10/14/01 10/20/01'","Friendliness/courtesy NN nurses*",100.0
"'612001'","'10/14/01 10/20/01'","NN:Involved decisions re:child care*",100.0
"'612001'","'10/14/01 10/20/01'","NN:Instructions re: care for child*",100.0
"'612001'","'10/14/01 10/20/01'","Explain equip on/near child in NN*",100.0
"'612001'","'10/14/01 10/20/01'","NN:Attention paid to childs needs*",100.0
"'612001'","'10/14/01 10/20/01'","NN nurses kept you informed*",100.0
"'612001'","'10/14/01 10/20/01'","Skill of Newborn Nursery nurses*",100.0
"'610401'","'10/14/01 10/20/01'","Std Newborn Nursery",-
"'610401'","'10/14/01 10/20/01'","Newborn Nursery",92.9
"'610401'","'10/14/01 10/20/01'","Friendliness/courtesy NN nurses*",100.0
"'610401'","'10/14/01 10/20/01'","NN:Involved decisions re:child care*",100.0
"'610401'","'10/14/01 10/20/01'","NN:Instructions re: care for child*",100.0
"'610401'","'10/14/01 10/20/01'","Explain equip on/near child in NN*",75.0
"'610401'","'10/14/01 10/20/01'","NN:Attention paid to childs needs*",100.0
"'610401'","'10/14/01 10/20/01'","NN nurses kept you informed*",100.0
"'610401'","'10/14/01 10/20/01'","Skill of Newborn Nursery nurses*",75.0
"'Total'","'10/14/01 10/20/01'","Std Newborn Nursery",-
"'Total'","'10/14/01 10/20/01'","Newborn Nursery",96.4
"'Total'","'10/14/01 10/20/01'","Friendliness/courtesy NN nurses*",100.0
"'Total'","'10/14/01 10/20/01'","NN:Involved decisions re:child care*",100.0
"'Total'","'10/14/01 10/20/01'","NN:Instructions re: care for child*",100.0
"'Total'","'10/14/01 10/20/01'","Explain equip on/near child in NN*",87.5
"'Total'","'10/14/01 10/20/01'","NN:Attention paid to childs needs*",100.0
"'Total'","'10/14/01 10/20/01'","NN nurses kept you informed*",100.0
"'Total'","'10/14/01 10/20/01'","Skill of Newborn Nursery nurses*",87.5
"'611901'","'10/21/01 10/27/01'","Std Newborn Nursery",-
"'611901'","'10/21/01 10/27/01'","Newborn Nursery",100.0
"'611901'","'10/21/01 10/27/01'","Friendliness/courtesy NN nurses*",100.0
"'611901'","'10/21/01 10/27/01'","NN:Involved decisions re:child care*",100.0
"'611901'","'10/21/01 10/27/01'","NN:Instructions re: care for child*",100.0
"'611901'","'10/21/01 10/27/01'","Explain equip on/near child in NN*",100.0
"'611901'","'10/21/01 10/27/01'","NN:Attention paid to childs needs*",100.0
"'611901'","'10/21/01 10/27/01'","NN nurses kept you informed*",100.0
"'611901'","'10/21/01 10/27/01'","Skill of Newborn Nursery nurses*",100.0
"'610601'","'10/21/01 10/27/01'","Std Newborn Nursery",-
"'610601'","'10/21/01 10/27/01'","Newborn Nursery",89.3
"'610601'","'10/21/01 10/27/01'","Friendliness/courtesy NN nurses*",100.0
"'610601'","'10/21/01 10/27/01'","NN:Involved decisions re:child care*",100.0
"'610601'","'10/21/01 10/27/01'","NN:Instructions re: care for child*",100.0
"'610601'","'10/21/01 10/27/01'","Explain equip on/near child in NN*",100.0
"'610601'","'10/21/01 10/27/01'","NN:Attention paid to childs needs*",25.0
"'610601'","'10/21/01 10/27/01'","NN nurses kept you informed*",100.0
"'610601'","'10/21/01 10/27/01'","Skill of Newborn Nursery nurses*",100.0
"'Total'","'10/21/01 10/27/01'","Std Newborn Nursery",-
"'Total'","'10/21/01 10/27/01'","Newborn Nursery",94.6
"'Total'","'10/21/01 10/27/01'","Friendliness/courtesy NN nurses*",100.0
"'Total'","'10/21/01 10/27/01'","NN:Involved decisions re:child care*",100.0
"'Total'","'10/21/01 10/27/01'","NN:Instructions re: care for child*",100.0
"'Total'","'10/21/01 10/27/01'","Explain equip on/near child in NN*",100.0
"'Total'","'10/21/01 10/27/01'","NN:Attention paid to childs needs*",62.5
"'Total'","'10/21/01 10/27/01'","NN nurses kept you informed*",100.0
"'Total'","'10/21/01 10/27/01'","Skill of Newborn Nursery nurses*",100.0
"'610701'","'10/28/01 11/3/01'","Std Newborn Nursery",-
"'610701'","'10/28/01 11/3/01'","Newborn Nursery",53.6
"'610701'","'10/28/01 11/3/01'","Friendliness/courtesy NN nurses*",62.5
"'610701'","'10/28/01 11/3/01'","NN:Involved decisions re:child care*",50.0
"'610701'","'10/28/01 11/3/01'","NN:Instructions re: care for child*",62.5
"'610701'","'10/28/01 11/3/01'","Explain equip on/near child in NN*",50.0
"'610701'","'10/28/01 11/3/01'","NN:Attention paid to childs needs*",50.0
"'610701'","'10/28/01 11/3/01'","NN nurses kept you informed*",50.0
"'610701'","'10/28/01 11/3/01'","Skill of Newborn Nursery nurses*",50.0
"'Total'","'10/28/01 11/3/01'","Std Newborn Nursery",-
"'Total'","'10/28/01 11/3/01'","Newborn Nursery",53.6
"'Total'","'10/28/01 11/3/01'","Friendliness/courtesy NN nurses*",62.5
"'Total'","'10/28/01 11/3/01'","NN:Involved decisions re:child care*",50.0
"'Total'","'10/28/01 11/3/01'","NN:Instructions re: care for child*",62.5
"'Total'","'10/28/01 11/3/01'","Explain equip on/near child in NN*",50.0
"'Total'","'10/28/01 11/3/01'","NN:Attention paid to childs needs*",50.0
"'Total'","'10/28/01 11/3/01'","NN nurses kept you informed*",50.0
"'Total'","'10/28/01 11/3/01'","Skill of Newborn Nursery nurses*",50.0
"'610601'","'11/4/01 11/10/01'","Std Newborn Nursery",-
"'610601'","'11/4/01 11/10/01'","Newborn Nursery",100.0
"'610601'","'11/4/01 11/10/01'","Friendliness/courtesy NN nurses*",100.0
"'610601'","'11/4/01 11/10/01'","NN:Involved decisions re:child care*",100.0
"'610601'","'11/4/01 11/10/01'","NN:Instructions re: care for child*",100.0
"'610601'","'11/4/01 11/10/01'","Explain equip on/near child in NN*",100.0
"'610601'","'11/4/01 11/10/01'","NN:Attention paid to childs needs*",100.0
"'610601'","'11/4/01 11/10/01'","NN nurses kept you informed*",100.0
"'610601'","'11/4/01 11/10/01'","Skill of Newborn Nursery nurses*",100.0
"'Total'","'11/4/01 11/10/01'","Std Newborn Nursery",-
"'Total'","'11/4/01 11/10/01'","Newborn Nursery",100.0
"'Total'","'11/4/01 11/10/01'","Friendliness/courtesy NN nurses*",100.0
"'Total'","'11/4/01 11/10/01'","NN:Involved decisions re:child care*",100.0
"'Total'","'11/4/01 11/10/01'","NN:Instructions re: care for child*",100.0
"'Total'","'11/4/01 11/10/01'","Explain equip on/near child in NN*",100.0
"'Total'","'11/4/01 11/10/01'","NN:Attention paid to childs needs*",100.0
"'Total'","'11/4/01 11/10/01'","NN nurses kept you informed*",100.0
"'Total'","'11/4/01 11/10/01'","Skill of Newborn Nursery nurses*",100.0
"'611101'","'11/25/01 12/1/01'","Std Newborn Nursery",-
"'611101'","'11/25/01 12/1/01'","Newborn Nursery",60.7
"'611101'","'11/25/01 12/1/01'","Friendliness/courtesy NN nurses*",75.0
"'611101'","'11/25/01 12/1/01'","NN:Involved decisions re:child care*",50.0
"'611101'","'11/25/01 12/1/01'","NN:Instructions re: care for child*",50.0
"'611101'","'11/25/01 12/1/01'","Explain equip on/near child in NN*",50.0
"'611101'","'11/25/01 12/1/01'","NN:Attention paid to childs needs*",50.0
"'611101'","'11/25/01 12/1/01'","NN nurses kept you informed*",50.0
"'611101'","'11/25/01 12/1/01'","Skill of Newborn Nursery nurses*",100.0
"'Total'","'11/25/01 12/1/01'","Std Newborn Nursery",-
"'Total'","'11/25/01 12/1/01'","Newborn Nursery",60.7
"'Total'","'11/25/01 12/1/01'","Friendliness/courtesy NN nurses*",75.0
"'Total'","'11/25/01 12/1/01'","NN:Involved decisions re:child care*",50.0
"'Total'","'11/25/01 12/1/01'","NN:Instructions re: care for child*",50.0
"'Total'","'11/25/01 12/1/01'","Explain equip on/near child in NN*",50.0
"'Total'","'11/25/01 12/1/01'","NN:Attention paid to childs needs*",50.0
"'Total'","'11/25/01 12/1/01'","NN nurses kept you informed*",50.0
"'Total'","'11/25/01 12/1/01'","Skill of Newborn Nursery nurses*",100.0
"'611701'","'12/16/01 12/22/01'","Std Newborn Nursery",-
"'611701'","'12/16/01 12/22/01'","Newborn Nursery",75.0
"'611701'","'12/16/01 12/22/01'","Friendliness/courtesy NN nurses*",75.0
"'611701'","'12/16/01 12/22/01'","NN:Involved decisions re:child care*",75.0
"'611701'","'12/16/01 12/22/01'","NN:Instructions re: care for child*",75.0
"'611701'","'12/16/01 12/22/01'","Explain equip on/near child in NN*",75.0
"'611701'","'12/16/01 12/22/01'","NN:Attention paid to childs needs*",75.0
"'611701'","'12/16/01 12/22/01'","NN nurses kept you informed*",75.0
"'611701'","'12/16/01 12/22/01'","Skill of Newborn Nursery nurses*",75.0
"'Total'","'12/16/01 12/22/01'","Std Newborn Nursery",-
"'Total'","'12/16/01 12/22/01'","Newborn Nursery",75.0
"'Total'","'12/16/01 12/22/01'","Friendliness/courtesy NN nurses*",75.0
"'Total'","'12/16/01 12/22/01'","NN:Involved decisions re:child care*",75.0
"'Total'","'12/16/01 12/22/01'","NN:Instructions re: care for child*",75.0
"'Total'","'12/16/01 12/22/01'","Explain equip on/near child in NN*",75.0
"'Total'","'12/16/01 12/22/01'","NN:Attention paid to childs needs*",75.0
"'Total'","'12/16/01 12/22/01'","NN nurses kept you informed*",75.0
"'Total'","'12/16/01 12/22/01'","Skill of Newborn Nursery nurses*",75.0
"'610501'","'12/23/01 12/29/01'","Std Newborn Nursery",-
"'610501'","'12/23/01 12/29/01'","Newborn Nursery",71.4
"'610501'","'12/23/01 12/29/01'","Friendliness/courtesy NN nurses*",75.0
"'610501'","'12/23/01 12/29/01'","NN:Involved decisions re:child care*",100.0
"'610501'","'12/23/01 12/29/01'","NN:Instructions re: care for child*",50.0
"'610501'","'12/23/01 12/29/01'","Explain equip on/near child in NN*",50.0
"'610501'","'12/23/01 12/29/01'","NN:Attention paid to childs needs*",75.0
"'610501'","'12/23/01 12/29/01'","NN nurses kept you informed*",75.0
"'610501'","'12/23/01 12/29/01'","Skill of Newborn Nursery nurses*",75.0
"'611701'","'12/23/01 12/29/01'","Std Newborn Nursery",-
"'611701'","'12/23/01 12/29/01'","Newborn Nursery",75.0
"'611701'","'12/23/01 12/29/01'","Friendliness/courtesy NN nurses*",75.0
"'611701'","'12/23/01 12/29/01'","NN:Instructions re: care for child*",75.0
"'611701'","'12/23/01 12/29/01'","Explain equip on/near child in NN*",75.0
"'611701'","'12/23/01 12/29/01'","Skill of Newborn Nursery nurses*",75.0
"'611301'","'12/23/01 12/29/01'","Std Newborn Nursery",-
"'611301'","'12/23/01 12/29/01'","Newborn Nursery",100.0
"'611301'","'12/23/01 12/29/01'","Friendliness/courtesy NN nurses*",100.0
"'611301'","'12/23/01 12/29/01'","NN:Involved decisions re:child care*",100.0
"'611301'","'12/23/01 12/29/01'","NN:Instructions re: care for child*",100.0
"'611301'","'12/23/01 12/29/01'","Explain equip on/near child in NN*",100.0
"'611301'","'12/23/01 12/29/01'","NN:Attention paid to childs needs*",100.0
"'611301'","'12/23/01 12/29/01'","NN nurses kept you informed*",100.0
"'611301'","'12/23/01 12/29/01'","Skill of Newborn Nursery nurses*",100.0
"'Total'","'12/23/01 12/29/01'","Std Newborn Nursery",-
"'Total'","'12/23/01 12/29/01'","Newborn Nursery",82.1
"'Total'","'12/23/01 12/29/01'","Friendliness/courtesy NN nurses*",83.3
"'Total'","'12/23/01 12/29/01'","NN:Involved decisions re:child care*",100.0
"'Total'","'12/23/01 12/29/01'","NN:Instructions re: care for child*",75.0
"'Total'","'12/23/01 12/29/01'","Explain equip on/near child in NN*",75.0
"'Total'","'12/23/01 12/29/01'","NN:Attention paid to childs needs*",87.5
"'Total'","'12/23/01 12/29/01'","NN nurses kept you informed*",87.5
"'Total'","'12/23/01 12/29/01'","Skill of Newborn Nursery nurses*",83.3
"'611901'","'Total'","Std Newborn Nursery",-
"'611901'","'Total'","Newborn Nursery",90.5
"'611901'","'Total'","Friendliness/courtesy NN nurses*",87.5
"'611901'","'Total'","NN:Involved decisions re:child care*",91.7
"'611901'","'Total'","NN:Instructions re: care for child*",91.7
"'611901'","'Total'","Explain equip on/near child in NN*",91.7
"'611901'","'Total'","NN:Attention paid to childs needs*",91.7
"'611901'","'Total'","NN nurses kept you informed*",91.7
"'611901'","'Total'","Skill of Newborn Nursery nurses*",87.5
"'611101'","'Total'","Std Newborn Nursery",-
"'611101'","'Total'","Newborn Nursery",78.0
"'611101'","'Total'","Friendliness/courtesy NN nurses*",85.0
"'611101'","'Total'","NN:Involved decisions re:child care*",80.0
"'611101'","'Total'","NN:Instructions re: care for child*",80.0
"'611101'","'Total'","Explain equip on/near child in NN*",70.0
"'611101'","'Total'","NN:Attention paid to childs needs*",75.0
"'611101'","'Total'","NN nurses kept you informed*",75.0
"'611101'","'Total'","Skill of Newborn Nursery nurses*",80.0
"'610701'","'Total'","Std Newborn Nursery",-
"'610701'","'Total'","Newborn Nursery",75.5
"'610701'","'Total'","Friendliness/courtesy NN nurses*",71.4
"'610701'","'Total'","NN:Involved decisions re:child care*",58.3
"'610701'","'Total'","NN:Instructions re: care for child*",83.3
"'610701'","'Total'","Explain equip on/near child in NN*",70.8
"'610701'","'Total'","NN:Attention paid to childs needs*",70.8
"'610701'","'Total'","NN nurses kept you informed*",78.6
"'610701'","'Total'","Skill of Newborn Nursery nurses*",78.6
"'611001'","'Total'","Std Newborn Nursery",-
"'611001'","'Total'","Newborn Nursery",78.6
"'611001'","'Total'","Friendliness/courtesy NN nurses*",80.0
"'611001'","'Total'","NN:Involved decisions re:child care*",75.0
"'611001'","'Total'","NN:Instructions re: care for child*",80.0
"'611001'","'Total'","Explain equip on/near child in NN*",75.0
"'611001'","'Total'","NN:Attention paid to childs needs*",85.0
"'611001'","'Total'","NN nurses kept you informed*",75.0
"'611001'","'Total'","Skill of Newborn Nursery nurses*",80.0
"'612001'","'Total'","Std Newborn Nursery",-
"'612001'","'Total'","Newborn Nursery",88.4
"'612001'","'Total'","Friendliness/courtesy NN nurses*",100.0
"'612001'","'Total'","NN:Involved decisions re:child care*",93.8
"'612001'","'Total'","NN:Instructions re: care for child*",75.0
"'612001'","'Total'","Explain equip on/near child in NN*",93.8
"'612001'","'Total'","NN:Attention paid to childs needs*",93.8
"'612001'","'Total'","NN nurses kept you informed*",75.0
"'612001'","'Total'","Skill of Newborn Nursery nurses*",93.8
"'611601'","'Total'","Std Newborn Nursery",-
"'611601'","'Total'","Newborn Nursery",78.6
"'611601'","'Total'","Friendliness/courtesy NN nurses*",75.0
"'611601'","'Total'","NN:Involved decisions re:child care*",50.0
"'611601'","'Total'","NN:Instructions re: care for child*",100.0
"'611601'","'Total'","Explain equip on/near child in NN*",100.0
"'611601'","'Total'","NN:Attention paid to childs needs*",100.0
"'611601'","'Total'","NN nurses kept you informed*",50.0
"'611601'","'Total'","Skill of Newborn Nursery nurses*",75.0
"'612301'","'Total'","Std Newborn Nursery",-
"'612301'","'Total'","Newborn Nursery",84.4
"'612301'","'Total'","Friendliness/courtesy NN nurses*",87.5
"'612301'","'Total'","NN:Involved decisions re:child care*",75.0
"'612301'","'Total'","NN:Instructions re: care for child*",100.0
"'612301'","'Total'","NN:Attention paid to childs needs*",100.0
"'612301'","'Total'","NN nurses kept you informed*",87.5
"'612301'","'Total'","Skill of Newborn Nursery nurses*",87.5
"'610501'","'Total'","Std Newborn Nursery",-
"'610501'","'Total'","Newborn Nursery",87.5
"'610501'","'Total'","Friendliness/courtesy NN nurses*",90.6
"'610501'","'Total'","NN:Involved decisions re:child care*",90.6
"'610501'","'Total'","NN:Instructions re: care for child*",84.4
"'610501'","'Total'","Explain equip on/near child in NN*",75.0
"'610501'","'Total'","NN:Attention paid to childs needs*",90.6
"'610501'","'Total'","NN nurses kept you informed*",90.6
"'610501'","'Total'","Skill of Newborn Nursery nurses*",90.6
"'610601'","'Total'","Std Newborn Nursery",-
"'610601'","'Total'","Newborn Nursery",87.4
"'610601'","'Total'","Friendliness/courtesy NN nurses*",90.0
"'610601'","'Total'","NN:Involved decisions re:child care*",87.5
"'610601'","'Total'","NN:Instructions re: care for child*",95.0
"'610601'","'Total'","Explain equip on/near child in NN*",87.5
"'610601'","'Total'","NN:Attention paid to childs needs*",66.7
"'610601'","'Total'","NN nurses kept you informed*",87.5
"'610601'","'Total'","Skill of Newborn Nursery nurses*",100.0
"'611701'","'Total'","Std Newborn Nursery",-
"'611701'","'Total'","Newborn Nursery",87.9
"'611701'","'Total'","Friendliness/courtesy NN nurses*",90.0
"'611701'","'Total'","NN:Involved decisions re:child care*",93.8
"'611701'","'Total'","NN:Instructions re: care for child*",90.0
"'611701'","'Total'","Explain equip on/near child in NN*",85.0
"'611701'","'Total'","NN:Attention paid to childs needs*",87.5
"'611701'","'Total'","NN nurses kept you informed*",87.5
"'611701'","'Total'","Skill of Newborn Nursery nurses*",90.0
"'611301'","'Total'","Std Newborn Nursery",-
"'611301'","'Total'","Newborn Nursery",86.6
"'611301'","'Total'","Friendliness/courtesy NN nurses*",91.7
"'611301'","'Total'","NN:Involved decisions re:child care*",87.5
"'611301'","'Total'","NN:Instructions re: care for child*",83.3
"'611301'","'Total'","Explain equip on/near child in NN*",87.5
"'611301'","'Total'","NN:Attention paid to childs needs*",87.5
"'611301'","'Total'","NN nurses kept you informed*",83.3
"'611301'","'Total'","Skill of Newborn Nursery nurses*",95.0
"'612101'","'Total'","Std Newborn Nursery",-
"'612101'","'Total'","Newborn Nursery",57.1
"'612101'","'Total'","Friendliness/courtesy NN nurses*",55.0
"'612101'","'Total'","NN:Involved decisions re:child care*",65.0
"'612101'","'Total'","NN:Instructions re: care for child*",56.3
"'612101'","'Total'","Explain equip on/near child in NN*",55.0
"'612101'","'Total'","NN:Attention paid to childs needs*",55.0
"'612101'","'Total'","NN nurses kept you informed*",50.0
"'612101'","'Total'","Skill of Newborn Nursery nurses*",60.0
"'612201'","'Total'","Std Newborn Nursery",-
"'612201'","'Total'","Newborn Nursery",75.0
"'612201'","'Total'","Friendliness/courtesy NN nurses*",75.0
"'612201'","'Total'","NN:Involved decisions re:child care*",75.0
"'612201'","'Total'","NN:Instructions re: care for child*",75.0
"'612201'","'Total'","Explain equip on/near child in NN*",75.0
"'612201'","'Total'","NN:Attention paid to childs needs*",75.0
"'612201'","'Total'","NN nurses kept you informed*",75.0
"'612201'","'Total'","Skill of Newborn Nursery nurses*",75.0
"'610901'","'Total'","Std Newborn Nursery",-
"'610901'","'Total'","Newborn Nursery",94.8
"'610901'","'Total'","Friendliness/courtesy NN nurses*",100.0
"'610901'","'Total'","NN:Involved decisions re:child care*",95.0
"'610901'","'Total'","NN:Instructions re: care for child*",87.5
"'610901'","'Total'","Explain equip on/near child in NN*",95.0
"'610901'","'Total'","NN:Attention paid to childs needs*",95.8
"'610901'","'Total'","NN nurses kept you informed*",95.8
"'610901'","'Total'","Skill of Newborn Nursery nurses*",95.8
"'610401'","'Total'","Std Newborn Nursery",-
"'610401'","'Total'","Newborn Nursery",90.2
"'610401'","'Total'","Friendliness/courtesy NN nurses*",87.5
"'610401'","'Total'","NN:Involved decisions re:child care*",93.8
"'610401'","'Total'","NN:Instructions re: care for child*",93.8
"'610401'","'Total'","Explain equip on/near child in NN*",87.5
"'610401'","'Total'","NN:Attention paid to childs needs*",87.5
"'610401'","'Total'","NN nurses kept you informed*",93.8
"'610401'","'Total'","Skill of Newborn Nursery nurses*",87.5
"'610301'","'Total'","Std Newborn Nursery",-
"'610301'","'Total'","Newborn Nursery",83.3
"'610301'","'Total'","Friendliness/courtesy NN nurses*",100.0
"'610301'","'Total'","NN:Involved decisions re:child care*",62.5
"'610301'","'Total'","NN:Instructions re: care for child*",62.5
"'610301'","'Total'","Explain equip on/near child in NN*",91.7
"'610301'","'Total'","NN:Attention paid to childs needs*",62.5
"'610301'","'Total'","NN nurses kept you informed*",100.0
"'610301'","'Total'","Skill of Newborn Nursery nurses*",100.0
"'610801'","'Total'","Std Newborn Nursery",-
"'610801'","'Total'","Newborn Nursery",93.8
"'610801'","'Total'","Friendliness/courtesy NN nurses*",93.8
"'610801'","'Total'","NN:Involved decisions re:child care*",100.0
"'610801'","'Total'","NN:Instructions re: care for child*",87.5
"'610801'","'Total'","Explain equip on/near child in NN*",93.8
"'610801'","'Total'","NN:Attention paid to childs needs*",93.8
"'610801'","'Total'","NN nurses kept you informed*",93.8
"'610801'","'Total'","Skill of Newborn Nursery nurses*",93.8
"'611201'","'Total'","Std Newborn Nursery",-
"'611201'","'Total'","Newborn Nursery",100.0
"'611201'","'Total'","Friendliness/courtesy NN nurses*",100.0
"'611201'","'Total'","NN:Involved decisions re:child care*",100.0
"'611201'","'Total'","NN:Instructions re: care for child*",100.0
"'611201'","'Total'","Explain equip on/near child in NN*",100.0
"'611201'","'Total'","NN:Attention paid to childs needs*",100.0
"'611201'","'Total'","NN nurses kept you informed*",100.0
"'611201'","'Total'","Skill of Newborn Nursery nurses*",100.0
"'Total'","'Total'","Std Newborn Nursery",-
"'Total'","'Total'","Newborn Nursery",84.2
"'Total'","'Total'","Friendliness/courtesy NN nurses*",86.2
"'Total'","'Total'","NN:Involved decisions re:child care*",83.6
"'Total'","'Total'","NN:Instructions re: care for child*",84.1
"'Total'","'Total'","Explain equip on/near child in NN*",82.2
"'Total'","'Total'","NN:Attention paid to childs needs*",83.8
"'Total'","'Total'","NN nurses kept you informed*",83.3
"'Total'","'Total'","Skill of Newborn Nursery nurses*",87.0


