"FILTER","CHOICE(S)"


"Site","Emory University Hospital",(Site:1)
"IT Discharge date","From 01/01/2012 To 12/31/2012"

"MEAN REPORT"


"IT Room","IT Discharge date","Question","mean"
"'G763'","'3/11/12 3/17/12'","Std Transplant Education",-
"'G763'","'3/11/12 3/17/12'","Transplant Education",100.0
"'G763'","'3/11/12 3/17/12'","Transplant team explained issues*",100.0
"'G763'","'3/11/12 3/17/12'","Costs of tnsplnt medicine explained*",100.0
"'G763'","'3/11/12 3/17/12'","Other transplant costs explained*",100.0
"'G763'","'3/11/12 3/17/12'","Plans for f/u care after discharge*",100.0
"'G763'","'3/11/12 3/17/12'","Importance of meds after transplant*",100.0
"'G763'","'3/11/12 3/17/12'","Helpfulness education: medications*",100.0
"'G763'","'3/11/12 3/17/12'","Helpfulness education: diet*",100.0
"'G763'","'3/11/12 3/17/12'","Helpfulness education:incision care*",100.0
"'G763'","'3/11/12 3/17/12'","Helpfulness education: blood work*",100.0
"'G763'","'3/11/12 3/17/12'","Helpfulness education: when to call*",100.0
"'G763'","'3/11/12 3/17/12'","Helpfulness education:how to contac*",100.0
"'Total'","'3/11/12 3/17/12'","Std Transplant Education",-
"'Total'","'3/11/12 3/17/12'","Transplant Education",100.0
"'Total'","'3/11/12 3/17/12'","Transplant team explained issues*",100.0
"'Total'","'3/11/12 3/17/12'","Costs of tnsplnt medicine explained*",100.0
"'Total'","'3/11/12 3/17/12'","Other transplant costs explained*",100.0
"'Total'","'3/11/12 3/17/12'","Plans for f/u care after discharge*",100.0
"'Total'","'3/11/12 3/17/12'","Importance of meds after transplant*",100.0
"'Total'","'3/11/12 3/17/12'","Helpfulness education: medications*",100.0
"'Total'","'3/11/12 3/17/12'","Helpfulness education: diet*",100.0
"'Total'","'3/11/12 3/17/12'","Helpfulness education:incision care*",100.0
"'Total'","'3/11/12 3/17/12'","Helpfulness education: blood work*",100.0
"'Total'","'3/11/12 3/17/12'","Helpfulness education: when to call*",100.0
"'Total'","'3/11/12 3/17/12'","Helpfulness education:how to contac*",100.0
"'G748'","'6/17/12 6/23/12'","Std Transplant Education",-
"'G748'","'6/17/12 6/23/12'","Transplant Education",79.6
"'G748'","'6/17/12 6/23/12'","Transplant team explained issues*",100.0
"'G748'","'6/17/12 6/23/12'","Costs of tnsplnt medicine explained*",75.0
"'G748'","'6/17/12 6/23/12'","Other transplant costs explained*",50.0
"'G748'","'6/17/12 6/23/12'","Plans for f/u care after discharge*",100.0
"'G748'","'6/17/12 6/23/12'","Importance of meds after transplant*",100.0
"'G748'","'6/17/12 6/23/12'","Helpfulness education: medications*",75.0
"'G748'","'6/17/12 6/23/12'","Helpfulness education: diet*",50.0
"'G748'","'6/17/12 6/23/12'","Helpfulness education:incision care*",75.0
"'G748'","'6/17/12 6/23/12'","Helpfulness education: blood work*",75.0
"'G748'","'6/17/12 6/23/12'","Helpfulness education: when to call*",75.0
"'G748'","'6/17/12 6/23/12'","Helpfulness education:how to contac*",100.0
"'Total'","'6/17/12 6/23/12'","Std Transplant Education",-
"'Total'","'6/17/12 6/23/12'","Transplant Education",79.6
"'Total'","'6/17/12 6/23/12'","Transplant team explained issues*",100.0
"'Total'","'6/17/12 6/23/12'","Costs of tnsplnt medicine explained*",75.0
"'Total'","'6/17/12 6/23/12'","Other transplant costs explained*",50.0
"'Total'","'6/17/12 6/23/12'","Plans for f/u care after discharge*",100.0
"'Total'","'6/17/12 6/23/12'","Importance of meds after transplant*",100.0
"'Total'","'6/17/12 6/23/12'","Helpfulness education: medications*",75.0
"'Total'","'6/17/12 6/23/12'","Helpfulness education: diet*",50.0
"'Total'","'6/17/12 6/23/12'","Helpfulness education:incision care*",75.0
"'Total'","'6/17/12 6/23/12'","Helpfulness education: blood work*",75.0
"'Total'","'6/17/12 6/23/12'","Helpfulness education: when to call*",75.0
"'Total'","'6/17/12 6/23/12'","Helpfulness education:how to contac*",100.0
"'G748'","'Total'","Std Transplant Education",-
"'G748'","'Total'","Transplant Education",79.6
"'G748'","'Total'","Transplant team explained issues*",100.0
"'G748'","'Total'","Costs of tnsplnt medicine explained*",75.0
"'G748'","'Total'","Other transplant costs explained*",50.0
"'G748'","'Total'","Plans for f/u care after discharge*",100.0
"'G748'","'Total'","Importance of meds after transplant*",100.0
"'G748'","'Total'","Helpfulness education: medications*",75.0
"'G748'","'Total'","Helpfulness education: diet*",50.0
"'G748'","'Total'","Helpfulness education:incision care*",75.0
"'G748'","'Total'","Helpfulness education: blood work*",75.0
"'G748'","'Total'","Helpfulness education: when to call*",75.0
"'G748'","'Total'","Helpfulness education:how to contac*",100.0
"'G763'","'Total'","Std Transplant Education",-
"'G763'","'Total'","Transplant Education",100.0
"'G763'","'Total'","Transplant team explained issues*",100.0
"'G763'","'Total'","Costs of tnsplnt medicine explained*",100.0
"'G763'","'Total'","Other transplant costs explained*",100.0
"'G763'","'Total'","Plans for f/u care after discharge*",100.0
"'G763'","'Total'","Importance of meds after transplant*",100.0
"'G763'","'Total'","Helpfulness education: medications*",100.0
"'G763'","'Total'","Helpfulness education: diet*",100.0
"'G763'","'Total'","Helpfulness education:incision care*",100.0
"'G763'","'Total'","Helpfulness education: blood work*",100.0
"'G763'","'Total'","Helpfulness education: when to call*",100.0
"'G763'","'Total'","Helpfulness education:how to contac*",100.0
"'Total'","'Total'","Std Transplant Education",-
"'Total'","'Total'","Transplant Education",89.8
"'Total'","'Total'","Transplant team explained issues*",100.0
"'Total'","'Total'","Costs of tnsplnt medicine explained*",87.5
"'Total'","'Total'","Other transplant costs explained*",75.0
"'Total'","'Total'","Plans for f/u care after discharge*",100.0
"'Total'","'Total'","Importance of meds after transplant*",100.0
"'Total'","'Total'","Helpfulness education: medications*",87.5
"'Total'","'Total'","Helpfulness education: diet*",75.0
"'Total'","'Total'","Helpfulness education:incision care*",87.5
"'Total'","'Total'","Helpfulness education: blood work*",87.5
"'Total'","'Total'","Helpfulness education: when to call*",87.5
"'Total'","'Total'","Helpfulness education:how to contac*",100.0


