"FILTER","CHOICE(S)"


"Site","Emory University Hospital Midtown",(Site:1)
"Discharge Date","From 01/01/2000 To 12/31/2000"

"MEAN REPORT"


"IT Room","IT Discharge date","Question","mean","n"
"'111201'","'6/11/00 6/17/00'","Std Admission",100.0,1
"'111201'","'6/11/00 6/17/00'","Admission",100.0,1
"'111201'","'6/11/00 6/17/00'","Speed of admission",100.0,1
"'111201'","'6/11/00 6/17/00'","Courtesy of person admitting",100.0,1
"'Total'","'6/11/00 6/17/00'","Std Admission",100.0,1
"'Total'","'6/11/00 6/17/00'","Admission",100.0,1
"'Total'","'6/11/00 6/17/00'","Speed of admission",100.0,1
"'Total'","'6/11/00 6/17/00'","Courtesy of person admitting",100.0,1
"'610201'","'7/23/00 7/29/00'","Std Admission",100.0,1
"'610201'","'7/23/00 7/29/00'","Admission",100.0,1
"'610201'","'7/23/00 7/29/00'","Speed of admission",100.0,1
"'610201'","'7/23/00 7/29/00'","Courtesy of person admitting",100.0,1
"'610201'","'7/23/00 7/29/00'","Pre-admission process*",100.0,1
"'Total'","'7/23/00 7/29/00'","Std Admission",100.0,1
"'Total'","'7/23/00 7/29/00'","Admission",100.0,1
"'Total'","'7/23/00 7/29/00'","Speed of admission",100.0,1
"'Total'","'7/23/00 7/29/00'","Courtesy of person admitting",100.0,1
"'Total'","'7/23/00 7/29/00'","Pre-admission process*",100.0,1
"'211001'","'9/10/00 9/16/00'","Std Admission",75.0,1
"'211001'","'9/10/00 9/16/00'","Admission",75.0,1
"'211001'","'9/10/00 9/16/00'","Speed of admission",75.0,1
"'211001'","'9/10/00 9/16/00'","Courtesy of person admitting",75.0,1
"'211001'","'9/10/00 9/16/00'","Pre-admission process*",75.0,1
"'410101'","'9/10/00 9/16/00'","Std Admission",62.5,1
"'410101'","'9/10/00 9/16/00'","Admission",62.5,1
"'410101'","'9/10/00 9/16/00'","Speed of admission",50.0,1
"'410101'","'9/10/00 9/16/00'","Courtesy of person admitting",75.0,1
"'513001'","'9/10/00 9/16/00'","Std Admission",50.0,1
"'513001'","'9/10/00 9/16/00'","Admission",50.0,1
"'513001'","'9/10/00 9/16/00'","Speed of admission",25.0,1
"'513001'","'9/10/00 9/16/00'","Courtesy of person admitting",75.0,1
"'513001'","'9/10/00 9/16/00'","Pre-admission process*",50.0,1
"'621401'","'9/10/00 9/16/00'","Std Admission",100.0,1
"'621401'","'9/10/00 9/16/00'","Admission",100.0,1
"'621401'","'9/10/00 9/16/00'","Speed of admission",100.0,1
"'621401'","'9/10/00 9/16/00'","Courtesy of person admitting",100.0,1
"'621401'","'9/10/00 9/16/00'","Pre-admission process*",100.0,1
"'410201'","'9/10/00 9/16/00'","Std Admission",50.0,1
"'410201'","'9/10/00 9/16/00'","Admission",50.0,1
"'410201'","'9/10/00 9/16/00'","Speed of admission",25.0,1
"'410201'","'9/10/00 9/16/00'","Courtesy of person admitting",75.0,1
"'413401'","'9/10/00 9/16/00'","Std Admission",41.7,1
"'413401'","'9/10/00 9/16/00'","Admission",41.7,1
"'413401'","'9/10/00 9/16/00'","Speed of admission",25.0,1
"'413401'","'9/10/00 9/16/00'","Courtesy of person admitting",50.0,1
"'413401'","'9/10/00 9/16/00'","Pre-admission process*",50.0,1
"'410701'","'9/10/00 9/16/00'","Std Admission",75.0,1
"'410701'","'9/10/00 9/16/00'","Admission",75.0,1
"'410701'","'9/10/00 9/16/00'","Speed of admission",75.0,1
"'410701'","'9/10/00 9/16/00'","Courtesy of person admitting",75.0,1
"'410701'","'9/10/00 9/16/00'","Pre-admission process*",75.0,1
"'611001'","'9/10/00 9/16/00'","Std Admission",75.0,1
"'611001'","'9/10/00 9/16/00'","Admission",75.0,1
"'611001'","'9/10/00 9/16/00'","Speed of admission",50.0,1
"'611001'","'9/10/00 9/16/00'","Courtesy of person admitting",100.0,1
"'611001'","'9/10/00 9/16/00'","Pre-admission process*",75.0,1
"'611001'","'9/10/00 9/16/00'","Billing/insurance questions handled*",75.0,1
"'Total'","'9/10/00 9/16/00'","Std Admission",66.2,8
"'Total'","'9/10/00 9/16/00'","Admission",66.2,8
"'Total'","'9/10/00 9/16/00'","Speed of admission",53.1,8
"'Total'","'9/10/00 9/16/00'","Courtesy of person admitting",78.1,8
"'Total'","'9/10/00 9/16/00'","Pre-admission process*",70.8,6
"'Total'","'9/10/00 9/16/00'","Billing/insurance questions handled*",75.0,1
"'712501'","'10/15/00 10/21/00'","Std Admission",50.0,1
"'712501'","'10/15/00 10/21/00'","Admission",33.3,1
"'712501'","'10/15/00 10/21/00'","Courtesy of person admitting",25.0,1
"'712501'","'10/15/00 10/21/00'","Pre-admission process*",75.0,1
"'712501'","'10/15/00 10/21/00'","Billing/insurance questions handled*",0.0,1
"'511101'","'10/15/00 10/21/00'","Std Admission",83.3,1
"'511101'","'10/15/00 10/21/00'","Admission",85.0,1
"'511101'","'10/15/00 10/21/00'","Speed of admission",75.0,1
"'511101'","'10/15/00 10/21/00'","Courtesy of person admitting",100.0,1
"'511101'","'10/15/00 10/21/00'","Pre-admission process*",75.0,1
"'511101'","'10/15/00 10/21/00'","Time wait until given room*",75.0,1
"'511101'","'10/15/00 10/21/00'","Billing/insurance questions handled*",100.0,1
"'210201'","'10/15/00 10/21/00'","Std Admission",83.3,2
"'210201'","'10/15/00 10/21/00'","Admission",87.5,2
"'210201'","'10/15/00 10/21/00'","Speed of admission",87.5,2
"'210201'","'10/15/00 10/21/00'","Courtesy of person admitting",87.5,2
"'210201'","'10/15/00 10/21/00'","Pre-admission process*",75.0,2
"'210201'","'10/15/00 10/21/00'","Time wait until given room*",100.0,2
"'210201'","'10/15/00 10/21/00'","Billing/insurance questions handled*",87.5,2
"'313701'","'10/15/00 10/21/00'","Std Admission",66.7,1
"'313701'","'10/15/00 10/21/00'","Admission",68.8,1
"'313701'","'10/15/00 10/21/00'","Speed of admission",75.0,1
"'313701'","'10/15/00 10/21/00'","Courtesy of person admitting",75.0,1
"'313701'","'10/15/00 10/21/00'","Pre-admission process*",50.0,1
"'313701'","'10/15/00 10/21/00'","Time wait until given room*",75.0,1
"'110401'","'10/15/00 10/21/00'","Std Admission",100.0,1
"'110401'","'10/15/00 10/21/00'","Admission",100.0,1
"'110401'","'10/15/00 10/21/00'","Speed of admission",100.0,1
"'110401'","'10/15/00 10/21/00'","Courtesy of person admitting",100.0,1
"'110401'","'10/15/00 10/21/00'","Pre-admission process*",100.0,1
"'110401'","'10/15/00 10/21/00'","Time wait until given room*",100.0,1
"'110401'","'10/15/00 10/21/00'","Billing/insurance questions handled*",100.0,1
"'621301'","'10/15/00 10/21/00'","Std Admission",16.7,1
"'621301'","'10/15/00 10/21/00'","Admission",25.0,1
"'621301'","'10/15/00 10/21/00'","Speed of admission",0.0,1
"'621301'","'10/15/00 10/21/00'","Courtesy of person admitting",50.0,1
"'621301'","'10/15/00 10/21/00'","Pre-admission process*",0.0,1
"'621301'","'10/15/00 10/21/00'","Time wait until given room*",25.0,1
"'621301'","'10/15/00 10/21/00'","Billing/insurance questions handled*",50.0,1
"'314101'","'10/15/00 10/21/00'","Std Admission",37.5,1
"'314101'","'10/15/00 10/21/00'","Admission",37.5,1
"'314101'","'10/15/00 10/21/00'","Speed of admission",0.0,1
"'314101'","'10/15/00 10/21/00'","Courtesy of person admitting",75.0,1
"'314101'","'10/15/00 10/21/00'","Time wait until given room*",0.0,1
"'314101'","'10/15/00 10/21/00'","Billing/insurance questions handled*",75.0,1
"'110801'","'10/15/00 10/21/00'","Std Admission",50.0,1
"'110801'","'10/15/00 10/21/00'","Admission",65.0,1
"'110801'","'10/15/00 10/21/00'","Speed of admission",50.0,1
"'110801'","'10/15/00 10/21/00'","Courtesy of person admitting",50.0,1
"'110801'","'10/15/00 10/21/00'","Pre-admission process*",50.0,1
"'110801'","'10/15/00 10/21/00'","Time wait until given room*",75.0,1
"'110801'","'10/15/00 10/21/00'","Billing/insurance questions handled*",100.0,1
"'611901'","'10/15/00 10/21/00'","Std Admission",75.0,1
"'611901'","'10/15/00 10/21/00'","Admission",75.0,1
"'611901'","'10/15/00 10/21/00'","Speed of admission",100.0,1
"'611901'","'10/15/00 10/21/00'","Courtesy of person admitting",75.0,1
"'611901'","'10/15/00 10/21/00'","Pre-admission process*",50.0,1
"'611901'","'10/15/00 10/21/00'","Billing/insurance questions handled*",75.0,1
"'Total'","'10/15/00 10/21/00'","Std Admission",64.6,10
"'Total'","'10/15/00 10/21/00'","Admission",66.5,10
"'Total'","'10/15/00 10/21/00'","Speed of admission",63.9,9
"'Total'","'10/15/00 10/21/00'","Courtesy of person admitting",72.5,10
"'Total'","'10/15/00 10/21/00'","Pre-admission process*",61.1,9
"'Total'","'10/15/00 10/21/00'","Time wait until given room*",68.8,8
"'Total'","'10/15/00 10/21/00'","Billing/insurance questions handled*",75.0,9
"'413401'","'10/22/00 10/28/00'","Std Admission",33.3,1
"'413401'","'10/22/00 10/28/00'","Admission",40.0,1
"'413401'","'10/22/00 10/28/00'","Speed of admission",25.0,1
"'413401'","'10/22/00 10/28/00'","Courtesy of person admitting",50.0,1
"'413401'","'10/22/00 10/28/00'","Pre-admission process*",25.0,1
"'413401'","'10/22/00 10/28/00'","Time wait until given room*",50.0,1
"'413401'","'10/22/00 10/28/00'","Billing/insurance questions handled*",50.0,1
"'614101'","'10/22/00 10/28/00'","Std Admission",83.3,1
"'614101'","'10/22/00 10/28/00'","Admission",90.0,1
"'614101'","'10/22/00 10/28/00'","Speed of admission",50.0,1
"'614101'","'10/22/00 10/28/00'","Courtesy of person admitting",100.0,1
"'614101'","'10/22/00 10/28/00'","Pre-admission process*",100.0,1
"'614101'","'10/22/00 10/28/00'","Time wait until given room*",100.0,1
"'614101'","'10/22/00 10/28/00'","Billing/insurance questions handled*",100.0,1
"'412801'","'10/22/00 10/28/00'","Std Admission",75.0,1
"'412801'","'10/22/00 10/28/00'","Admission",70.0,1
"'412801'","'10/22/00 10/28/00'","Speed of admission",75.0,1
"'412801'","'10/22/00 10/28/00'","Courtesy of person admitting",75.0,1
"'412801'","'10/22/00 10/28/00'","Pre-admission process*",75.0,1
"'412801'","'10/22/00 10/28/00'","Time wait until given room*",50.0,1
"'412801'","'10/22/00 10/28/00'","Billing/insurance questions handled*",75.0,1
"'210401'","'10/22/00 10/28/00'","Std Admission",75.0,1
"'210401'","'10/22/00 10/28/00'","Admission",70.0,1
"'210401'","'10/22/00 10/28/00'","Speed of admission",75.0,1
"'210401'","'10/22/00 10/28/00'","Courtesy of person admitting",75.0,1
"'210401'","'10/22/00 10/28/00'","Pre-admission process*",75.0,1
"'210401'","'10/22/00 10/28/00'","Time wait until given room*",75.0,1
"'210401'","'10/22/00 10/28/00'","Billing/insurance questions handled*",50.0,1
"'212501'","'10/22/00 10/28/00'","Std Admission",75.0,1
"'212501'","'10/22/00 10/28/00'","Admission",75.0,1
"'212501'","'10/22/00 10/28/00'","Speed of admission",75.0,1
"'212501'","'10/22/00 10/28/00'","Courtesy of person admitting",75.0,1
"'212501'","'10/22/00 10/28/00'","Pre-admission process*",75.0,1
"'212501'","'10/22/00 10/28/00'","Time wait until given room*",75.0,1
"'212501'","'10/22/00 10/28/00'","Billing/insurance questions handled*",75.0,1
"'613001'","'10/22/00 10/28/00'","Std Admission",83.3,1
"'613001'","'10/22/00 10/28/00'","Admission",70.0,1
"'613001'","'10/22/00 10/28/00'","Speed of admission",75.0,1
"'613001'","'10/22/00 10/28/00'","Courtesy of person admitting",100.0,1
"'613001'","'10/22/00 10/28/00'","Pre-admission process*",75.0,1
"'613001'","'10/22/00 10/28/00'","Time wait until given room*",50.0,1
"'613001'","'10/22/00 10/28/00'","Billing/insurance questions handled*",50.0,1
"'613901'","'10/22/00 10/28/00'","Std Admission",75.0,1
"'613901'","'10/22/00 10/28/00'","Admission",70.0,1
"'613901'","'10/22/00 10/28/00'","Speed of admission",50.0,1
"'613901'","'10/22/00 10/28/00'","Courtesy of person admitting",100.0,1
"'613901'","'10/22/00 10/28/00'","Pre-admission process*",75.0,1
"'613901'","'10/22/00 10/28/00'","Time wait until given room*",50.0,1
"'613901'","'10/22/00 10/28/00'","Billing/insurance questions handled*",75.0,1
"'610701'","'10/22/00 10/28/00'","Std Admission",62.5,1
"'610701'","'10/22/00 10/28/00'","Admission",58.3,1
"'610701'","'10/22/00 10/28/00'","Speed of admission",75.0,1
"'610701'","'10/22/00 10/28/00'","Courtesy of person admitting",50.0,1
"'610701'","'10/22/00 10/28/00'","Billing/insurance questions handled*",50.0,1
"'611701'","'10/22/00 10/28/00'","Std Admission",91.7,1
"'611701'","'10/22/00 10/28/00'","Admission",93.8,1
"'611701'","'10/22/00 10/28/00'","Speed of admission",100.0,1
"'611701'","'10/22/00 10/28/00'","Courtesy of person admitting",100.0,1
"'611701'","'10/22/00 10/28/00'","Pre-admission process*",75.0,1
"'611701'","'10/22/00 10/28/00'","Billing/insurance questions handled*",100.0,1
"'Total'","'10/22/00 10/28/00'","Std Admission",72.7,9
"'Total'","'10/22/00 10/28/00'","Admission",70.8,9
"'Total'","'10/22/00 10/28/00'","Speed of admission",66.7,9
"'Total'","'10/22/00 10/28/00'","Courtesy of person admitting",80.6,9
"'Total'","'10/22/00 10/28/00'","Pre-admission process*",71.9,8
"'Total'","'10/22/00 10/28/00'","Time wait until given room*",64.3,7
"'Total'","'10/22/00 10/28/00'","Billing/insurance questions handled*",69.4,9
"'313001'","'10/29/00 11/4/00'","Std Admission",75.0,1
"'313001'","'10/29/00 11/4/00'","Admission",70.0,1
"'313001'","'10/29/00 11/4/00'","Speed of admission",50.0,1
"'313001'","'10/29/00 11/4/00'","Courtesy of person admitting",100.0,1
"'313001'","'10/29/00 11/4/00'","Pre-admission process*",75.0,1
"'313001'","'10/29/00 11/4/00'","Time wait until given room*",25.0,1
"'313001'","'10/29/00 11/4/00'","Billing/insurance questions handled*",100.0,1
"'311001'","'10/29/00 11/4/00'","Std Admission",50.0,1
"'311001'","'10/29/00 11/4/00'","Admission",50.0,1
"'311001'","'10/29/00 11/4/00'","Speed of admission",50.0,1
"'311001'","'10/29/00 11/4/00'","Courtesy of person admitting",50.0,1
"'311001'","'10/29/00 11/4/00'","Pre-admission process*",50.0,1
"'311001'","'10/29/00 11/4/00'","Time wait until given room*",50.0,1
"'311001'","'10/29/00 11/4/00'","Billing/insurance questions handled*",50.0,1
"'410301'","'10/29/00 11/4/00'","Std Admission",83.3,1
"'410301'","'10/29/00 11/4/00'","Admission",90.0,1
"'410301'","'10/29/00 11/4/00'","Speed of admission",100.0,1
"'410301'","'10/29/00 11/4/00'","Courtesy of person admitting",75.0,1
"'410301'","'10/29/00 11/4/00'","Pre-admission process*",75.0,1
"'410301'","'10/29/00 11/4/00'","Time wait until given room*",100.0,1
"'410301'","'10/29/00 11/4/00'","Billing/insurance questions handled*",100.0,1
"'210501'","'10/29/00 11/4/00'","Std Admission",75.0,1
"'210501'","'10/29/00 11/4/00'","Admission",70.0,1
"'210501'","'10/29/00 11/4/00'","Speed of admission",75.0,1
"'210501'","'10/29/00 11/4/00'","Courtesy of person admitting",75.0,1
"'210501'","'10/29/00 11/4/00'","Pre-admission process*",75.0,1
"'210501'","'10/29/00 11/4/00'","Time wait until given room*",50.0,1
"'210501'","'10/29/00 11/4/00'","Billing/insurance questions handled*",75.0,1
"'110301'","'10/29/00 11/4/00'","Std Admission",33.3,1
"'110301'","'10/29/00 11/4/00'","Admission",30.0,1
"'110301'","'10/29/00 11/4/00'","Speed of admission",0.0,1
"'110301'","'10/29/00 11/4/00'","Courtesy of person admitting",75.0,1
"'110301'","'10/29/00 11/4/00'","Pre-admission process*",25.0,1
"'110301'","'10/29/00 11/4/00'","Time wait until given room*",0.0,1
"'110301'","'10/29/00 11/4/00'","Billing/insurance questions handled*",50.0,1
"'614301'","'10/29/00 11/4/00'","Std Admission",75.0,1
"'614301'","'10/29/00 11/4/00'","Admission",60.0,1
"'614301'","'10/29/00 11/4/00'","Speed of admission",75.0,1
"'614301'","'10/29/00 11/4/00'","Courtesy of person admitting",75.0,1
"'614301'","'10/29/00 11/4/00'","Pre-admission process*",75.0,1
"'614301'","'10/29/00 11/4/00'","Time wait until given room*",0.0,1
"'614301'","'10/29/00 11/4/00'","Billing/insurance questions handled*",75.0,1
"'614601'","'10/29/00 11/4/00'","Std Admission",75.0,1
"'614601'","'10/29/00 11/4/00'","Admission",75.0,1
"'614601'","'10/29/00 11/4/00'","Speed of admission",75.0,1
"'614601'","'10/29/00 11/4/00'","Courtesy of person admitting",75.0,1
"'614601'","'10/29/00 11/4/00'","Pre-admission process*",75.0,1
"'614601'","'10/29/00 11/4/00'","Time wait until given room*",75.0,1
"'614601'","'10/29/00 11/4/00'","Billing/insurance questions handled*",75.0,1
"'612001'","'10/29/00 11/4/00'","Std Admission",75.0,1
"'612001'","'10/29/00 11/4/00'","Admission",75.0,1
"'612001'","'10/29/00 11/4/00'","Speed of admission",50.0,1
"'612001'","'10/29/00 11/4/00'","Courtesy of person admitting",75.0,1
"'612001'","'10/29/00 11/4/00'","Pre-admission process*",100.0,1
"'612001'","'10/29/00 11/4/00'","Billing/insurance questions handled*",75.0,1
"'612101'","'10/29/00 11/4/00'","Std Admission",83.3,1
"'612101'","'10/29/00 11/4/00'","Admission",81.3,1
"'612101'","'10/29/00 11/4/00'","Speed of admission",100.0,1
"'612101'","'10/29/00 11/4/00'","Courtesy of person admitting",50.0,1
"'612101'","'10/29/00 11/4/00'","Pre-admission process*",100.0,1
"'612101'","'10/29/00 11/4/00'","Billing/insurance questions handled*",75.0,1
"'Total'","'10/29/00 11/4/00'","Std Admission",69.4,9
"'Total'","'10/29/00 11/4/00'","Admission",66.8,9
"'Total'","'10/29/00 11/4/00'","Speed of admission",63.9,9
"'Total'","'10/29/00 11/4/00'","Courtesy of person admitting",72.2,9
"'Total'","'10/29/00 11/4/00'","Pre-admission process*",72.2,9
"'Total'","'10/29/00 11/4/00'","Time wait until given room*",42.9,7
"'Total'","'10/29/00 11/4/00'","Billing/insurance questions handled*",75.0,9
"'410101'","'11/5/00 11/11/00'","Std Admission",100.0,1
"'410101'","'11/5/00 11/11/00'","Admission",100.0,1
"'410101'","'11/5/00 11/11/00'","Speed of admission",100.0,1
"'410101'","'11/5/00 11/11/00'","Courtesy of person admitting",100.0,1
"'410101'","'11/5/00 11/11/00'","Pre-admission process*",100.0,1
"'410101'","'11/5/00 11/11/00'","Time wait until given room*",100.0,1
"'410101'","'11/5/00 11/11/00'","Billing/insurance questions handled*",100.0,1
"'511101'","'11/5/00 11/11/00'","Std Admission",100.0,1
"'511101'","'11/5/00 11/11/00'","Admission",100.0,1
"'511101'","'11/5/00 11/11/00'","Speed of admission",100.0,1
"'511101'","'11/5/00 11/11/00'","Courtesy of person admitting",100.0,1
"'511101'","'11/5/00 11/11/00'","Pre-admission process*",100.0,1
"'511101'","'11/5/00 11/11/00'","Time wait until given room*",100.0,1
"'511101'","'11/5/00 11/11/00'","Billing/insurance questions handled*",100.0,1
"'213301'","'11/5/00 11/11/00'","Std Admission",75.0,1
"'213301'","'11/5/00 11/11/00'","Admission",65.0,1
"'213301'","'11/5/00 11/11/00'","Speed of admission",75.0,1
"'213301'","'11/5/00 11/11/00'","Courtesy of person admitting",75.0,1
"'213301'","'11/5/00 11/11/00'","Pre-admission process*",75.0,1
"'213301'","'11/5/00 11/11/00'","Time wait until given room*",50.0,1
"'213301'","'11/5/00 11/11/00'","Billing/insurance questions handled*",50.0,1
"'115001'","'11/5/00 11/11/00'","Std Admission",66.7,1
"'115001'","'11/5/00 11/11/00'","Admission",70.0,1
"'115001'","'11/5/00 11/11/00'","Speed of admission",50.0,1
"'115001'","'11/5/00 11/11/00'","Courtesy of person admitting",75.0,1
"'115001'","'11/5/00 11/11/00'","Pre-admission process*",75.0,1
"'115001'","'11/5/00 11/11/00'","Time wait until given room*",75.0,1
"'115001'","'11/5/00 11/11/00'","Billing/insurance questions handled*",75.0,1
"'312701'","'11/5/00 11/11/00'","Std Admission",75.0,1
"'312701'","'11/5/00 11/11/00'","Admission",56.3,1
"'312701'","'11/5/00 11/11/00'","Speed of admission",50.0,1
"'312701'","'11/5/00 11/11/00'","Courtesy of person admitting",100.0,1
"'312701'","'11/5/00 11/11/00'","Pre-admission process*",75.0,1
"'312701'","'11/5/00 11/11/00'","Time wait until given room*",0.0,1
"'411101'","'11/5/00 11/11/00'","Std Admission",100.0,1
"'411101'","'11/5/00 11/11/00'","Admission",85.0,1
"'411101'","'11/5/00 11/11/00'","Speed of admission",100.0,1
"'411101'","'11/5/00 11/11/00'","Courtesy of person admitting",100.0,1
"'411101'","'11/5/00 11/11/00'","Pre-admission process*",100.0,1
"'411101'","'11/5/00 11/11/00'","Time wait until given room*",75.0,1
"'411101'","'11/5/00 11/11/00'","Billing/insurance questions handled*",50.0,1
"'213401'","'11/5/00 11/11/00'","Std Admission",75.0,1
"'213401'","'11/5/00 11/11/00'","Admission",85.0,1
"'213401'","'11/5/00 11/11/00'","Speed of admission",75.0,1
"'213401'","'11/5/00 11/11/00'","Courtesy of person admitting",75.0,1
"'213401'","'11/5/00 11/11/00'","Pre-admission process*",75.0,1
"'213401'","'11/5/00 11/11/00'","Time wait until given room*",100.0,1
"'213401'","'11/5/00 11/11/00'","Billing/insurance questions handled*",100.0,1
"'412101'","'11/5/00 11/11/00'","Std Admission",75.0,1
"'412101'","'11/5/00 11/11/00'","Admission",80.0,1
"'412101'","'11/5/00 11/11/00'","Speed of admission",75.0,1
"'412101'","'11/5/00 11/11/00'","Courtesy of person admitting",75.0,1
"'412101'","'11/5/00 11/11/00'","Pre-admission process*",75.0,1
"'412101'","'11/5/00 11/11/00'","Time wait until given room*",100.0,1
"'412101'","'11/5/00 11/11/00'","Billing/insurance questions handled*",75.0,1
"'712901'","'11/5/00 11/11/00'","Std Admission",75.0,1
"'712901'","'11/5/00 11/11/00'","Admission",75.0,1
"'712901'","'11/5/00 11/11/00'","Speed of admission",75.0,1
"'712901'","'11/5/00 11/11/00'","Courtesy of person admitting",75.0,1
"'712901'","'11/5/00 11/11/00'","Pre-admission process*",75.0,1
"'712901'","'11/5/00 11/11/00'","Billing/insurance questions handled*",75.0,1
"'313801'","'11/5/00 11/11/00'","Std Admission",50.0,1
"'313801'","'11/5/00 11/11/00'","Admission",37.5,1
"'313801'","'11/5/00 11/11/00'","Speed of admission",25.0,1
"'313801'","'11/5/00 11/11/00'","Courtesy of person admitting",75.0,1
"'313801'","'11/5/00 11/11/00'","Time wait until given room*",0.0,1
"'313801'","'11/5/00 11/11/00'","Billing/insurance questions handled*",50.0,1
"'515001'","'11/5/00 11/11/00'","Std Admission",-,0
"'515001'","'11/5/00 11/11/00'","Admission",50.0,1
"'515001'","'11/5/00 11/11/00'","Time wait until given room*",50.0,1
"'512201'","'11/5/00 11/11/00'","Std Admission",100.0,1
"'512201'","'11/5/00 11/11/00'","Admission",75.0,1
"'512201'","'11/5/00 11/11/00'","Courtesy of person admitting",100.0,1
"'512201'","'11/5/00 11/11/00'","Time wait until given room*",50.0,1
"'611601'","'11/5/00 11/11/00'","Std Admission",100.0,1
"'611601'","'11/5/00 11/11/00'","Admission",100.0,1
"'611601'","'11/5/00 11/11/00'","Speed of admission",100.0,1
"'611601'","'11/5/00 11/11/00'","Courtesy of person admitting",100.0,1
"'611601'","'11/5/00 11/11/00'","Pre-admission process*",100.0,1
"'611601'","'11/5/00 11/11/00'","Billing/insurance questions handled*",100.0,1
"'612301'","'11/5/00 11/11/00'","Std Admission",58.3,1
"'612301'","'11/5/00 11/11/00'","Admission",62.5,1
"'612301'","'11/5/00 11/11/00'","Speed of admission",50.0,1
"'612301'","'11/5/00 11/11/00'","Courtesy of person admitting",50.0,1
"'612301'","'11/5/00 11/11/00'","Pre-admission process*",75.0,1
"'612301'","'11/5/00 11/11/00'","Billing/insurance questions handled*",75.0,1
"'Total'","'11/5/00 11/11/00'","Std Admission",80.8,13
"'Total'","'11/5/00 11/11/00'","Admission",74.4,14
"'Total'","'11/5/00 11/11/00'","Speed of admission",72.9,12
"'Total'","'11/5/00 11/11/00'","Courtesy of person admitting",84.6,13
"'Total'","'11/5/00 11/11/00'","Pre-admission process*",84.1,11
"'Total'","'11/5/00 11/11/00'","Time wait until given room*",63.6,11
"'Total'","'11/5/00 11/11/00'","Billing/insurance questions handled*",77.3,11
"'211001'","'11/12/00 11/18/00'","Std Admission",83.3,1
"'211001'","'11/12/00 11/18/00'","Admission",90.0,1
"'211001'","'11/12/00 11/18/00'","Speed of admission",100.0,1
"'211001'","'11/12/00 11/18/00'","Courtesy of person admitting",100.0,1
"'211001'","'11/12/00 11/18/00'","Pre-admission process*",50.0,1
"'211001'","'11/12/00 11/18/00'","Time wait until given room*",100.0,1
"'211001'","'11/12/00 11/18/00'","Billing/insurance questions handled*",100.0,1
"'413401'","'11/12/00 11/18/00'","Std Admission",91.7,1
"'413401'","'11/12/00 11/18/00'","Admission",90.0,1
"'413401'","'11/12/00 11/18/00'","Speed of admission",75.0,1
"'413401'","'11/12/00 11/18/00'","Courtesy of person admitting",100.0,1
"'413401'","'11/12/00 11/18/00'","Pre-admission process*",100.0,1
"'413401'","'11/12/00 11/18/00'","Time wait until given room*",100.0,1
"'413401'","'11/12/00 11/18/00'","Billing/insurance questions handled*",75.0,1
"'314101'","'11/12/00 11/18/00'","Std Admission",100.0,1
"'314101'","'11/12/00 11/18/00'","Admission",87.5,1
"'314101'","'11/12/00 11/18/00'","Speed of admission",100.0,1
"'314101'","'11/12/00 11/18/00'","Pre-admission process*",100.0,1
"'314101'","'11/12/00 11/18/00'","Time wait until given room*",100.0,1
"'314101'","'11/12/00 11/18/00'","Billing/insurance questions handled*",50.0,1
"'710401'","'11/12/00 11/18/00'","Std Admission",66.7,1
"'710401'","'11/12/00 11/18/00'","Admission",70.0,1
"'710401'","'11/12/00 11/18/00'","Speed of admission",50.0,1
"'710401'","'11/12/00 11/18/00'","Courtesy of person admitting",75.0,1
"'710401'","'11/12/00 11/18/00'","Pre-admission process*",75.0,1
"'710401'","'11/12/00 11/18/00'","Time wait until given room*",75.0,1
"'710401'","'11/12/00 11/18/00'","Billing/insurance questions handled*",75.0,1
"'313501'","'11/12/00 11/18/00'","Std Admission",100.0,1
"'313501'","'11/12/00 11/18/00'","Admission",90.0,1
"'313501'","'11/12/00 11/18/00'","Speed of admission",100.0,1
"'313501'","'11/12/00 11/18/00'","Courtesy of person admitting",100.0,1
"'313501'","'11/12/00 11/18/00'","Pre-admission process*",100.0,1
"'313501'","'11/12/00 11/18/00'","Time wait until given room*",50.0,1
"'313501'","'11/12/00 11/18/00'","Billing/insurance questions handled*",100.0,1
"'213801'","'11/12/00 11/18/00'","Std Admission",58.3,1
"'213801'","'11/12/00 11/18/00'","Admission",45.0,1
"'213801'","'11/12/00 11/18/00'","Speed of admission",50.0,1
"'213801'","'11/12/00 11/18/00'","Courtesy of person admitting",75.0,1
"'213801'","'11/12/00 11/18/00'","Pre-admission process*",50.0,1
"'213801'","'11/12/00 11/18/00'","Time wait until given room*",25.0,1
"'213801'","'11/12/00 11/18/00'","Billing/insurance questions handled*",25.0,1
"'311801'","'11/12/00 11/18/00'","Std Admission",75.0,1
"'311801'","'11/12/00 11/18/00'","Admission",75.0,1
"'311801'","'11/12/00 11/18/00'","Speed of admission",75.0,1
"'311801'","'11/12/00 11/18/00'","Courtesy of person admitting",75.0,1
"'311801'","'11/12/00 11/18/00'","Pre-admission process*",75.0,1
"'311801'","'11/12/00 11/18/00'","Time wait until given room*",50.0,1
"'311801'","'11/12/00 11/18/00'","Billing/insurance questions handled*",100.0,1
"'612301'","'11/12/00 11/18/00'","Std Admission",50.0,1
"'612301'","'11/12/00 11/18/00'","Admission",50.0,1
"'612301'","'11/12/00 11/18/00'","Speed of admission",50.0,1
"'612301'","'11/12/00 11/18/00'","Courtesy of person admitting",50.0,1
"'612301'","'11/12/00 11/18/00'","Pre-admission process*",50.0,1
"'612301'","'11/12/00 11/18/00'","Billing/insurance questions handled*",50.0,1
"'Total'","'11/12/00 11/18/00'","Std Admission",78.1,8
"'Total'","'11/12/00 11/18/00'","Admission",74.7,8
"'Total'","'11/12/00 11/18/00'","Speed of admission",75.0,8
"'Total'","'11/12/00 11/18/00'","Courtesy of person admitting",82.1,7
"'Total'","'11/12/00 11/18/00'","Pre-admission process*",75.0,8
"'Total'","'11/12/00 11/18/00'","Time wait until given room*",71.4,7
"'Total'","'11/12/00 11/18/00'","Billing/insurance questions handled*",71.9,8
"'111201'","'11/19/00 11/25/00'","Std Admission",75.0,1
"'111201'","'11/19/00 11/25/00'","Admission",80.0,1
"'111201'","'11/19/00 11/25/00'","Speed of admission",75.0,1
"'111201'","'11/19/00 11/25/00'","Courtesy of person admitting",75.0,1
"'111201'","'11/19/00 11/25/00'","Pre-admission process*",75.0,1
"'111201'","'11/19/00 11/25/00'","Time wait until given room*",100.0,1
"'111201'","'11/19/00 11/25/00'","Billing/insurance questions handled*",75.0,1
"'114701'","'11/19/00 11/25/00'","Std Admission",100.0,1
"'114701'","'11/19/00 11/25/00'","Admission",100.0,1
"'114701'","'11/19/00 11/25/00'","Speed of admission",100.0,1
"'213101'","'11/19/00 11/25/00'","Std Admission",100.0,1
"'213101'","'11/19/00 11/25/00'","Admission",100.0,1
"'213101'","'11/19/00 11/25/00'","Speed of admission",100.0,1
"'213101'","'11/19/00 11/25/00'","Courtesy of person admitting",100.0,1
"'213101'","'11/19/00 11/25/00'","Pre-admission process*",100.0,1
"'213101'","'11/19/00 11/25/00'","Time wait until given room*",100.0,1
"'213101'","'11/19/00 11/25/00'","Billing/insurance questions handled*",100.0,1
"'411401'","'11/19/00 11/25/00'","Std Admission",87.5,1
"'411401'","'11/19/00 11/25/00'","Admission",83.3,1
"'411401'","'11/19/00 11/25/00'","Speed of admission",75.0,1
"'411401'","'11/19/00 11/25/00'","Courtesy of person admitting",100.0,1
"'411401'","'11/19/00 11/25/00'","Time wait until given room*",75.0,1
"'211701'","'11/19/00 11/25/00'","Std Admission",100.0,1
"'211701'","'11/19/00 11/25/00'","Admission",91.7,1
"'211701'","'11/19/00 11/25/00'","Speed of admission",100.0,1
"'211701'","'11/19/00 11/25/00'","Courtesy of person admitting",100.0,1
"'211701'","'11/19/00 11/25/00'","Billing/insurance questions handled*",75.0,1
"'212901'","'11/19/00 11/25/00'","Std Admission",75.0,1
"'212901'","'11/19/00 11/25/00'","Admission",75.0,1
"'212901'","'11/19/00 11/25/00'","Pre-admission process*",75.0,1
"'312601'","'11/19/00 11/25/00'","Std Admission",83.3,1
"'312601'","'11/19/00 11/25/00'","Admission",85.0,1
"'312601'","'11/19/00 11/25/00'","Speed of admission",75.0,1
"'312601'","'11/19/00 11/25/00'","Courtesy of person admitting",75.0,1
"'312601'","'11/19/00 11/25/00'","Pre-admission process*",100.0,1
"'312601'","'11/19/00 11/25/00'","Time wait until given room*",100.0,1
"'312601'","'11/19/00 11/25/00'","Billing/insurance questions handled*",75.0,1
"'313501'","'11/19/00 11/25/00'","Std Admission",33.3,1
"'313501'","'11/19/00 11/25/00'","Admission",30.0,1
"'313501'","'11/19/00 11/25/00'","Speed of admission",25.0,1
"'313501'","'11/19/00 11/25/00'","Courtesy of person admitting",75.0,1
"'313501'","'11/19/00 11/25/00'","Pre-admission process*",0.0,1
"'313501'","'11/19/00 11/25/00'","Time wait until given room*",0.0,1
"'313501'","'11/19/00 11/25/00'","Billing/insurance questions handled*",50.0,1
"'713201'","'11/19/00 11/25/00'","Std Admission",66.7,1
"'713201'","'11/19/00 11/25/00'","Admission",68.8,1
"'713201'","'11/19/00 11/25/00'","Speed of admission",75.0,1
"'713201'","'11/19/00 11/25/00'","Courtesy of person admitting",75.0,1
"'713201'","'11/19/00 11/25/00'","Pre-admission process*",50.0,1
"'713201'","'11/19/00 11/25/00'","Time wait until given room*",75.0,1
"'411301'","'11/19/00 11/25/00'","Std Admission",100.0,1
"'411301'","'11/19/00 11/25/00'","Admission",100.0,1
"'411301'","'11/19/00 11/25/00'","Speed of admission",100.0,1
"'711301'","'11/19/00 11/25/00'","Std Admission",83.3,1
"'711301'","'11/19/00 11/25/00'","Admission",80.0,1
"'711301'","'11/19/00 11/25/00'","Speed of admission",75.0,1
"'711301'","'11/19/00 11/25/00'","Courtesy of person admitting",100.0,1
"'711301'","'11/19/00 11/25/00'","Pre-admission process*",75.0,1
"'711301'","'11/19/00 11/25/00'","Time wait until given room*",75.0,1
"'711301'","'11/19/00 11/25/00'","Billing/insurance questions handled*",75.0,1
"'621501'","'11/19/00 11/25/00'","Std Admission",66.7,1
"'621501'","'11/19/00 11/25/00'","Admission",65.0,1
"'621501'","'11/19/00 11/25/00'","Speed of admission",50.0,1
"'621501'","'11/19/00 11/25/00'","Courtesy of person admitting",75.0,1
"'621501'","'11/19/00 11/25/00'","Pre-admission process*",75.0,1
"'621501'","'11/19/00 11/25/00'","Time wait until given room*",50.0,1
"'621501'","'11/19/00 11/25/00'","Billing/insurance questions handled*",75.0,1
"'610501'","'11/19/00 11/25/00'","Std Admission",100.0,1
"'610501'","'11/19/00 11/25/00'","Admission",100.0,1
"'610501'","'11/19/00 11/25/00'","Speed of admission",100.0,1
"'610501'","'11/19/00 11/25/00'","Courtesy of person admitting",100.0,1
"'610501'","'11/19/00 11/25/00'","Pre-admission process*",100.0,1
"'610501'","'11/19/00 11/25/00'","Billing/insurance questions handled*",100.0,1
"'610601'","'11/19/00 11/25/00'","Std Admission",100.0,1
"'610601'","'11/19/00 11/25/00'","Admission",100.0,1
"'610601'","'11/19/00 11/25/00'","Speed of admission",100.0,1
"'610601'","'11/19/00 11/25/00'","Courtesy of person admitting",100.0,1
"'610601'","'11/19/00 11/25/00'","Pre-admission process*",100.0,1
"'610601'","'11/19/00 11/25/00'","Billing/insurance questions handled*",100.0,1
"'611701'","'11/19/00 11/25/00'","Std Admission",100.0,1
"'611701'","'11/19/00 11/25/00'","Admission",91.7,1
"'611701'","'11/19/00 11/25/00'","Speed of admission",100.0,1
"'611701'","'11/19/00 11/25/00'","Courtesy of person admitting",100.0,1
"'611701'","'11/19/00 11/25/00'","Billing/insurance questions handled*",75.0,1
"'Total'","'11/19/00 11/25/00'","Std Admission",84.7,15
"'Total'","'11/19/00 11/25/00'","Admission",83.4,15
"'Total'","'11/19/00 11/25/00'","Speed of admission",82.1,14
"'Total'","'11/19/00 11/25/00'","Courtesy of person admitting",89.6,12
"'Total'","'11/19/00 11/25/00'","Pre-admission process*",75.0,10
"'Total'","'11/19/00 11/25/00'","Time wait until given room*",71.9,8
"'Total'","'11/19/00 11/25/00'","Billing/insurance questions handled*",80.0,10
"'212501'","'11/26/00 12/2/00'","Std Admission",87.5,1
"'212501'","'11/26/00 12/2/00'","Admission",87.5,1
"'212501'","'11/26/00 12/2/00'","Speed of admission",75.0,1
"'212501'","'11/26/00 12/2/00'","Courtesy of person admitting",100.0,1
"'212501'","'11/26/00 12/2/00'","Time wait until given room*",75.0,1
"'212501'","'11/26/00 12/2/00'","Billing/insurance questions handled*",100.0,1
"'613001'","'11/26/00 12/2/00'","Std Admission",100.0,1
"'613001'","'11/26/00 12/2/00'","Admission",100.0,1
"'613001'","'11/26/00 12/2/00'","Speed of admission",100.0,1
"'613001'","'11/26/00 12/2/00'","Courtesy of person admitting",100.0,1
"'613001'","'11/26/00 12/2/00'","Pre-admission process*",100.0,1
"'613001'","'11/26/00 12/2/00'","Time wait until given room*",100.0,1
"'613001'","'11/26/00 12/2/00'","Billing/insurance questions handled*",100.0,1
"'311201'","'11/26/00 12/2/00'","Std Admission",8.3,1
"'311201'","'11/26/00 12/2/00'","Admission",18.8,1
"'311201'","'11/26/00 12/2/00'","Speed of admission",25.0,1
"'311201'","'11/26/00 12/2/00'","Courtesy of person admitting",0.0,1
"'311201'","'11/26/00 12/2/00'","Pre-admission process*",0.0,1
"'311201'","'11/26/00 12/2/00'","Billing/insurance questions handled*",50.0,1
"'310401'","'11/26/00 12/2/00'","Std Admission",58.3,1
"'310401'","'11/26/00 12/2/00'","Admission",45.0,1
"'310401'","'11/26/00 12/2/00'","Speed of admission",25.0,1
"'310401'","'11/26/00 12/2/00'","Courtesy of person admitting",75.0,1
"'310401'","'11/26/00 12/2/00'","Pre-admission process*",75.0,1
"'310401'","'11/26/00 12/2/00'","Time wait until given room*",0.0,1
"'310401'","'11/26/00 12/2/00'","Billing/insurance questions handled*",50.0,1
"'210301'","'11/26/00 12/2/00'","Std Admission",100.0,1
"'210301'","'11/26/00 12/2/00'","Admission",100.0,1
"'210301'","'11/26/00 12/2/00'","Speed of admission",100.0,1
"'210301'","'11/26/00 12/2/00'","Courtesy of person admitting",100.0,1
"'210301'","'11/26/00 12/2/00'","Pre-admission process*",100.0,1
"'210301'","'11/26/00 12/2/00'","Time wait until given room*",100.0,1
"'511701'","'11/26/00 12/2/00'","Std Admission",50.0,1
"'511701'","'11/26/00 12/2/00'","Admission",50.0,1
"'511701'","'11/26/00 12/2/00'","Speed of admission",25.0,1
"'511701'","'11/26/00 12/2/00'","Courtesy of person admitting",75.0,1
"'511701'","'11/26/00 12/2/00'","Pre-admission process*",50.0,1
"'511701'","'11/26/00 12/2/00'","Time wait until given room*",25.0,1
"'511701'","'11/26/00 12/2/00'","Billing/insurance questions handled*",75.0,1
"'412201'","'11/26/00 12/2/00'","Std Admission",75.0,1
"'412201'","'11/26/00 12/2/00'","Admission",75.0,1
"'412201'","'11/26/00 12/2/00'","Speed of admission",75.0,1
"'412201'","'11/26/00 12/2/00'","Courtesy of person admitting",75.0,1
"'412201'","'11/26/00 12/2/00'","Time wait until given room*",75.0,1
"'412201'","'11/26/00 12/2/00'","Billing/insurance questions handled*",75.0,1
"'312501'","'11/26/00 12/2/00'","Std Admission",87.5,1
"'312501'","'11/26/00 12/2/00'","Admission",83.3,1
"'312501'","'11/26/00 12/2/00'","Speed of admission",75.0,1
"'312501'","'11/26/00 12/2/00'","Courtesy of person admitting",100.0,1
"'312501'","'11/26/00 12/2/00'","Time wait until given room*",75.0,1
"'713601'","'11/26/00 12/2/00'","Std Admission",83.3,1
"'713601'","'11/26/00 12/2/00'","Admission",70.0,1
"'713601'","'11/26/00 12/2/00'","Speed of admission",75.0,1
"'713601'","'11/26/00 12/2/00'","Courtesy of person admitting",100.0,1
"'713601'","'11/26/00 12/2/00'","Pre-admission process*",75.0,1
"'713601'","'11/26/00 12/2/00'","Time wait until given room*",0.0,1
"'713601'","'11/26/00 12/2/00'","Billing/insurance questions handled*",100.0,1
"'Total'","'11/26/00 12/2/00'","Std Admission",72.2,9
"'Total'","'11/26/00 12/2/00'","Admission",70.0,9
"'Total'","'11/26/00 12/2/00'","Speed of admission",63.9,9
"'Total'","'11/26/00 12/2/00'","Courtesy of person admitting",80.6,9
"'Total'","'11/26/00 12/2/00'","Pre-admission process*",66.7,6
"'Total'","'11/26/00 12/2/00'","Time wait until given room*",56.3,8
"'Total'","'11/26/00 12/2/00'","Billing/insurance questions handled*",78.6,7
"'213301'","'12/3/00 12/9/00'","Std Admission",100.0,1
"'213301'","'12/3/00 12/9/00'","Admission",100.0,1
"'213301'","'12/3/00 12/9/00'","Speed of admission",100.0,1
"'213301'","'12/3/00 12/9/00'","Courtesy of person admitting",100.0,1
"'213301'","'12/3/00 12/9/00'","Pre-admission process*",100.0,1
"'213301'","'12/3/00 12/9/00'","Time wait until given room*",100.0,1
"'213301'","'12/3/00 12/9/00'","Billing/insurance questions handled*",100.0,1
"'114701'","'12/3/00 12/9/00'","Std Admission",100.0,1
"'114701'","'12/3/00 12/9/00'","Admission",100.0,1
"'114701'","'12/3/00 12/9/00'","Speed of admission",100.0,1
"'114701'","'12/3/00 12/9/00'","Courtesy of person admitting",100.0,1
"'114701'","'12/3/00 12/9/00'","Pre-admission process*",100.0,1
"'114701'","'12/3/00 12/9/00'","Time wait until given room*",100.0,1
"'711801'","'12/3/00 12/9/00'","Std Admission",75.0,1
"'711801'","'12/3/00 12/9/00'","Admission",66.7,1
"'711801'","'12/3/00 12/9/00'","Speed of admission",50.0,1
"'711801'","'12/3/00 12/9/00'","Courtesy of person admitting",100.0,1
"'711801'","'12/3/00 12/9/00'","Time wait until given room*",50.0,1
"'312401'","'12/3/00 12/9/00'","Std Admission",-,0
"'312401'","'12/3/00 12/9/00'","Admission",75.0,1
"'312401'","'12/3/00 12/9/00'","Time wait until given room*",75.0,1
"'312401'","'12/3/00 12/9/00'","Billing/insurance questions handled*",75.0,1
"'614201'","'12/3/00 12/9/00'","Std Admission",75.0,1
"'614201'","'12/3/00 12/9/00'","Admission",75.0,1
"'614201'","'12/3/00 12/9/00'","Speed of admission",75.0,1
"'614201'","'12/3/00 12/9/00'","Courtesy of person admitting",75.0,1
"'614201'","'12/3/00 12/9/00'","Pre-admission process*",75.0,1
"'712101'","'12/3/00 12/9/00'","Std Admission",100.0,1
"'712101'","'12/3/00 12/9/00'","Admission",50.0,1
"'712101'","'12/3/00 12/9/00'","Pre-admission process*",100.0,1
"'712101'","'12/3/00 12/9/00'","Time wait until given room*",0.0,1
"'413801'","'12/3/00 12/9/00'","Std Admission",62.5,1
"'413801'","'12/3/00 12/9/00'","Admission",58.3,1
"'413801'","'12/3/00 12/9/00'","Speed of admission",75.0,1
"'413801'","'12/3/00 12/9/00'","Courtesy of person admitting",50.0,1
"'413801'","'12/3/00 12/9/00'","Billing/insurance questions handled*",50.0,1
"'614701'","'12/3/00 12/9/00'","Std Admission",100.0,1
"'614701'","'12/3/00 12/9/00'","Admission",100.0,1
"'614701'","'12/3/00 12/9/00'","Speed of admission",100.0,1
"'614701'","'12/3/00 12/9/00'","Courtesy of person admitting",100.0,1
"'614701'","'12/3/00 12/9/00'","Pre-admission process*",100.0,1
"'513901'","'12/3/00 12/9/00'","Std Admission",75.0,1
"'513901'","'12/3/00 12/9/00'","Admission",75.0,1
"'513901'","'12/3/00 12/9/00'","Speed of admission",75.0,1
"'513901'","'12/3/00 12/9/00'","Courtesy of person admitting",75.0,1
"'513901'","'12/3/00 12/9/00'","Pre-admission process*",75.0,1
"'513901'","'12/3/00 12/9/00'","Time wait until given room*",75.0,1
"'513901'","'12/3/00 12/9/00'","Billing/insurance questions handled*",75.0,1
"'514101'","'12/3/00 12/9/00'","Std Admission",75.0,1
"'514101'","'12/3/00 12/9/00'","Admission",75.0,1
"'514101'","'12/3/00 12/9/00'","Speed of admission",75.0,1
"'611101'","'12/3/00 12/9/00'","Std Admission",91.7,1
"'611101'","'12/3/00 12/9/00'","Admission",93.8,1
"'611101'","'12/3/00 12/9/00'","Speed of admission",100.0,1
"'611101'","'12/3/00 12/9/00'","Courtesy of person admitting",100.0,1
"'611101'","'12/3/00 12/9/00'","Pre-admission process*",75.0,1
"'611101'","'12/3/00 12/9/00'","Billing/insurance questions handled*",100.0,1
"'610701'","'12/3/00 12/9/00'","Std Admission",100.0,1
"'610701'","'12/3/00 12/9/00'","Admission",100.0,1
"'610701'","'12/3/00 12/9/00'","Speed of admission",100.0,1
"'610701'","'12/3/00 12/9/00'","Courtesy of person admitting",100.0,1
"'610701'","'12/3/00 12/9/00'","Pre-admission process*",100.0,1
"'610701'","'12/3/00 12/9/00'","Billing/insurance questions handled*",100.0,1
"'611001'","'12/3/00 12/9/00'","Std Admission",100.0,1
"'611001'","'12/3/00 12/9/00'","Admission",100.0,1
"'611001'","'12/3/00 12/9/00'","Speed of admission",100.0,1
"'611001'","'12/3/00 12/9/00'","Courtesy of person admitting",100.0,1
"'611001'","'12/3/00 12/9/00'","Pre-admission process*",100.0,1
"'Total'","'12/3/00 12/9/00'","Std Admission",87.9,12
"'Total'","'12/3/00 12/9/00'","Admission",82.2,13
"'Total'","'12/3/00 12/9/00'","Speed of admission",86.4,11
"'Total'","'12/3/00 12/9/00'","Courtesy of person admitting",90.0,10
"'Total'","'12/3/00 12/9/00'","Pre-admission process*",91.7,9
"'Total'","'12/3/00 12/9/00'","Time wait until given room*",66.7,6
"'Total'","'12/3/00 12/9/00'","Billing/insurance questions handled*",83.3,6
"'411801'","'12/10/00 12/16/00'","Std Admission",37.5,1
"'411801'","'12/10/00 12/16/00'","Admission",25.0,1
"'411801'","'12/10/00 12/16/00'","Speed of admission",0.0,1
"'411801'","'12/10/00 12/16/00'","Courtesy of person admitting",75.0,1
"'411801'","'12/10/00 12/16/00'","Time wait until given room*",0.0,1
"'621601'","'12/10/00 12/16/00'","Std Admission",50.0,1
"'621601'","'12/10/00 12/16/00'","Admission",45.0,1
"'621601'","'12/10/00 12/16/00'","Speed of admission",50.0,1
"'621601'","'12/10/00 12/16/00'","Courtesy of person admitting",50.0,1
"'621601'","'12/10/00 12/16/00'","Pre-admission process*",50.0,1
"'621601'","'12/10/00 12/16/00'","Time wait until given room*",25.0,1
"'621601'","'12/10/00 12/16/00'","Billing/insurance questions handled*",50.0,1
"'322901'","'12/10/00 12/16/00'","Std Admission",91.7,1
"'322901'","'12/10/00 12/16/00'","Admission",85.0,1
"'322901'","'12/10/00 12/16/00'","Speed of admission",100.0,1
"'322901'","'12/10/00 12/16/00'","Courtesy of person admitting",75.0,1
"'322901'","'12/10/00 12/16/00'","Pre-admission process*",100.0,1
"'322901'","'12/10/00 12/16/00'","Time wait until given room*",100.0,1
"'322901'","'12/10/00 12/16/00'","Billing/insurance questions handled*",50.0,1
"'710101'","'12/10/00 12/16/00'","Std Admission",75.0,1
"'710101'","'12/10/00 12/16/00'","Admission",75.0,1
"'710101'","'12/10/00 12/16/00'","Speed of admission",75.0,1
"'710101'","'12/10/00 12/16/00'","Courtesy of person admitting",75.0,1
"'710101'","'12/10/00 12/16/00'","Pre-admission process*",75.0,1
"'710101'","'12/10/00 12/16/00'","Time wait until given room*",75.0,1
"'712201'","'12/10/00 12/16/00'","Std Admission",100.0,1
"'712201'","'12/10/00 12/16/00'","Admission",93.8,1
"'712201'","'12/10/00 12/16/00'","Speed of admission",100.0,1
"'712201'","'12/10/00 12/16/00'","Courtesy of person admitting",100.0,1
"'712201'","'12/10/00 12/16/00'","Pre-admission process*",100.0,1
"'712201'","'12/10/00 12/16/00'","Time wait until given room*",75.0,1
"'611901'","'12/10/00 12/16/00'","Std Admission",75.0,1
"'611901'","'12/10/00 12/16/00'","Admission",75.0,1
"'611901'","'12/10/00 12/16/00'","Speed of admission",75.0,1
"'611901'","'12/10/00 12/16/00'","Courtesy of person admitting",75.0,1
"'611901'","'12/10/00 12/16/00'","Pre-admission process*",75.0,1
"'611901'","'12/10/00 12/16/00'","Billing/insurance questions handled*",75.0,1
"'611001'","'12/10/00 12/16/00'","Std Admission",50.0,1
"'611001'","'12/10/00 12/16/00'","Admission",56.3,1
"'611001'","'12/10/00 12/16/00'","Speed of admission",50.0,1
"'611001'","'12/10/00 12/16/00'","Courtesy of person admitting",50.0,1
"'611001'","'12/10/00 12/16/00'","Pre-admission process*",50.0,1
"'611001'","'12/10/00 12/16/00'","Billing/insurance questions handled*",75.0,1
"'Total'","'12/10/00 12/16/00'","Std Admission",68.5,7
"'Total'","'12/10/00 12/16/00'","Admission",65.0,7
"'Total'","'12/10/00 12/16/00'","Speed of admission",64.3,7
"'Total'","'12/10/00 12/16/00'","Courtesy of person admitting",71.4,7
"'Total'","'12/10/00 12/16/00'","Pre-admission process*",75.0,6
"'Total'","'12/10/00 12/16/00'","Time wait until given room*",55.0,5
"'Total'","'12/10/00 12/16/00'","Billing/insurance questions handled*",62.5,4
"'210201'","'12/17/00 12/23/00'","Std Admission",75.0,1
"'210201'","'12/17/00 12/23/00'","Admission",75.0,1
"'210201'","'12/17/00 12/23/00'","Courtesy of person admitting",75.0,1
"'210201'","'12/17/00 12/23/00'","Billing/insurance questions handled*",75.0,1
"'314101'","'12/17/00 12/23/00'","Std Admission",83.3,1
"'314101'","'12/17/00 12/23/00'","Admission",70.0,1
"'314101'","'12/17/00 12/23/00'","Speed of admission",75.0,1
"'314101'","'12/17/00 12/23/00'","Courtesy of person admitting",75.0,1
"'314101'","'12/17/00 12/23/00'","Pre-admission process*",100.0,1
"'314101'","'12/17/00 12/23/00'","Time wait until given room*",25.0,1
"'314101'","'12/17/00 12/23/00'","Billing/insurance questions handled*",75.0,1
"'614201'","'12/17/00 12/23/00'","Std Admission",100.0,1
"'614201'","'12/17/00 12/23/00'","Admission",81.3,1
"'614201'","'12/17/00 12/23/00'","Speed of admission",100.0,1
"'614201'","'12/17/00 12/23/00'","Courtesy of person admitting",100.0,1
"'614201'","'12/17/00 12/23/00'","Pre-admission process*",100.0,1
"'614201'","'12/17/00 12/23/00'","Time wait until given room*",25.0,1
"'413701'","'12/17/00 12/23/00'","Std Admission",75.0,1
"'413701'","'12/17/00 12/23/00'","Admission",75.0,1
"'413701'","'12/17/00 12/23/00'","Speed of admission",75.0,1
"'413701'","'12/17/00 12/23/00'","Courtesy of person admitting",75.0,1
"'413701'","'12/17/00 12/23/00'","Pre-admission process*",75.0,1
"'413701'","'12/17/00 12/23/00'","Time wait until given room*",75.0,1
"'413701'","'12/17/00 12/23/00'","Billing/insurance questions handled*",75.0,1
"'312001'","'12/17/00 12/23/00'","Std Admission",75.0,1
"'312001'","'12/17/00 12/23/00'","Admission",65.0,1
"'312001'","'12/17/00 12/23/00'","Speed of admission",75.0,1
"'312001'","'12/17/00 12/23/00'","Courtesy of person admitting",75.0,1
"'312001'","'12/17/00 12/23/00'","Pre-admission process*",75.0,1
"'312001'","'12/17/00 12/23/00'","Time wait until given room*",25.0,1
"'312001'","'12/17/00 12/23/00'","Billing/insurance questions handled*",75.0,1
"'710301'","'12/17/00 12/23/00'","Std Admission",50.0,1
"'710301'","'12/17/00 12/23/00'","Admission",50.0,1
"'710301'","'12/17/00 12/23/00'","Speed of admission",50.0,1
"'710301'","'12/17/00 12/23/00'","Courtesy of person admitting",50.0,1
"'710301'","'12/17/00 12/23/00'","Time wait until given room*",50.0,1
"'710301'","'12/17/00 12/23/00'","Billing/insurance questions handled*",50.0,1
"'313901'","'12/17/00 12/23/00'","Std Admission",62.5,1
"'313901'","'12/17/00 12/23/00'","Admission",62.5,1
"'313901'","'12/17/00 12/23/00'","Speed of admission",50.0,1
"'313901'","'12/17/00 12/23/00'","Courtesy of person admitting",75.0,1
"'313901'","'12/17/00 12/23/00'","Time wait until given room*",50.0,1
"'313901'","'12/17/00 12/23/00'","Billing/insurance questions handled*",75.0,1
"'310301'","'12/17/00 12/23/00'","Std Admission",83.3,1
"'310301'","'12/17/00 12/23/00'","Admission",68.8,1
"'310301'","'12/17/00 12/23/00'","Speed of admission",75.0,1
"'310301'","'12/17/00 12/23/00'","Courtesy of person admitting",100.0,1
"'310301'","'12/17/00 12/23/00'","Pre-admission process*",75.0,1
"'310301'","'12/17/00 12/23/00'","Time wait until given room*",25.0,1
"'212801'","'12/17/00 12/23/00'","Std Admission",100.0,1
"'212801'","'12/17/00 12/23/00'","Admission",100.0,1
"'212801'","'12/17/00 12/23/00'","Speed of admission",100.0,1
"'212801'","'12/17/00 12/23/00'","Courtesy of person admitting",100.0,1
"'212801'","'12/17/00 12/23/00'","Time wait until given room*",100.0,1
"'610101'","'12/17/00 12/23/00'","Std Admission",100.0,1
"'610101'","'12/17/00 12/23/00'","Admission",100.0,1
"'610101'","'12/17/00 12/23/00'","Speed of admission",100.0,1
"'610101'","'12/17/00 12/23/00'","Courtesy of person admitting",100.0,1
"'610101'","'12/17/00 12/23/00'","Pre-admission process*",100.0,1
"'610101'","'12/17/00 12/23/00'","Time wait until given room*",100.0,1
"'610101'","'12/17/00 12/23/00'","Billing/insurance questions handled*",100.0,1
"'413201'","'12/17/00 12/23/00'","Std Admission",91.7,1
"'413201'","'12/17/00 12/23/00'","Admission",93.8,1
"'413201'","'12/17/00 12/23/00'","Speed of admission",100.0,1
"'413201'","'12/17/00 12/23/00'","Courtesy of person admitting",100.0,1
"'413201'","'12/17/00 12/23/00'","Pre-admission process*",75.0,1
"'413201'","'12/17/00 12/23/00'","Time wait until given room*",100.0,1
"'613801'","'12/17/00 12/23/00'","Std Admission",75.0,1
"'613801'","'12/17/00 12/23/00'","Admission",75.0,1
"'613801'","'12/17/00 12/23/00'","Speed of admission",75.0,1
"'613801'","'12/17/00 12/23/00'","Courtesy of person admitting",75.0,1
"'111001'","'12/17/00 12/23/00'","Std Admission",100.0,1
"'111001'","'12/17/00 12/23/00'","Admission",100.0,1
"'111001'","'12/17/00 12/23/00'","Speed of admission",100.0,1
"'412401'","'12/17/00 12/23/00'","Std Admission",91.7,1
"'412401'","'12/17/00 12/23/00'","Admission",95.0,1
"'412401'","'12/17/00 12/23/00'","Speed of admission",100.0,1
"'412401'","'12/17/00 12/23/00'","Courtesy of person admitting",75.0,1
"'412401'","'12/17/00 12/23/00'","Pre-admission process*",100.0,1
"'412401'","'12/17/00 12/23/00'","Time wait until given room*",100.0,1
"'412401'","'12/17/00 12/23/00'","Billing/insurance questions handled*",100.0,1
"'410901'","'12/17/00 12/23/00'","Std Admission",100.0,1
"'410901'","'12/17/00 12/23/00'","Admission",100.0,1
"'410901'","'12/17/00 12/23/00'","Speed of admission",100.0,1
"'611901'","'12/17/00 12/23/00'","Std Admission",75.0,1
"'611901'","'12/17/00 12/23/00'","Admission",75.0,1
"'611901'","'12/17/00 12/23/00'","Speed of admission",75.0,1
"'611901'","'12/17/00 12/23/00'","Courtesy of person admitting",75.0,1
"'612001'","'12/17/00 12/23/00'","Std Admission",100.0,1
"'612001'","'12/17/00 12/23/00'","Admission",93.8,1
"'612001'","'12/17/00 12/23/00'","Speed of admission",100.0,1
"'612001'","'12/17/00 12/23/00'","Courtesy of person admitting",100.0,1
"'612001'","'12/17/00 12/23/00'","Pre-admission process*",100.0,1
"'612001'","'12/17/00 12/23/00'","Billing/insurance questions handled*",75.0,1
"'611301'","'12/17/00 12/23/00'","Std Admission",75.0,1
"'611301'","'12/17/00 12/23/00'","Admission",81.3,1
"'611301'","'12/17/00 12/23/00'","Speed of admission",75.0,1
"'611301'","'12/17/00 12/23/00'","Courtesy of person admitting",75.0,1
"'611301'","'12/17/00 12/23/00'","Pre-admission process*",75.0,1
"'611301'","'12/17/00 12/23/00'","Billing/insurance questions handled*",100.0,1
"'Total'","'12/17/00 12/23/00'","Std Admission",84.0,18
"'Total'","'12/17/00 12/23/00'","Admission",81.2,18
"'Total'","'12/17/00 12/23/00'","Speed of admission",83.8,17
"'Total'","'12/17/00 12/23/00'","Courtesy of person admitting",82.8,16
"'Total'","'12/17/00 12/23/00'","Pre-admission process*",87.5,10
"'Total'","'12/17/00 12/23/00'","Time wait until given room*",61.4,11
"'Total'","'12/17/00 12/23/00'","Billing/insurance questions handled*",80.0,10
"'212501'","'12/24/00 12/30/00'","Std Admission",100.0,1
"'212501'","'12/24/00 12/30/00'","Admission",100.0,1
"'212501'","'12/24/00 12/30/00'","Speed of admission",100.0,1
"'212501'","'12/24/00 12/30/00'","Courtesy of person admitting",100.0,1
"'212501'","'12/24/00 12/30/00'","Pre-admission process*",100.0,1
"'212501'","'12/24/00 12/30/00'","Time wait until given room*",100.0,1
"'212501'","'12/24/00 12/30/00'","Billing/insurance questions handled*",100.0,1
"'410802'","'12/24/00 12/30/00'","Std Admission",8.3,1
"'410802'","'12/24/00 12/30/00'","Admission",15.0,1
"'410802'","'12/24/00 12/30/00'","Speed of admission",0.0,1
"'410802'","'12/24/00 12/30/00'","Courtesy of person admitting",25.0,1
"'410802'","'12/24/00 12/30/00'","Pre-admission process*",0.0,1
"'410802'","'12/24/00 12/30/00'","Time wait until given room*",0.0,1
"'410802'","'12/24/00 12/30/00'","Billing/insurance questions handled*",50.0,1
"'210704'","'12/24/00 12/30/00'","Std Admission",100.0,1
"'210704'","'12/24/00 12/30/00'","Admission",100.0,1
"'210704'","'12/24/00 12/30/00'","Speed of admission",100.0,1
"'210704'","'12/24/00 12/30/00'","Pre-admission process*",100.0,1
"'613601'","'12/24/00 12/30/00'","Std Admission",75.0,1
"'613601'","'12/24/00 12/30/00'","Admission",75.0,1
"'613601'","'12/24/00 12/30/00'","Speed of admission",75.0,1
"'613601'","'12/24/00 12/30/00'","Courtesy of person admitting",75.0,1
"'613601'","'12/24/00 12/30/00'","Pre-admission process*",75.0,1
"'613601'","'12/24/00 12/30/00'","Time wait until given room*",75.0,1
"'211301'","'12/24/00 12/30/00'","Std Admission",75.0,1
"'211301'","'12/24/00 12/30/00'","Admission",75.0,1
"'211301'","'12/24/00 12/30/00'","Speed of admission",75.0,1
"'211301'","'12/24/00 12/30/00'","Courtesy of person admitting",75.0,1
"'211301'","'12/24/00 12/30/00'","Pre-admission process*",75.0,1
"'211301'","'12/24/00 12/30/00'","Time wait until given room*",75.0,1
"'211801'","'12/24/00 12/30/00'","Std Admission",75.0,1
"'211801'","'12/24/00 12/30/00'","Admission",80.0,1
"'211801'","'12/24/00 12/30/00'","Speed of admission",75.0,1
"'211801'","'12/24/00 12/30/00'","Courtesy of person admitting",75.0,1
"'211801'","'12/24/00 12/30/00'","Pre-admission process*",75.0,1
"'211801'","'12/24/00 12/30/00'","Time wait until given room*",100.0,1
"'211801'","'12/24/00 12/30/00'","Billing/insurance questions handled*",75.0,1
"'322401'","'12/24/00 12/30/00'","Std Admission",75.0,1
"'322401'","'12/24/00 12/30/00'","Admission",87.5,1
"'322401'","'12/24/00 12/30/00'","Speed of admission",50.0,1
"'322401'","'12/24/00 12/30/00'","Courtesy of person admitting",100.0,1
"'322401'","'12/24/00 12/30/00'","Time wait until given room*",100.0,1
"'322401'","'12/24/00 12/30/00'","Billing/insurance questions handled*",100.0,1
"'211901'","'12/24/00 12/30/00'","Std Admission",75.0,1
"'211901'","'12/24/00 12/30/00'","Admission",68.8,1
"'211901'","'12/24/00 12/30/00'","Speed of admission",75.0,1
"'211901'","'12/24/00 12/30/00'","Courtesy of person admitting",75.0,1
"'211901'","'12/24/00 12/30/00'","Time wait until given room*",75.0,1
"'211901'","'12/24/00 12/30/00'","Billing/insurance questions handled*",50.0,1
"'612101'","'12/24/00 12/30/00'","Std Admission",83.3,1
"'612101'","'12/24/00 12/30/00'","Admission",81.3,1
"'612101'","'12/24/00 12/30/00'","Speed of admission",75.0,1
"'612101'","'12/24/00 12/30/00'","Courtesy of person admitting",100.0,1
"'612101'","'12/24/00 12/30/00'","Pre-admission process*",75.0,1
"'612101'","'12/24/00 12/30/00'","Billing/insurance questions handled*",75.0,1
"'Total'","'12/24/00 12/30/00'","Std Admission",74.1,9
"'Total'","'12/24/00 12/30/00'","Admission",75.8,9
"'Total'","'12/24/00 12/30/00'","Speed of admission",69.4,9
"'Total'","'12/24/00 12/30/00'","Courtesy of person admitting",78.1,8
"'Total'","'12/24/00 12/30/00'","Pre-admission process*",71.4,7
"'Total'","'12/24/00 12/30/00'","Time wait until given room*",75.0,7
"'Total'","'12/24/00 12/30/00'","Billing/insurance questions handled*",75.0,6
"'414001'","'12/31/00 1/6/01'","Std Admission",37.5,1
"'414001'","'12/31/00 1/6/01'","Admission",25.0,1
"'414001'","'12/31/00 1/6/01'","Speed of admission",0.0,1
"'414001'","'12/31/00 1/6/01'","Courtesy of person admitting",75.0,1
"'414001'","'12/31/00 1/6/01'","Time wait until given room*",0.0,1
"'612201'","'12/31/00 1/6/01'","Std Admission",100.0,1
"'612201'","'12/31/00 1/6/01'","Admission",100.0,1
"'612201'","'12/31/00 1/6/01'","Speed of admission",100.0,1
"'612201'","'12/31/00 1/6/01'","Courtesy of person admitting",100.0,1
"'612201'","'12/31/00 1/6/01'","Pre-admission process*",100.0,1
"'612201'","'12/31/00 1/6/01'","Billing/insurance questions handled*",100.0,1
"'Total'","'12/31/00 1/6/01'","Std Admission",68.8,2
"'Total'","'12/31/00 1/6/01'","Admission",62.5,2
"'Total'","'12/31/00 1/6/01'","Speed of admission",50.0,2
"'Total'","'12/31/00 1/6/01'","Courtesy of person admitting",87.5,2
"'Total'","'12/31/00 1/6/01'","Pre-admission process*",100.0,1
"'Total'","'12/31/00 1/6/01'","Time wait until given room*",0.0,1
"'Total'","'12/31/00 1/6/01'","Billing/insurance questions handled*",100.0,1
"'610201'","'Total'","Std Admission",100.0,1
"'610201'","'Total'","Admission",100.0,1
"'610201'","'Total'","Speed of admission",100.0,1
"'610201'","'Total'","Courtesy of person admitting",100.0,1
"'610201'","'Total'","Pre-admission process*",100.0,1
"'111201'","'Total'","Std Admission",87.5,2
"'111201'","'Total'","Admission",90.0,2
"'111201'","'Total'","Speed of admission",87.5,2
"'111201'","'Total'","Courtesy of person admitting",87.5,2
"'111201'","'Total'","Pre-admission process*",75.0,1
"'111201'","'Total'","Time wait until given room*",100.0,1
"'111201'","'Total'","Billing/insurance questions handled*",75.0,1
"'211001'","'Total'","Std Admission",79.2,2
"'211001'","'Total'","Admission",82.5,2
"'211001'","'Total'","Speed of admission",87.5,2
"'211001'","'Total'","Courtesy of person admitting",87.5,2
"'211001'","'Total'","Pre-admission process*",62.5,2
"'211001'","'Total'","Time wait until given room*",100.0,1
"'211001'","'Total'","Billing/insurance questions handled*",100.0,1
"'410101'","'Total'","Std Admission",81.3,2
"'410101'","'Total'","Admission",81.3,2
"'410101'","'Total'","Speed of admission",75.0,2
"'410101'","'Total'","Courtesy of person admitting",87.5,2
"'410101'","'Total'","Pre-admission process*",100.0,1
"'410101'","'Total'","Time wait until given room*",100.0,1
"'410101'","'Total'","Billing/insurance questions handled*",100.0,1
"'513001'","'Total'","Std Admission",50.0,1
"'513001'","'Total'","Admission",50.0,1
"'513001'","'Total'","Speed of admission",25.0,1
"'513001'","'Total'","Courtesy of person admitting",75.0,1
"'513001'","'Total'","Pre-admission process*",50.0,1
"'621401'","'Total'","Std Admission",100.0,1
"'621401'","'Total'","Admission",100.0,1
"'621401'","'Total'","Speed of admission",100.0,1
"'621401'","'Total'","Courtesy of person admitting",100.0,1
"'621401'","'Total'","Pre-admission process*",100.0,1
"'410201'","'Total'","Std Admission",50.0,1
"'410201'","'Total'","Admission",50.0,1
"'410201'","'Total'","Speed of admission",25.0,1
"'410201'","'Total'","Courtesy of person admitting",75.0,1
"'413401'","'Total'","Std Admission",55.6,3
"'413401'","'Total'","Admission",57.2,3
"'413401'","'Total'","Speed of admission",41.7,3
"'413401'","'Total'","Courtesy of person admitting",66.7,3
"'413401'","'Total'","Pre-admission process*",58.3,3
"'413401'","'Total'","Time wait until given room*",75.0,2
"'413401'","'Total'","Billing/insurance questions handled*",62.5,2
"'410701'","'Total'","Std Admission",75.0,1
"'410701'","'Total'","Admission",75.0,1
"'410701'","'Total'","Speed of admission",75.0,1
"'410701'","'Total'","Courtesy of person admitting",75.0,1
"'410701'","'Total'","Pre-admission process*",75.0,1
"'712501'","'Total'","Std Admission",50.0,1
"'712501'","'Total'","Admission",33.3,1
"'712501'","'Total'","Courtesy of person admitting",25.0,1
"'712501'","'Total'","Pre-admission process*",75.0,1
"'712501'","'Total'","Billing/insurance questions handled*",0.0,1
"'511101'","'Total'","Std Admission",91.7,2
"'511101'","'Total'","Admission",92.5,2
"'511101'","'Total'","Speed of admission",87.5,2
"'511101'","'Total'","Courtesy of person admitting",100.0,2
"'511101'","'Total'","Pre-admission process*",87.5,2
"'511101'","'Total'","Time wait until given room*",87.5,2
"'511101'","'Total'","Billing/insurance questions handled*",100.0,2
"'210201'","'Total'","Std Admission",80.6,3
"'210201'","'Total'","Admission",83.3,3
"'210201'","'Total'","Speed of admission",87.5,2
"'210201'","'Total'","Courtesy of person admitting",83.3,3
"'210201'","'Total'","Pre-admission process*",75.0,2
"'210201'","'Total'","Time wait until given room*",100.0,2
"'210201'","'Total'","Billing/insurance questions handled*",83.3,3
"'313701'","'Total'","Std Admission",66.7,1
"'313701'","'Total'","Admission",68.8,1
"'313701'","'Total'","Speed of admission",75.0,1
"'313701'","'Total'","Courtesy of person admitting",75.0,1
"'313701'","'Total'","Pre-admission process*",50.0,1
"'313701'","'Total'","Time wait until given room*",75.0,1
"'110401'","'Total'","Std Admission",100.0,1
"'110401'","'Total'","Admission",100.0,1
"'110401'","'Total'","Speed of admission",100.0,1
"'110401'","'Total'","Courtesy of person admitting",100.0,1
"'110401'","'Total'","Pre-admission process*",100.0,1
"'110401'","'Total'","Time wait until given room*",100.0,1
"'110401'","'Total'","Billing/insurance questions handled*",100.0,1
"'614101'","'Total'","Std Admission",83.3,1
"'614101'","'Total'","Admission",90.0,1
"'614101'","'Total'","Speed of admission",50.0,1
"'614101'","'Total'","Courtesy of person admitting",100.0,1
"'614101'","'Total'","Pre-admission process*",100.0,1
"'614101'","'Total'","Time wait until given room*",100.0,1
"'614101'","'Total'","Billing/insurance questions handled*",100.0,1
"'412801'","'Total'","Std Admission",75.0,1
"'412801'","'Total'","Admission",70.0,1
"'412801'","'Total'","Speed of admission",75.0,1
"'412801'","'Total'","Courtesy of person admitting",75.0,1
"'412801'","'Total'","Pre-admission process*",75.0,1
"'412801'","'Total'","Time wait until given room*",50.0,1
"'412801'","'Total'","Billing/insurance questions handled*",75.0,1
"'313001'","'Total'","Std Admission",75.0,1
"'313001'","'Total'","Admission",70.0,1
"'313001'","'Total'","Speed of admission",50.0,1
"'313001'","'Total'","Courtesy of person admitting",100.0,1
"'313001'","'Total'","Pre-admission process*",75.0,1
"'313001'","'Total'","Time wait until given room*",25.0,1
"'313001'","'Total'","Billing/insurance questions handled*",100.0,1
"'621301'","'Total'","Std Admission",16.7,1
"'621301'","'Total'","Admission",25.0,1
"'621301'","'Total'","Speed of admission",0.0,1
"'621301'","'Total'","Courtesy of person admitting",50.0,1
"'621301'","'Total'","Pre-admission process*",0.0,1
"'621301'","'Total'","Time wait until given room*",25.0,1
"'621301'","'Total'","Billing/insurance questions handled*",50.0,1
"'314101'","'Total'","Std Admission",73.6,3
"'314101'","'Total'","Admission",65.0,3
"'314101'","'Total'","Speed of admission",58.3,3
"'314101'","'Total'","Courtesy of person admitting",75.0,2
"'314101'","'Total'","Pre-admission process*",100.0,2
"'314101'","'Total'","Time wait until given room*",41.7,3
"'314101'","'Total'","Billing/insurance questions handled*",66.7,3
"'311001'","'Total'","Std Admission",50.0,1
"'311001'","'Total'","Admission",50.0,1
"'311001'","'Total'","Speed of admission",50.0,1
"'311001'","'Total'","Courtesy of person admitting",50.0,1
"'311001'","'Total'","Pre-admission process*",50.0,1
"'311001'","'Total'","Time wait until given room*",50.0,1
"'311001'","'Total'","Billing/insurance questions handled*",50.0,1
"'210401'","'Total'","Std Admission",75.0,1
"'210401'","'Total'","Admission",70.0,1
"'210401'","'Total'","Speed of admission",75.0,1
"'210401'","'Total'","Courtesy of person admitting",75.0,1
"'210401'","'Total'","Pre-admission process*",75.0,1
"'210401'","'Total'","Time wait until given room*",75.0,1
"'210401'","'Total'","Billing/insurance questions handled*",50.0,1
"'212501'","'Total'","Std Admission",87.5,3
"'212501'","'Total'","Admission",87.5,3
"'212501'","'Total'","Speed of admission",83.3,3
"'212501'","'Total'","Courtesy of person admitting",91.7,3
"'212501'","'Total'","Pre-admission process*",87.5,2
"'212501'","'Total'","Time wait until given room*",83.3,3
"'212501'","'Total'","Billing/insurance questions handled*",91.7,3
"'410301'","'Total'","Std Admission",83.3,1
"'410301'","'Total'","Admission",90.0,1
"'410301'","'Total'","Speed of admission",100.0,1
"'410301'","'Total'","Courtesy of person admitting",75.0,1
"'410301'","'Total'","Pre-admission process*",75.0,1
"'410301'","'Total'","Time wait until given room*",100.0,1
"'410301'","'Total'","Billing/insurance questions handled*",100.0,1
"'613001'","'Total'","Std Admission",91.7,2
"'613001'","'Total'","Admission",85.0,2
"'613001'","'Total'","Speed of admission",87.5,2
"'613001'","'Total'","Courtesy of person admitting",100.0,2
"'613001'","'Total'","Pre-admission process*",87.5,2
"'613001'","'Total'","Time wait until given room*",75.0,2
"'613001'","'Total'","Billing/insurance questions handled*",75.0,2
"'210501'","'Total'","Std Admission",75.0,1
"'210501'","'Total'","Admission",70.0,1
"'210501'","'Total'","Speed of admission",75.0,1
"'210501'","'Total'","Courtesy of person admitting",75.0,1
"'210501'","'Total'","Pre-admission process*",75.0,1
"'210501'","'Total'","Time wait until given room*",50.0,1
"'210501'","'Total'","Billing/insurance questions handled*",75.0,1
"'110301'","'Total'","Std Admission",33.3,1
"'110301'","'Total'","Admission",30.0,1
"'110301'","'Total'","Speed of admission",0.0,1
"'110301'","'Total'","Courtesy of person admitting",75.0,1
"'110301'","'Total'","Pre-admission process*",25.0,1
"'110301'","'Total'","Time wait until given room*",0.0,1
"'110301'","'Total'","Billing/insurance questions handled*",50.0,1
"'213301'","'Total'","Std Admission",87.5,2
"'213301'","'Total'","Admission",82.5,2
"'213301'","'Total'","Speed of admission",87.5,2
"'213301'","'Total'","Courtesy of person admitting",87.5,2
"'213301'","'Total'","Pre-admission process*",87.5,2
"'213301'","'Total'","Time wait until given room*",75.0,2
"'213301'","'Total'","Billing/insurance questions handled*",75.0,2
"'115001'","'Total'","Std Admission",66.7,1
"'115001'","'Total'","Admission",70.0,1
"'115001'","'Total'","Speed of admission",50.0,1
"'115001'","'Total'","Courtesy of person admitting",75.0,1
"'115001'","'Total'","Pre-admission process*",75.0,1
"'115001'","'Total'","Time wait until given room*",75.0,1
"'115001'","'Total'","Billing/insurance questions handled*",75.0,1
"'312701'","'Total'","Std Admission",75.0,1
"'312701'","'Total'","Admission",56.3,1
"'312701'","'Total'","Speed of admission",50.0,1
"'312701'","'Total'","Courtesy of person admitting",100.0,1
"'312701'","'Total'","Pre-admission process*",75.0,1
"'312701'","'Total'","Time wait until given room*",0.0,1
"'614301'","'Total'","Std Admission",75.0,1
"'614301'","'Total'","Admission",60.0,1
"'614301'","'Total'","Speed of admission",75.0,1
"'614301'","'Total'","Courtesy of person admitting",75.0,1
"'614301'","'Total'","Pre-admission process*",75.0,1
"'614301'","'Total'","Time wait until given room*",0.0,1
"'614301'","'Total'","Billing/insurance questions handled*",75.0,1
"'411101'","'Total'","Std Admission",100.0,1
"'411101'","'Total'","Admission",85.0,1
"'411101'","'Total'","Speed of admission",100.0,1
"'411101'","'Total'","Courtesy of person admitting",100.0,1
"'411101'","'Total'","Pre-admission process*",100.0,1
"'411101'","'Total'","Time wait until given room*",75.0,1
"'411101'","'Total'","Billing/insurance questions handled*",50.0,1
"'213401'","'Total'","Std Admission",75.0,1
"'213401'","'Total'","Admission",85.0,1
"'213401'","'Total'","Speed of admission",75.0,1
"'213401'","'Total'","Courtesy of person admitting",75.0,1
"'213401'","'Total'","Pre-admission process*",75.0,1
"'213401'","'Total'","Time wait until given room*",100.0,1
"'213401'","'Total'","Billing/insurance questions handled*",100.0,1
"'412101'","'Total'","Std Admission",75.0,1
"'412101'","'Total'","Admission",80.0,1
"'412101'","'Total'","Speed of admission",75.0,1
"'412101'","'Total'","Courtesy of person admitting",75.0,1
"'412101'","'Total'","Pre-admission process*",75.0,1
"'412101'","'Total'","Time wait until given room*",100.0,1
"'412101'","'Total'","Billing/insurance questions handled*",75.0,1
"'114701'","'Total'","Std Admission",100.0,2
"'114701'","'Total'","Admission",100.0,2
"'114701'","'Total'","Speed of admission",100.0,2
"'114701'","'Total'","Courtesy of person admitting",100.0,1
"'114701'","'Total'","Pre-admission process*",100.0,1
"'114701'","'Total'","Time wait until given room*",100.0,1
"'213101'","'Total'","Std Admission",100.0,1
"'213101'","'Total'","Admission",100.0,1
"'213101'","'Total'","Speed of admission",100.0,1
"'213101'","'Total'","Courtesy of person admitting",100.0,1
"'213101'","'Total'","Pre-admission process*",100.0,1
"'213101'","'Total'","Time wait until given room*",100.0,1
"'213101'","'Total'","Billing/insurance questions handled*",100.0,1
"'411401'","'Total'","Std Admission",87.5,1
"'411401'","'Total'","Admission",83.3,1
"'411401'","'Total'","Speed of admission",75.0,1
"'411401'","'Total'","Courtesy of person admitting",100.0,1
"'411401'","'Total'","Time wait until given room*",75.0,1
"'211701'","'Total'","Std Admission",100.0,1
"'211701'","'Total'","Admission",91.7,1
"'211701'","'Total'","Speed of admission",100.0,1
"'211701'","'Total'","Courtesy of person admitting",100.0,1
"'211701'","'Total'","Billing/insurance questions handled*",75.0,1
"'710401'","'Total'","Std Admission",66.7,1
"'710401'","'Total'","Admission",70.0,1
"'710401'","'Total'","Speed of admission",50.0,1
"'710401'","'Total'","Courtesy of person admitting",75.0,1
"'710401'","'Total'","Pre-admission process*",75.0,1
"'710401'","'Total'","Time wait until given room*",75.0,1
"'710401'","'Total'","Billing/insurance questions handled*",75.0,1
"'110801'","'Total'","Std Admission",50.0,1
"'110801'","'Total'","Admission",65.0,1
"'110801'","'Total'","Speed of admission",50.0,1
"'110801'","'Total'","Courtesy of person admitting",50.0,1
"'110801'","'Total'","Pre-admission process*",50.0,1
"'110801'","'Total'","Time wait until given room*",75.0,1
"'110801'","'Total'","Billing/insurance questions handled*",100.0,1
"'712901'","'Total'","Std Admission",75.0,1
"'712901'","'Total'","Admission",75.0,1
"'712901'","'Total'","Speed of admission",75.0,1
"'712901'","'Total'","Courtesy of person admitting",75.0,1
"'712901'","'Total'","Pre-admission process*",75.0,1
"'712901'","'Total'","Billing/insurance questions handled*",75.0,1
"'212901'","'Total'","Std Admission",75.0,1
"'212901'","'Total'","Admission",75.0,1
"'212901'","'Total'","Pre-admission process*",75.0,1
"'312601'","'Total'","Std Admission",83.3,1
"'312601'","'Total'","Admission",85.0,1
"'312601'","'Total'","Speed of admission",75.0,1
"'312601'","'Total'","Courtesy of person admitting",75.0,1
"'312601'","'Total'","Pre-admission process*",100.0,1
"'312601'","'Total'","Time wait until given room*",100.0,1
"'312601'","'Total'","Billing/insurance questions handled*",75.0,1
"'313501'","'Total'","Std Admission",66.7,2
"'313501'","'Total'","Admission",60.0,2
"'313501'","'Total'","Speed of admission",62.5,2
"'313501'","'Total'","Courtesy of person admitting",87.5,2
"'313501'","'Total'","Pre-admission process*",50.0,2
"'313501'","'Total'","Time wait until given room*",25.0,2
"'313501'","'Total'","Billing/insurance questions handled*",75.0,2
"'213801'","'Total'","Std Admission",58.3,1
"'213801'","'Total'","Admission",45.0,1
"'213801'","'Total'","Speed of admission",50.0,1
"'213801'","'Total'","Courtesy of person admitting",75.0,1
"'213801'","'Total'","Pre-admission process*",50.0,1
"'213801'","'Total'","Time wait until given room*",25.0,1
"'213801'","'Total'","Billing/insurance questions handled*",25.0,1
"'713201'","'Total'","Std Admission",66.7,1
"'713201'","'Total'","Admission",68.8,1
"'713201'","'Total'","Speed of admission",75.0,1
"'713201'","'Total'","Courtesy of person admitting",75.0,1
"'713201'","'Total'","Pre-admission process*",50.0,1
"'713201'","'Total'","Time wait until given room*",75.0,1
"'311201'","'Total'","Std Admission",8.3,1
"'311201'","'Total'","Admission",18.8,1
"'311201'","'Total'","Speed of admission",25.0,1
"'311201'","'Total'","Courtesy of person admitting",0.0,1
"'311201'","'Total'","Pre-admission process*",0.0,1
"'311201'","'Total'","Billing/insurance questions handled*",50.0,1
"'310401'","'Total'","Std Admission",58.3,1
"'310401'","'Total'","Admission",45.0,1
"'310401'","'Total'","Speed of admission",25.0,1
"'310401'","'Total'","Courtesy of person admitting",75.0,1
"'310401'","'Total'","Pre-admission process*",75.0,1
"'310401'","'Total'","Time wait until given room*",0.0,1
"'310401'","'Total'","Billing/insurance questions handled*",50.0,1
"'311801'","'Total'","Std Admission",75.0,1
"'311801'","'Total'","Admission",75.0,1
"'311801'","'Total'","Speed of admission",75.0,1
"'311801'","'Total'","Courtesy of person admitting",75.0,1
"'311801'","'Total'","Pre-admission process*",75.0,1
"'311801'","'Total'","Time wait until given room*",50.0,1
"'311801'","'Total'","Billing/insurance questions handled*",100.0,1
"'210301'","'Total'","Std Admission",100.0,1
"'210301'","'Total'","Admission",100.0,1
"'210301'","'Total'","Speed of admission",100.0,1
"'210301'","'Total'","Courtesy of person admitting",100.0,1
"'210301'","'Total'","Pre-admission process*",100.0,1
"'210301'","'Total'","Time wait until given room*",100.0,1
"'711801'","'Total'","Std Admission",75.0,1
"'711801'","'Total'","Admission",66.7,1
"'711801'","'Total'","Speed of admission",50.0,1
"'711801'","'Total'","Courtesy of person admitting",100.0,1
"'711801'","'Total'","Time wait until given room*",50.0,1
"'511701'","'Total'","Std Admission",50.0,1
"'511701'","'Total'","Admission",50.0,1
"'511701'","'Total'","Speed of admission",25.0,1
"'511701'","'Total'","Courtesy of person admitting",75.0,1
"'511701'","'Total'","Pre-admission process*",50.0,1
"'511701'","'Total'","Time wait until given room*",25.0,1
"'511701'","'Total'","Billing/insurance questions handled*",75.0,1
"'412201'","'Total'","Std Admission",75.0,1
"'412201'","'Total'","Admission",75.0,1
"'412201'","'Total'","Speed of admission",75.0,1
"'412201'","'Total'","Courtesy of person admitting",75.0,1
"'412201'","'Total'","Time wait until given room*",75.0,1
"'412201'","'Total'","Billing/insurance questions handled*",75.0,1
"'411301'","'Total'","Std Admission",100.0,1
"'411301'","'Total'","Admission",100.0,1
"'411301'","'Total'","Speed of admission",100.0,1
"'312401'","'Total'","Std Admission",-,0
"'312401'","'Total'","Admission",75.0,1
"'312401'","'Total'","Time wait until given room*",75.0,1
"'312401'","'Total'","Billing/insurance questions handled*",75.0,1
"'614201'","'Total'","Std Admission",87.5,2
"'614201'","'Total'","Admission",78.1,2
"'614201'","'Total'","Speed of admission",87.5,2
"'614201'","'Total'","Courtesy of person admitting",87.5,2
"'614201'","'Total'","Pre-admission process*",87.5,2
"'614201'","'Total'","Time wait until given room*",25.0,1
"'411801'","'Total'","Std Admission",37.5,1
"'411801'","'Total'","Admission",25.0,1
"'411801'","'Total'","Speed of admission",0.0,1
"'411801'","'Total'","Courtesy of person admitting",75.0,1
"'411801'","'Total'","Time wait until given room*",0.0,1
"'621601'","'Total'","Std Admission",50.0,1
"'621601'","'Total'","Admission",45.0,1
"'621601'","'Total'","Speed of admission",50.0,1
"'621601'","'Total'","Courtesy of person admitting",50.0,1
"'621601'","'Total'","Pre-admission process*",50.0,1
"'621601'","'Total'","Time wait until given room*",25.0,1
"'621601'","'Total'","Billing/insurance questions handled*",50.0,1
"'711301'","'Total'","Std Admission",83.3,1
"'711301'","'Total'","Admission",80.0,1
"'711301'","'Total'","Speed of admission",75.0,1
"'711301'","'Total'","Courtesy of person admitting",100.0,1
"'711301'","'Total'","Pre-admission process*",75.0,1
"'711301'","'Total'","Time wait until given room*",75.0,1
"'711301'","'Total'","Billing/insurance questions handled*",75.0,1
"'712101'","'Total'","Std Admission",100.0,1
"'712101'","'Total'","Admission",50.0,1
"'712101'","'Total'","Pre-admission process*",100.0,1
"'712101'","'Total'","Time wait until given room*",0.0,1
"'413801'","'Total'","Std Admission",62.5,1
"'413801'","'Total'","Admission",58.3,1
"'413801'","'Total'","Speed of admission",75.0,1
"'413801'","'Total'","Courtesy of person admitting",50.0,1
"'413801'","'Total'","Billing/insurance questions handled*",50.0,1
"'613901'","'Total'","Std Admission",75.0,1
"'613901'","'Total'","Admission",70.0,1
"'613901'","'Total'","Speed of admission",50.0,1
"'613901'","'Total'","Courtesy of person admitting",100.0,1
"'613901'","'Total'","Pre-admission process*",75.0,1
"'613901'","'Total'","Time wait until given room*",50.0,1
"'613901'","'Total'","Billing/insurance questions handled*",75.0,1
"'413701'","'Total'","Std Admission",75.0,1
"'413701'","'Total'","Admission",75.0,1
"'413701'","'Total'","Speed of admission",75.0,1
"'413701'","'Total'","Courtesy of person admitting",75.0,1
"'413701'","'Total'","Pre-admission process*",75.0,1
"'413701'","'Total'","Time wait until given room*",75.0,1
"'413701'","'Total'","Billing/insurance questions handled*",75.0,1
"'312001'","'Total'","Std Admission",75.0,1
"'312001'","'Total'","Admission",65.0,1
"'312001'","'Total'","Speed of admission",75.0,1
"'312001'","'Total'","Courtesy of person admitting",75.0,1
"'312001'","'Total'","Pre-admission process*",75.0,1
"'312001'","'Total'","Time wait until given room*",25.0,1
"'312001'","'Total'","Billing/insurance questions handled*",75.0,1
"'312501'","'Total'","Std Admission",87.5,1
"'312501'","'Total'","Admission",83.3,1
"'312501'","'Total'","Speed of admission",75.0,1
"'312501'","'Total'","Courtesy of person admitting",100.0,1
"'312501'","'Total'","Time wait until given room*",75.0,1
"'710301'","'Total'","Std Admission",50.0,1
"'710301'","'Total'","Admission",50.0,1
"'710301'","'Total'","Speed of admission",50.0,1
"'710301'","'Total'","Courtesy of person admitting",50.0,1
"'710301'","'Total'","Time wait until given room*",50.0,1
"'710301'","'Total'","Billing/insurance questions handled*",50.0,1
"'410802'","'Total'","Std Admission",8.3,1
"'410802'","'Total'","Admission",15.0,1
"'410802'","'Total'","Speed of admission",0.0,1
"'410802'","'Total'","Courtesy of person admitting",25.0,1
"'410802'","'Total'","Pre-admission process*",0.0,1
"'410802'","'Total'","Time wait until given room*",0.0,1
"'410802'","'Total'","Billing/insurance questions handled*",50.0,1
"'313901'","'Total'","Std Admission",62.5,1
"'313901'","'Total'","Admission",62.5,1
"'313901'","'Total'","Speed of admission",50.0,1
"'313901'","'Total'","Courtesy of person admitting",75.0,1
"'313901'","'Total'","Time wait until given room*",50.0,1
"'313901'","'Total'","Billing/insurance questions handled*",75.0,1
"'310301'","'Total'","Std Admission",83.3,1
"'310301'","'Total'","Admission",68.8,1
"'310301'","'Total'","Speed of admission",75.0,1
"'310301'","'Total'","Courtesy of person admitting",100.0,1
"'310301'","'Total'","Pre-admission process*",75.0,1
"'310301'","'Total'","Time wait until given room*",25.0,1
"'212801'","'Total'","Std Admission",100.0,1
"'212801'","'Total'","Admission",100.0,1
"'212801'","'Total'","Speed of admission",100.0,1
"'212801'","'Total'","Courtesy of person admitting",100.0,1
"'212801'","'Total'","Time wait until given room*",100.0,1
"'210704'","'Total'","Std Admission",100.0,1
"'210704'","'Total'","Admission",100.0,1
"'210704'","'Total'","Speed of admission",100.0,1
"'210704'","'Total'","Pre-admission process*",100.0,1
"'613601'","'Total'","Std Admission",75.0,1
"'613601'","'Total'","Admission",75.0,1
"'613601'","'Total'","Speed of admission",75.0,1
"'613601'","'Total'","Courtesy of person admitting",75.0,1
"'613601'","'Total'","Pre-admission process*",75.0,1
"'613601'","'Total'","Time wait until given room*",75.0,1
"'211301'","'Total'","Std Admission",75.0,1
"'211301'","'Total'","Admission",75.0,1
"'211301'","'Total'","Speed of admission",75.0,1
"'211301'","'Total'","Courtesy of person admitting",75.0,1
"'211301'","'Total'","Pre-admission process*",75.0,1
"'211301'","'Total'","Time wait until given room*",75.0,1
"'610101'","'Total'","Std Admission",100.0,1
"'610101'","'Total'","Admission",100.0,1
"'610101'","'Total'","Speed of admission",100.0,1
"'610101'","'Total'","Courtesy of person admitting",100.0,1
"'610101'","'Total'","Pre-admission process*",100.0,1
"'610101'","'Total'","Time wait until given room*",100.0,1
"'610101'","'Total'","Billing/insurance questions handled*",100.0,1
"'413201'","'Total'","Std Admission",91.7,1
"'413201'","'Total'","Admission",93.8,1
"'413201'","'Total'","Speed of admission",100.0,1
"'413201'","'Total'","Courtesy of person admitting",100.0,1
"'413201'","'Total'","Pre-admission process*",75.0,1
"'413201'","'Total'","Time wait until given room*",100.0,1
"'613801'","'Total'","Std Admission",75.0,1
"'613801'","'Total'","Admission",75.0,1
"'613801'","'Total'","Speed of admission",75.0,1
"'613801'","'Total'","Courtesy of person admitting",75.0,1
"'322901'","'Total'","Std Admission",91.7,1
"'322901'","'Total'","Admission",85.0,1
"'322901'","'Total'","Speed of admission",100.0,1
"'322901'","'Total'","Courtesy of person admitting",75.0,1
"'322901'","'Total'","Pre-admission process*",100.0,1
"'322901'","'Total'","Time wait until given room*",100.0,1
"'322901'","'Total'","Billing/insurance questions handled*",50.0,1
"'313801'","'Total'","Std Admission",50.0,1
"'313801'","'Total'","Admission",37.5,1
"'313801'","'Total'","Speed of admission",25.0,1
"'313801'","'Total'","Courtesy of person admitting",75.0,1
"'313801'","'Total'","Time wait until given room*",0.0,1
"'313801'","'Total'","Billing/insurance questions handled*",50.0,1
"'713601'","'Total'","Std Admission",83.3,1
"'713601'","'Total'","Admission",70.0,1
"'713601'","'Total'","Speed of admission",75.0,1
"'713601'","'Total'","Courtesy of person admitting",100.0,1
"'713601'","'Total'","Pre-admission process*",75.0,1
"'713601'","'Total'","Time wait until given room*",0.0,1
"'713601'","'Total'","Billing/insurance questions handled*",100.0,1
"'111001'","'Total'","Std Admission",100.0,1
"'111001'","'Total'","Admission",100.0,1
"'111001'","'Total'","Speed of admission",100.0,1
"'211801'","'Total'","Std Admission",75.0,1
"'211801'","'Total'","Admission",80.0,1
"'211801'","'Total'","Speed of admission",75.0,1
"'211801'","'Total'","Courtesy of person admitting",75.0,1
"'211801'","'Total'","Pre-admission process*",75.0,1
"'211801'","'Total'","Time wait until given room*",100.0,1
"'211801'","'Total'","Billing/insurance questions handled*",75.0,1
"'515001'","'Total'","Std Admission",-,0
"'515001'","'Total'","Admission",50.0,1
"'515001'","'Total'","Time wait until given room*",50.0,1
"'614701'","'Total'","Std Admission",100.0,1
"'614701'","'Total'","Admission",100.0,1
"'614701'","'Total'","Speed of admission",100.0,1
"'614701'","'Total'","Courtesy of person admitting",100.0,1
"'614701'","'Total'","Pre-admission process*",100.0,1
"'621501'","'Total'","Std Admission",66.7,1
"'621501'","'Total'","Admission",65.0,1
"'621501'","'Total'","Speed of admission",50.0,1
"'621501'","'Total'","Courtesy of person admitting",75.0,1
"'621501'","'Total'","Pre-admission process*",75.0,1
"'621501'","'Total'","Time wait until given room*",50.0,1
"'621501'","'Total'","Billing/insurance questions handled*",75.0,1
"'513901'","'Total'","Std Admission",75.0,1
"'513901'","'Total'","Admission",75.0,1
"'513901'","'Total'","Speed of admission",75.0,1
"'513901'","'Total'","Courtesy of person admitting",75.0,1
"'513901'","'Total'","Pre-admission process*",75.0,1
"'513901'","'Total'","Time wait until given room*",75.0,1
"'513901'","'Total'","Billing/insurance questions handled*",75.0,1
"'322401'","'Total'","Std Admission",75.0,1
"'322401'","'Total'","Admission",87.5,1
"'322401'","'Total'","Speed of admission",50.0,1
"'322401'","'Total'","Courtesy of person admitting",100.0,1
"'322401'","'Total'","Time wait until given room*",100.0,1
"'322401'","'Total'","Billing/insurance questions handled*",100.0,1
"'211901'","'Total'","Std Admission",75.0,1
"'211901'","'Total'","Admission",68.8,1
"'211901'","'Total'","Speed of admission",75.0,1
"'211901'","'Total'","Courtesy of person admitting",75.0,1
"'211901'","'Total'","Time wait until given room*",75.0,1
"'211901'","'Total'","Billing/insurance questions handled*",50.0,1
"'412401'","'Total'","Std Admission",91.7,1
"'412401'","'Total'","Admission",95.0,1
"'412401'","'Total'","Speed of admission",100.0,1
"'412401'","'Total'","Courtesy of person admitting",75.0,1
"'412401'","'Total'","Pre-admission process*",100.0,1
"'412401'","'Total'","Time wait until given room*",100.0,1
"'412401'","'Total'","Billing/insurance questions handled*",100.0,1
"'512201'","'Total'","Std Admission",100.0,1
"'512201'","'Total'","Admission",75.0,1
"'512201'","'Total'","Courtesy of person admitting",100.0,1
"'512201'","'Total'","Time wait until given room*",50.0,1
"'710101'","'Total'","Std Admission",75.0,1
"'710101'","'Total'","Admission",75.0,1
"'710101'","'Total'","Speed of admission",75.0,1
"'710101'","'Total'","Courtesy of person admitting",75.0,1
"'710101'","'Total'","Pre-admission process*",75.0,1
"'710101'","'Total'","Time wait until given room*",75.0,1
"'712201'","'Total'","Std Admission",100.0,1
"'712201'","'Total'","Admission",93.8,1
"'712201'","'Total'","Speed of admission",100.0,1
"'712201'","'Total'","Courtesy of person admitting",100.0,1
"'712201'","'Total'","Pre-admission process*",100.0,1
"'712201'","'Total'","Time wait until given room*",75.0,1
"'514101'","'Total'","Std Admission",75.0,1
"'514101'","'Total'","Admission",75.0,1
"'514101'","'Total'","Speed of admission",75.0,1
"'414001'","'Total'","Std Admission",37.5,1
"'414001'","'Total'","Admission",25.0,1
"'414001'","'Total'","Speed of admission",0.0,1
"'414001'","'Total'","Courtesy of person admitting",75.0,1
"'414001'","'Total'","Time wait until given room*",0.0,1
"'410901'","'Total'","Std Admission",100.0,1
"'410901'","'Total'","Admission",100.0,1
"'410901'","'Total'","Speed of admission",100.0,1
"'614601'","'Total'","Std Admission",75.0,1
"'614601'","'Total'","Admission",75.0,1
"'614601'","'Total'","Speed of admission",75.0,1
"'614601'","'Total'","Courtesy of person admitting",75.0,1
"'614601'","'Total'","Pre-admission process*",75.0,1
"'614601'","'Total'","Time wait until given room*",75.0,1
"'614601'","'Total'","Billing/insurance questions handled*",75.0,1
"'611901'","'Total'","Std Admission",75.0,3
"'611901'","'Total'","Admission",75.0,3
"'611901'","'Total'","Speed of admission",83.3,3
"'611901'","'Total'","Courtesy of person admitting",75.0,3
"'611901'","'Total'","Pre-admission process*",62.5,2
"'611901'","'Total'","Billing/insurance questions handled*",75.0,2
"'611101'","'Total'","Std Admission",91.7,1
"'611101'","'Total'","Admission",93.8,1
"'611101'","'Total'","Speed of admission",100.0,1
"'611101'","'Total'","Courtesy of person admitting",100.0,1
"'611101'","'Total'","Pre-admission process*",75.0,1
"'611101'","'Total'","Billing/insurance questions handled*",100.0,1
"'610701'","'Total'","Std Admission",81.3,2
"'610701'","'Total'","Admission",79.2,2
"'610701'","'Total'","Speed of admission",87.5,2
"'610701'","'Total'","Courtesy of person admitting",75.0,2
"'610701'","'Total'","Pre-admission process*",100.0,1
"'610701'","'Total'","Billing/insurance questions handled*",75.0,2
"'611001'","'Total'","Std Admission",75.0,3
"'611001'","'Total'","Admission",77.1,3
"'611001'","'Total'","Speed of admission",66.7,3
"'611001'","'Total'","Courtesy of person admitting",83.3,3
"'611001'","'Total'","Pre-admission process*",75.0,3
"'611001'","'Total'","Billing/insurance questions handled*",75.0,2
"'612001'","'Total'","Std Admission",87.5,2
"'612001'","'Total'","Admission",84.4,2
"'612001'","'Total'","Speed of admission",75.0,2
"'612001'","'Total'","Courtesy of person admitting",87.5,2
"'612001'","'Total'","Pre-admission process*",100.0,2
"'612001'","'Total'","Billing/insurance questions handled*",75.0,2
"'611601'","'Total'","Std Admission",100.0,1
"'611601'","'Total'","Admission",100.0,1
"'611601'","'Total'","Speed of admission",100.0,1
"'611601'","'Total'","Courtesy of person admitting",100.0,1
"'611601'","'Total'","Pre-admission process*",100.0,1
"'611601'","'Total'","Billing/insurance questions handled*",100.0,1
"'612301'","'Total'","Std Admission",54.2,2
"'612301'","'Total'","Admission",56.3,2
"'612301'","'Total'","Speed of admission",50.0,2
"'612301'","'Total'","Courtesy of person admitting",50.0,2
"'612301'","'Total'","Pre-admission process*",62.5,2
"'612301'","'Total'","Billing/insurance questions handled*",62.5,2
"'610501'","'Total'","Std Admission",100.0,1
"'610501'","'Total'","Admission",100.0,1
"'610501'","'Total'","Speed of admission",100.0,1
"'610501'","'Total'","Courtesy of person admitting",100.0,1
"'610501'","'Total'","Pre-admission process*",100.0,1
"'610501'","'Total'","Billing/insurance questions handled*",100.0,1
"'610601'","'Total'","Std Admission",100.0,1
"'610601'","'Total'","Admission",100.0,1
"'610601'","'Total'","Speed of admission",100.0,1
"'610601'","'Total'","Courtesy of person admitting",100.0,1
"'610601'","'Total'","Pre-admission process*",100.0,1
"'610601'","'Total'","Billing/insurance questions handled*",100.0,1
"'611701'","'Total'","Std Admission",95.8,2
"'611701'","'Total'","Admission",92.7,2
"'611701'","'Total'","Speed of admission",100.0,2
"'611701'","'Total'","Courtesy of person admitting",100.0,2
"'611701'","'Total'","Pre-admission process*",75.0,1
"'611701'","'Total'","Billing/insurance questions handled*",87.5,2
"'611301'","'Total'","Std Admission",75.0,1
"'611301'","'Total'","Admission",81.3,1
"'611301'","'Total'","Speed of admission",75.0,1
"'611301'","'Total'","Courtesy of person admitting",75.0,1
"'611301'","'Total'","Pre-admission process*",75.0,1
"'611301'","'Total'","Billing/insurance questions handled*",100.0,1
"'612101'","'Total'","Std Admission",83.3,2
"'612101'","'Total'","Admission",81.3,2
"'612101'","'Total'","Speed of admission",87.5,2
"'612101'","'Total'","Courtesy of person admitting",75.0,2
"'612101'","'Total'","Pre-admission process*",87.5,2
"'612101'","'Total'","Billing/insurance questions handled*",75.0,2
"'612201'","'Total'","Std Admission",100.0,1
"'612201'","'Total'","Admission",100.0,1
"'612201'","'Total'","Speed of admission",100.0,1
"'612201'","'Total'","Courtesy of person admitting",100.0,1
"'612201'","'Total'","Pre-admission process*",100.0,1
"'612201'","'Total'","Billing/insurance questions handled*",100.0,1
"'Total'","'Total'","Std Admission",77.1,131
"'Total'","'Total'","Admission",74.8,133
"'Total'","'Total'","Speed of admission",72.4,126
"'Total'","'Total'","Courtesy of person admitting",81.4,122
"'Total'","'Total'","Pre-admission process*",76.5,101
"'Total'","'Total'","Time wait until given room*",62.8,86
"'Total'","'Total'","Billing/insurance questions handled*",76.1,91


